\relax 
\providecommand\babel@aux[2]{}
\@nameuse{bbl@beforestart}
\catcode `"\active 
\citation{devlin2018bert}
\citation{karpukhin2020dense}
\citation{xiong2020approximate}
\citation{qu2020rocketqa}
\citation{liu2022retromae}
\citation{nguyen2016ms}
\citation{louis2021statutory}
\citation{nguyen2016ms}
\citation{louis2021statutory}
\babel@aux{english}{}
\@writefile{toc}{\contentsline {section}{\numberline {1} Giới thiệu}{1}{}\protected@file@percent }
\newlabel{sec:intro}{{1}{1}{}{}{}}
\@writefile{lof}{\contentsline {figure}{\numberline {1}{\ignorespaces Illustration of the policy retrieval task performed on the Chinese Stock Policy Retrieval Dataset (CSPRD) , which consists of 700+ prospectus passages carefully labeled by experienced experts with references to relevant policy articles collected by the Shanghai Stock Exchange.}}{1}{}\protected@file@percent }
\newlabel{fig:intro}{{1}{1}{}{}{}}
\citation{daudert-etal-2018-leveraging}
\citation{chen2021finqa}
\citation{jorgensen-etal-2023-multifin}
\citation{daudert-ahmadi-2019-cofif}
\citation{handschke-etal-2018-corpus}
\citation{wilson-etal-2016-creation}
\citation{robertson1995okapi}
\citation{karpukhin2020dense}
\citation{xiong2020approximate}
\citation{karpukhin2020dense}
\citation{xiong2020approximate}
\citation{qu2020rocketqa}
\citation{liu2022retromae}
\citation{qu2020rocketqa}
\citation{liu2022retromae}
\@writefile{toc}{\contentsline {section}{\numberline {2} Công trình liên quan}{2}{}\protected@file@percent }
\@writefile{toc}{\contentsline {subsection}{\numberline {2.1} Các tập dữ liệu tài chính chuyên dụng}{2}{}\protected@file@percent }
\@writefile{toc}{\contentsline {subsection}{\numberline {2.2} Các mô hình truy vấn}{2}{}\protected@file@percent }
\@writefile{toc}{\contentsline {section}{\numberline {3} Tập dữ liệu Truy vấn Chính sách cho Thị trường Chứng khoán Trung Quốc}{2}{}\protected@file@percent }
\newlabel{sec:dataset}{{3}{2}{}{}{}}
\@writefile{toc}{\contentsline {subsection}{\numberline {3.1} Thu thập dữ liệu}{2}{}\protected@file@percent }
\citation{zhao2020TermTree}
\citation{simbert}
\@writefile{lof}{\contentsline {figure}{\numberline {2}{\ignorespaces Tổng quan quá trình chú thích. Sau phân tích dữ liệu, các đoạn giới thiệu thu thập và điều khoản chính sách được đưa cho hệ thống lựa chọn pha trộn chuyên gia (MoE) bao gồm các mô hình không giám sát. Các điều khoản Top-20 cho mỗi đoạn giới thiệu được chọn là gợi ý cho quá trình chú thích con người.}}{3}{}\protected@file@percent }
\newlabel{fig:annotation}{{2}{3}{}{}{}}
\@writefile{toc}{\contentsline {subsection}{\numberline {3.2} Xử lý dữ liệu}{3}{}\protected@file@percent }
\@writefile{toc}{\contentsline {subsection}{\numberline {3.3} Lựa chọn MoE không giám sát}{3}{}\protected@file@percent }
\@writefile{toc}{\contentsline {subsection}{\numberline {3.4} Chú thích chuyên gia}{3}{}\protected@file@percent }
\@writefile{toc}{\contentsline {subsection}{\numberline {3.5} Phát hành tập dữ liệu}{3}{}\protected@file@percent }
\citation{robertson1995okapi}
\citation{devlin2018bert}
\citation{karpukhin2020dense}
\citation{liu2022retromae}
\citation{cui-etal-2020-revisiting}
\citation{cui-etal-2020-revisiting}
\citation{liu2022retromae}
\citation{cui-etal-2020-revisiting}
\citation{karpukhin2020dense}
\citation{liu2022retromae}
\citation{cui-etal-2020-revisiting}
\citation{karpukhin2020dense}
\citation{robertson1995okapi}
\citation{devlin2018bert}
\citation{cui-etal-2020-revisiting}
\citation{cui-etal-2020-revisiting}
\citation{zhang2021mengzi}
\citation{liu2022retromae}
\citation{text2vec}
\@writefile{toc}{\contentsline {section}{\numberline {4} Các thí nghiệm}{4}{}\protected@file@percent }
\newlabel{sec:models}{{4}{4}{}{}{}}
\@writefile{toc}{\contentsline {subsection}{\numberline {4.1} Các mô hình}{4}{}\protected@file@percent }
\@writefile{lot}{\contentsline {table}{\numberline {1}{\ignorespaces Kiểm chuẩn truy vấn của một số phương pháp trên tập phát triển CSPRD. Chúng tôi cho huấn luyện trước RetroMAE \cite  {liu2022retromae} từ đầu trên $\sim $60GB tập văn tiếng Trung với BERT tiếng Trung \cite  {cui-etal-2020-revisiting} làm encoder. Các mô hình với $^\dagger $ được tinh chỉnh với DPR \cite  {karpukhin2020dense} làm khuôn mẫu.}}{4}{}\protected@file@percent }
\newlabel{tab:results}{{1}{4}{}{}{}}
\@writefile{toc}{\contentsline {subsection}{\numberline {4.2} Kết quả và phân tích}{4}{}\protected@file@percent }
\bibstyle{IEEEbib}
\bibdata{refs}
\bibcite{devlin2018bert}{1}
\bibcite{karpukhin2020dense}{2}
\bibcite{xiong2020approximate}{3}
\bibcite{qu2020rocketqa}{4}
\bibcite{liu2022retromae}{5}
\bibcite{nguyen2016ms}{6}
\bibcite{louis2021statutory}{7}
\bibcite{daudert-etal-2018-leveraging}{8}
\bibcite{chen2021finqa}{9}
\bibcite{jorgensen-etal-2023-multifin}{10}
\@writefile{toc}{\contentsline {section}{\numberline {5} Kết luận}{5}{}\protected@file@percent }
\@writefile{toc}{\contentsline {section}{\numberline {6} References}{5}{}\protected@file@percent }
\bibcite{daudert-ahmadi-2019-cofif}{11}
\bibcite{handschke-etal-2018-corpus}{12}
\bibcite{wilson-etal-2016-creation}{13}
\bibcite{robertson1995okapi}{14}
\bibcite{zhao2020TermTree}{15}
\bibcite{simbert}{16}
\bibcite{cui-etal-2020-revisiting}{17}
\bibcite{zhang2021mengzi}{18}
\bibcite{text2vec}{19}
\citation{devlin2018bert}
\citation{cui-etal-2020-revisiting}
\citation{cui-etal-2020-revisiting}
\citation{zhang2021mengzi}
\citation{liu2022retromae}
\citation{text2vec}
\@writefile{toc}{\contentsline {section}{\numberline {A} Nguồn dữ liệu}{6}{}\protected@file@percent }
\newlabel{sec:data_source}{{A}{6}{}{}{}}
\@writefile{toc}{\contentsline {section}{\numberline {B} Các thống kê tập dữ liệu}{6}{}\protected@file@percent }
\newlabel{app:sta}{{B}{6}{}{}{}}
\@writefile{toc}{\contentsline {section}{\numberline {C} Dịch tập dữ liệu}{6}{}\protected@file@percent }
\newlabel{app:trans}{{C}{6}{}{}{}}
\@writefile{toc}{\contentsline {section}{\numberline {D} Cài đặt thực nghiệm}{6}{}\protected@file@percent }
\@writefile{lot}{\contentsline {table}{\numberline {2}{\ignorespaces Các files nguồn từ website SSE STAR Market}}{7}{}\protected@file@percent }
\newlabel{tab:policy_source}{{2}{7}{}{}{}}
\@writefile{lof}{\contentsline {figure}{\numberline {3}{\ignorespaces Phân phối các đoạn giới thiệu cặp đôi từng điều khoản chính sách.}}{7}{}\protected@file@percent }
\newlabel{fig:dataset5}{{3}{7}{}{}{}}
\@writefile{lof}{\contentsline {figure}{\numberline {4}{\ignorespaces Các thống kê mẫu trong tập huấn luyện và phát triển của CSPRD. Các mẫu được đánh dấu vào 7 nhóm, 6 giống hệt với các nhóm STAR Market, nhóm còn lại là \textit  {Chung}.}}{8}{}\protected@file@percent }
\newlabel{fig:dataset}{{4}{8}{}{}{}}
\@writefile{lof}{\contentsline {figure}{\numberline {5}{\ignorespaces Thống kê số các điều khoản chính sách liên quan với mỗi đoạn quảng cáo}}{8}{}\protected@file@percent }
\newlabel{fig:dataset2}{{5}{8}{}{}{}}
\@writefile{lof}{\contentsline {figure}{\numberline {6}{\ignorespaces Phân phối ghép giữa các đoạn quảng cáo và các tài liệu quy định Top20}}{9}{}\protected@file@percent }
\newlabel{fig:dataset3}{{6}{9}{}{}{}}
\@writefile{lof}{\contentsline {figure}{\numberline {7}{\ignorespaces Phân phối độ dài của đoạn quảng cáo và điều khoản chính sách}}{9}{}\protected@file@percent }
\newlabel{fig:dataset4}{{7}{9}{}{}{}}
\gdef \@abspage@last{9}
