\relax 
\providecommand\babel@aux[2]{}
\@nameuse{bbl@beforestart}
\catcode `"\active 
\providecommand\hyper@newdestlabel[2]{}
\providecommand\HyField@AuxAddToFields[1]{}
\providecommand\HyField@AuxAddToCoFields[2]{}
\citation{du2023deep}
\citation{du2023deep}
\citation{du2023deep}
\citation{zou2023wireless}
\citation{ferrag2023revolutionizing}
\citation{liuaigc}
\citation{prompt}
\citation{liuaigc}
\citation{prompt}
\citation{hao2022optimizing}
\providecommand \oddpage@label [2]{}
\babel@aux{english}{}
\@writefile{toc}{\contentsline {section}{\numberline {I}Giới thiệu}{1}{section.1}\protected@file@percent }
\citation{hao2022optimizing}
\citation{PFMscollection}
\citation{du2023deep}
\citation{PFMscollection}
\citation{du2023deep}
\citation{PFMscollection}
\citation{Khattak_2023_CVPR}
\citation{VPT}
\citation{prompt}
\@writefile{toc}{\contentsline {section}{\numberline {II}AIGX: Các thành phần, cơ bản, và ứng dụng}{2}{section.2}\protected@file@percent }
\@writefile{toc}{\contentsline {subsection}{\numberline {\mbox  {II-A}}GAI \& PFMs}{2}{subsection.2.1}\protected@file@percent }
\@writefile{toc}{\contentsline {subsection}{\numberline {\mbox  {II-B}}Nối PFMs và các tác vụ bằng prompts}{2}{subsection.2.2}\protected@file@percent }
\citation{zou2023wireless}
\citation{ferrag2023revolutionizing}
\citation{zou2023wireless}
\citation{liu2023semantic}
\citation{PFMscollection}
\citation{du2023deep}
\citation{destefanis2023preliminary}
\@writefile{lof}{\contentsline {figure}{\numberline {1}{\ignorespaces \texttt  {(a)} Trường hợp tạo hình ảnh trong AIGX biên di động. \texttt  {(b)} Sơ đồ các phương pháp tinh chỉnh và dùng prompt. Tinh chỉnh tạo ánh xạ 1-1, nghĩa là, mội PFM chỉ áp dụng cho một tác vụ. Tuy nhiên, bằng cách cố định các PFMs, phương pháp dùng prompt đặc biệt hóa các tác vụ (biểu diễn bằng nét khác nhau) và tạo ánh xạ 1-nhiều. Điều này hiệu quả hơn vì không cần tài nguyên tính toán và tập dữ liệu cho tinh chỉnh. \texttt  {(c)} Minh họa tiến hóa từ AIGC đến AIGX. \texttt  {(d)} Minh họa đặt yêu cầu không lượt, môt lượt và theo dòng suy nghĩ.}}{3}{figure.caption.1}\protected@file@percent }
\providecommand*\caption@xref[2]{\@setref\relax\@undefined{#1}}
\newlabel{prompt}{{1}{3}{\texttt {(a)} Trường hợp tạo hình ảnh trong AIGX biên di động. \texttt {(b)} Sơ đồ các phương pháp tinh chỉnh và dùng prompt. Tinh chỉnh tạo ánh xạ 1-1, nghĩa là, mội PFM chỉ áp dụng cho một tác vụ. Tuy nhiên, bằng cách cố định các PFMs, phương pháp dùng prompt đặc biệt hóa các tác vụ (biểu diễn bằng nét khác nhau) và tạo ánh xạ 1-nhiều. Điều này hiệu quả hơn vì không cần tài nguyên tính toán và tập dữ liệu cho tinh chỉnh. \texttt {(c)} Minh họa tiến hóa từ AIGC đến AIGX. \texttt {(d)} Minh họa đặt yêu cầu không lượt, môt lượt và theo dòng suy nghĩ}{figure.caption.1}{}}
\@writefile{toc}{\contentsline {subsection}{\numberline {\mbox  {II-C}}From AIGC to AIGX}{3}{subsection.2.3}\protected@file@percent }
\@writefile{toc}{\contentsline {subsection}{\numberline {\mbox  {II-D}}Các ví dụ AIGX}{3}{subsection.2.4}\protected@file@percent }
\@writefile{toc}{\contentsline {subsubsection}{\numberline {\mbox  {II-D}1}Thiết kế hệ thống tạo bởi TTNT}{3}{subsubsection.2.4.1}\protected@file@percent }
\@writefile{toc}{\contentsline {subsubsection}{\numberline {\mbox  {II-D}2}Xử lí dữ liệu tạo bởi TTNT}{3}{subsubsection.2.4.2}\protected@file@percent }
\@writefile{toc}{\contentsline {subsubsection}{\numberline {\mbox  {II-D}3}Giải pháp tối ưu tạo bởi TTNT}{3}{subsubsection.2.4.3}\protected@file@percent }
\@writefile{toc}{\contentsline {subsubsection}{\numberline {\mbox  {II-D}4}Lập trình tạo bởi TTNT}{3}{subsubsection.2.4.4}\protected@file@percent }
\citation{fewshot}
\citation{jiang-etal-2020-know}
\citation{prompt}
\citation{prompt}
\citation{chen2023netgpt}
\@writefile{toc}{\contentsline {section}{\numberline {III}Tối ưu hóa AIGX biên di động bằng thiết kế prompt}{4}{section.3}\protected@file@percent }
\@writefile{toc}{\contentsline {subsection}{\numberline {\mbox  {III-A}}Các phương pháp thiết kế prompt}{4}{subsection.3.1}\protected@file@percent }
\@writefile{toc}{\contentsline {subsubsection}{\numberline {\mbox  {III-A}1}Các phương pháp thủ công}{4}{subsubsection.3.1.1}\protected@file@percent }
\@writefile{toc}{\contentsline {subsubsection}{\numberline {\mbox  {III-A}2}Các phương pháp tự động}{4}{subsubsection.3.1.2}\protected@file@percent }
\@writefile{toc}{\contentsline {subsection}{\numberline {\mbox  {III-B}}Thiết kế framework}{4}{subsection.3.2}\protected@file@percent }
\@writefile{toc}{\contentsline {subsubsection}{\numberline {\mbox  {III-B}1}Kiến trúc}{4}{subsubsection.3.2.1}\protected@file@percent }
\citation{talebi2018nima}
\@writefile{lof}{\contentsline {figure}{\numberline {2}{\ignorespaces Thiết kế framework. Kiến trúc framework ba lớp ở giữa. Hơn nữa, chúng tôi lấy ứng dụng AI tạo ảnh làm ví dụ để thể hiện bốn bước người dùng nên làm.}}{5}{figure.caption.2}\protected@file@percent }
\newlabel{frame}{{2}{5}{Thiết kế framework. Kiến trúc framework ba lớp ở giữa. Hơn nữa, chúng tôi lấy ứng dụng AI tạo ảnh làm ví dụ để thể hiện bốn bước người dùng nên làm}{figure.caption.2}{}}
\@writefile{lof}{\contentsline {figure}{\numberline {3}{\ignorespaces Bộ thiết kế prompt dùng ChatGPT và một ví dụ về thiết kế bếp. Chúng tôi có thể thấy rằng cả mẫu prompt bao gồm sáu phần liên tiếp.}}{5}{figure.caption.3}\protected@file@percent }
\newlabel{prompt3}{{3}{5}{Bộ thiết kế prompt dùng ChatGPT và một ví dụ về thiết kế bếp. Chúng tôi có thể thấy rằng cả mẫu prompt bao gồm sáu phần liên tiếp}{figure.caption.3}{}}
\@writefile{toc}{\contentsline {subsubsection}{\numberline {\mbox  {III-B}2}Luồng công việc người dùng}{5}{subsubsection.3.2.2}\protected@file@percent }
\citation{PFMscollection}
\citation{talebi2018nima}
\citation{PFMscollection}
\@writefile{toc}{\contentsline {section}{\numberline {IV}Nghiên cứu trường hợp: Thiết kế nội thất dùng VR hiệu quả tài nguyên bằng thiết kế prompt}{6}{section.4}\protected@file@percent }
\@writefile{toc}{\contentsline {subsection}{\numberline {\mbox  {IV-A}}Mô hình hệ thống}{6}{subsection.4.1}\protected@file@percent }
\@writefile{toc}{\contentsline {subsection}{\numberline {\mbox  {IV-B}}PESP dùng ChatGPT}{6}{subsection.4.2}\protected@file@percent }
\@writefile{toc}{\contentsline {subsection}{\numberline {\mbox  {IV-C}}Công thức hóa bài toán tối ưu}{6}{subsection.4.3}\protected@file@percent }
\@writefile{toc}{\contentsline {subsection}{\numberline {\mbox  {IV-D}}Kết quả số}{6}{subsection.4.4}\protected@file@percent }
\@writefile{toc}{\contentsline {subsubsection}{\numberline {\mbox  {IV-D}1}Cài đặt thí nghiệm}{6}{subsubsection.4.4.1}\protected@file@percent }
\@writefile{lof}{\contentsline {figure}{\numberline {4}{\ignorespaces Tính hiệu quả của bộ tối ưu hóa prompt dùng ChatGPT. \texttt  {(a)} Hình ảnh ``\textit  {Một nhà bếp, với thiết bị nấu}" dùng các prompts gốc và tối ưu hóa. Chú ý rằng chúng tôi thực hiện nghiên cứu gia tăng để tìm hiểu khía cạnh nào của làm giàu nội dung đóng vai trò quan trọng cải thiện QoG. \textit  {(b)} Phương hướng điểm NIMA trong nghiên cứu gia tăng. \texttt  {(c)} minh họa các trường hợp khác của thiết kế nội thất.}}{7}{figure.caption.4}\protected@file@percent }
\newlabel{prompt4}{{4}{7}{Tính hiệu quả của bộ tối ưu hóa prompt dùng ChatGPT. \texttt {(a)} Hình ảnh ``\textit {Một nhà bếp, với thiết bị nấu}" dùng các prompts gốc và tối ưu hóa. Chú ý rằng chúng tôi thực hiện nghiên cứu gia tăng để tìm hiểu khía cạnh nào của làm giàu nội dung đóng vai trò quan trọng cải thiện QoG. \textit {(b)} Phương hướng điểm NIMA trong nghiên cứu gia tăng. \texttt {(c)} minh họa các trường hợp khác của thiết kế nội thất}{figure.caption.4}{}}
\@writefile{toc}{\contentsline {subsubsection}{\numberline {\mbox  {IV-D}2}Phân tích thẩm mĩ}{7}{subsubsection.4.4.2}\protected@file@percent }
\@writefile{toc}{\contentsline {subsubsection}{\numberline {\mbox  {IV-D}3}Các kết quả số}{7}{subsubsection.4.4.3}\protected@file@percent }
\@writefile{lof}{\contentsline {figure}{\numberline {5}{\ignorespaces QoE và QoG chung với PERs khác nhau.}}{7}{figure.caption.5}\protected@file@percent }
\newlabel{prompt5}{{5}{7}{QoE và QoG chung với PERs khác nhau}{figure.caption.5}{}}
\@writefile{lof}{\contentsline {figure}{\numberline {6}{\ignorespaces Chậm trễ dịch vụ, phí dịch vụ, và tiêu hao đường truyền với PERs khác nhau.}}{7}{figure.caption.5}\protected@file@percent }
\newlabel{prompt6}{{6}{7}{Chậm trễ dịch vụ, phí dịch vụ, và tiêu hao đường truyền với PERs khác nhau}{figure.caption.5}{}}
\bibstyle{IEEEtran}
\bibcite{du2023deep}{1}
\bibcite{zou2023wireless}{2}
\bibcite{ferrag2023revolutionizing}{3}
\bibcite{prompt}{4}
\bibcite{liuaigc}{5}
\bibcite{hao2022optimizing}{6}
\bibcite{PFMscollection}{7}
\bibcite{Khattak_2023_CVPR}{8}
\bibcite{VPT}{9}
\bibcite{liu2023semantic}{10}
\bibcite{destefanis2023preliminary}{11}
\bibcite{fewshot}{12}
\bibcite{promptmining}{13}
\bibcite{chen2023netgpt}{14}
\bibcite{talebi2018nima}{15}
\@writefile{toc}{\contentsline {section}{\numberline {V}Các phương hướng tương lai}{8}{section.5}\protected@file@percent }
\@writefile{toc}{\contentsline {subsection}{\numberline {\mbox  {V-A}}Phát hiện các tấn công hướng prompt}{8}{subsection.5.1}\protected@file@percent }
\@writefile{toc}{\contentsline {subsection}{\numberline {\mbox  {V-B}}Quản lý prompt cộng tác trong mạng biên}{8}{subsection.5.2}\protected@file@percent }
\@writefile{toc}{\contentsline {subsection}{\numberline {\mbox  {V-C}}AIGX biên di động đa phương tiện}{8}{subsection.5.3}\protected@file@percent }
\@writefile{toc}{\contentsline {section}{\numberline {VI}Kết luận}{8}{section.6}\protected@file@percent }
\@writefile{toc}{\contentsline {section}{References}{8}{section*.6}\protected@file@percent }
\gdef \@abspage@last{8}
