\BOOKMARK [1][-]{section.1}{\376\377\000G\000i\036\333\000i\000\040\000t\000h\000i\036\307\000u}{}% 1
\BOOKMARK [1][-]{section.2}{\376\377\000A\000I\000G\000X\000:\000\040\000C\000\341\000c\000\040\000t\000h\000\340\000n\000h\000\040\000p\000h\036\247\000n\000,\000\040\000c\001\241\000\040\000b\036\243\000n\000,\000\040\000v\000\340\000\040\036\351\000n\000g\000\040\000d\036\345\000n\000g}{}% 2
\BOOKMARK [2][-]{subsection.2.1}{\376\377\000G\000A\000I\000\040\000\046\000\040\000P\000F\000M\000s}{section.2}% 3
\BOOKMARK [2][-]{subsection.2.2}{\376\377\000N\036\321\000i\000\040\000P\000F\000M\000s\000\040\000v\000\340\000\040\000c\000\341\000c\000\040\000t\000\341\000c\000\040\000v\036\345\000\040\000b\036\261\000n\000g\000\040\000p\000r\000o\000m\000p\000t\000s}{section.2}% 4
\BOOKMARK [2][-]{subsection.2.3}{\376\377\000F\000r\000o\000m\000\040\000A\000I\000G\000C\000\040\000t\000o\000\040\000A\000I\000G\000X}{section.2}% 5
\BOOKMARK [2][-]{subsection.2.4}{\376\377\000C\000\341\000c\000\040\000v\000\355\000\040\000d\036\345\000\040\000A\000I\000G\000X}{section.2}% 6
\BOOKMARK [3][-]{subsubsection.2.4.1}{\376\377\000T\000h\000i\036\277\000t\000\040\000k\036\277\000\040\000h\036\307\000\040\000t\000h\036\321\000n\000g\000\040\000t\036\241\000o\000\040\000b\036\337\000i\000\040\000T\000T\000N\000T}{subsection.2.4}% 7
\BOOKMARK [3][-]{subsubsection.2.4.2}{\376\377\000X\036\355\000\040\000l\000\355\000\040\000d\036\357\000\040\000l\000i\036\307\000u\000\040\000t\036\241\000o\000\040\000b\036\337\000i\000\040\000T\000T\000N\000T}{subsection.2.4}% 8
\BOOKMARK [3][-]{subsubsection.2.4.3}{\376\377\000G\000i\036\243\000i\000\040\000p\000h\000\341\000p\000\040\000t\036\321\000i\000\040\001\260\000u\000\040\000t\036\241\000o\000\040\000b\036\337\000i\000\040\000T\000T\000N\000T}{subsection.2.4}% 9
\BOOKMARK [3][-]{subsubsection.2.4.4}{\376\377\000L\036\255\000p\000\040\000t\000r\000\354\000n\000h\000\040\000t\036\241\000o\000\040\000b\036\337\000i\000\040\000T\000T\000N\000T}{subsection.2.4}% 10
\BOOKMARK [1][-]{section.3}{\376\377\000T\036\321\000i\000\040\001\260\000u\000\040\000h\000\363\000a\000\040\000A\000I\000G\000X\000\040\000b\000i\000\352\000n\000\040\000d\000i\000\040\001\021\036\331\000n\000g\000\040\000b\036\261\000n\000g\000\040\000t\000h\000i\036\277\000t\000\040\000k\036\277\000\040\000p\000r\000o\000m\000p\000t}{}% 11
\BOOKMARK [2][-]{subsection.3.1}{\376\377\000C\000\341\000c\000\040\000p\000h\001\260\001\241\000n\000g\000\040\000p\000h\000\341\000p\000\040\000t\000h\000i\036\277\000t\000\040\000k\036\277\000\040\000p\000r\000o\000m\000p\000t}{section.3}% 12
\BOOKMARK [3][-]{subsubsection.3.1.1}{\376\377\000C\000\341\000c\000\040\000p\000h\001\260\001\241\000n\000g\000\040\000p\000h\000\341\000p\000\040\000t\000h\036\347\000\040\000c\000\364\000n\000g}{subsection.3.1}% 13
\BOOKMARK [3][-]{subsubsection.3.1.2}{\376\377\000C\000\341\000c\000\040\000p\000h\001\260\001\241\000n\000g\000\040\000p\000h\000\341\000p\000\040\000t\036\361\000\040\001\021\036\331\000n\000g}{subsection.3.1}% 14
\BOOKMARK [2][-]{subsection.3.2}{\376\377\000T\000h\000i\036\277\000t\000\040\000k\036\277\000\040\000f\000r\000a\000m\000e\000w\000o\000r\000k}{section.3}% 15
\BOOKMARK [3][-]{subsubsection.3.2.1}{\376\377\000K\000i\036\277\000n\000\040\000t\000r\000\372\000c}{subsection.3.2}% 16
\BOOKMARK [3][-]{subsubsection.3.2.2}{\376\377\000L\000u\036\323\000n\000g\000\040\000c\000\364\000n\000g\000\040\000v\000i\036\307\000c\000\040\000n\000g\001\260\036\335\000i\000\040\000d\000\371\000n\000g}{subsection.3.2}% 17
\BOOKMARK [1][-]{section.4}{\376\377\000N\000g\000h\000i\000\352\000n\000\040\000c\036\351\000u\000\040\000t\000r\001\260\036\335\000n\000g\000\040\000h\036\343\000p\000:\000\040\000T\000h\000i\036\277\000t\000\040\000k\036\277\000\040\000n\036\331\000i\000\040\000t\000h\036\245\000t\000\040\000d\000\371\000n\000g\000\040\000V\000R\000\040\000h\000i\036\307\000u\000\040\000q\000u\036\243\000\040\000t\000\340\000i\000\040\000n\000g\000u\000y\000\352\000n\000\040\000b\036\261\000n\000g\000\040\000t\000h\000i\036\277\000t\000\040\000k\036\277\000\040\000p\000r\000o\000m\000p\000t}{}% 18
\BOOKMARK [2][-]{subsection.4.1}{\376\377\000M\000\364\000\040\000h\000\354\000n\000h\000\040\000h\036\307\000\040\000t\000h\036\321\000n\000g}{section.4}% 19
\BOOKMARK [2][-]{subsection.4.2}{\376\377\000P\000E\000S\000P\000\040\000d\000\371\000n\000g\000\040\000C\000h\000a\000t\000G\000P\000T}{section.4}% 20
\BOOKMARK [2][-]{subsection.4.3}{\376\377\000C\000\364\000n\000g\000\040\000t\000h\036\351\000c\000\040\000h\000\363\000a\000\040\000b\000\340\000i\000\040\000t\000o\000\341\000n\000\040\000t\036\321\000i\000\040\001\260\000u}{section.4}% 21
\BOOKMARK [2][-]{subsection.4.4}{\376\377\000K\036\277\000t\000\040\000q\000u\036\243\000\040\000s\036\321}{section.4}% 22
\BOOKMARK [3][-]{subsubsection.4.4.1}{\376\377\000C\000\340\000i\000\040\001\021\036\267\000t\000\040\000t\000h\000\355\000\040\000n\000g\000h\000i\036\307\000m}{subsection.4.4}% 23
\BOOKMARK [3][-]{subsubsection.4.4.2}{\376\377\000P\000h\000\342\000n\000\040\000t\000\355\000c\000h\000\040\000t\000h\036\251\000m\000\040\000m\001\051}{subsection.4.4}% 24
\BOOKMARK [3][-]{subsubsection.4.4.3}{\376\377\000C\000\341\000c\000\040\000k\036\277\000t\000\040\000q\000u\036\243\000\040\000s\036\321}{subsection.4.4}% 25
\BOOKMARK [1][-]{section.5}{\376\377\000C\000\341\000c\000\040\000p\000h\001\260\001\241\000n\000g\000\040\000h\001\260\036\333\000n\000g\000\040\000t\001\260\001\241\000n\000g\000\040\000l\000a\000i}{}% 26
\BOOKMARK [2][-]{subsection.5.1}{\376\377\000P\000h\000\341\000t\000\040\000h\000i\036\307\000n\000\040\000c\000\341\000c\000\040\000t\036\245\000n\000\040\000c\000\364\000n\000g\000\040\000h\001\260\036\333\000n\000g\000\040\000p\000r\000o\000m\000p\000t}{section.5}% 27
\BOOKMARK [2][-]{subsection.5.2}{\376\377\000Q\000u\036\243\000n\000\040\000l\000\375\000\040\000p\000r\000o\000m\000p\000t\000\040\000c\036\331\000n\000g\000\040\000t\000\341\000c\000\040\000t\000r\000o\000n\000g\000\040\000m\036\241\000n\000g\000\040\000b\000i\000\352\000n}{section.5}% 28
\BOOKMARK [2][-]{subsection.5.3}{\376\377\000A\000I\000G\000X\000\040\000b\000i\000\352\000n\000\040\000d\000i\000\040\001\021\036\331\000n\000g\000\040\001\021\000a\000\040\000p\000h\001\260\001\241\000n\000g\000\040\000t\000i\036\307\000n}{section.5}% 29
\BOOKMARK [1][-]{section.6}{\376\377\000K\036\277\000t\000\040\000l\000u\036\255\000n}{}% 30
\BOOKMARK [1][-]{section*.6}{\376\377\000R\000e\000f\000e\000r\000e\000n\000c\000e\000s}{}% 31
