%!PS-Adobe-3.0 EPSF-3.0
%%BoundingBox: 0 0 736 501
%%LanguageLevel: 2
%%Creator: OriginLab Corporation
%%Title: (\\Mac\Home\Desktop\OriginLab\User Files\prompt2-2.eps)
%%CreationDate: Wed Nov 15 10:37:54 2023
%%EndComments

/OriginLab::PSL1 128 dict dup begin def
/Save0 save def
%%BeginResource: procset OriginLab::PSL1
/wd{1 index where{pop pop pop}{bind def}ifelse}bind def
/setcmykcolor{1 sub 4 1 roll 3{3 index add neg dup 0 lt{pop 0}if 3 1 roll}repeat setrgbcolor pop}wd
/selectfont{dup type/arraytype eq{exch findfont exch makefont setfont}{exch findfont exch scalefont setfont}ifelse}wd
/xshow{1 index length 0 le{}{currentpoint exch 3 index length 1 sub 0 exch 1 exch{dup 5 index exch 1 getinterval show 3 index exch get add 2 copy exch moveto}for pop pop}ifelse pop pop}wd
/glyphshowEmulation{matrix currentmatrix exch currentfont dup/FontMatrix get concat currentpoint translate
 dup/Metrics get 2 index get 0 4 2 roll gsave/CharProcs get exch 2 copy known not{pop/.notdef}if
 get exec fill grestore moveto setmatrix} bind def
/grayimage/image load def/rgbtogray{cvx exec dup length 3 idiv 1 sub 0 exch 1 exch{dup 3 mul dup 3 index exch get 255 div .3 mul exch
 1 add dup 4 index exch get 255 div .59 mul exch 1 add 4 index exch get 255 div .11 mul add add
 255 mul dup 255 gt{255}if round cvi 2 index 3 1 roll put}for dup length 3 idiv 0 exch getinterval}bind def
/colorimage{0 setgray pop pop cvlit/rgbtogray cvx 2 packedarray cvx grayimage}wd
/IsWord2010 { false } bind def
currentsystemparams /PrinterName known { /IsWord2010 { false currentsystemparams /PrinterName get (Access Softek) eq } bind def } if
IsWord2010 { /glyphshow { pop } bind def}{/glyphshow{glyphshowEmulation}wd }ifelse
/bd{bind def}bind def/ld{load def}bd/ed{exch def}bd/xd{cvx def}bd
/np/newpath ld/a/arc ld/m/moveto ld/l/lineto ld/c/curveto ld/rm/rmoveto ld/rl/rlineto ld/rc/rcurveto ld/cp/closepath ld/cpt/currentpoint ld
/tr/translate ld/sc/scale ld/ro/rotate ld/t/transform ld/it/itransform ld/dt/dtransform ld/idt/idtransform ld
/mtx/matrix ld/cmtx/currentmatrix ld/dmtx/defaultmatrix ld/smtx/setmatrix ld/catmtx/concatmatrix ld
/sw/setlinewidth ld/scap/setlinecap ld/sj/setlinejoin ld/sm/setmiterlimit ld/sd/setdash ld/rgb/setrgbcolor ld/crgb/currentrgbcolor ld/cmyk/setcmykcolor ld/gs/gsave ld/gr/grestore ld
/st/stroke ld/fi/fill ld/eofi/eofill ld/cl/clip ld/eocl/eoclip ld
/df/definefont ld/ff/findfont ld/sf/setfont ld/scf/scalefont ld/self/selectfont ld/cf/currentfont ld
/s/show ld/xs/xshow ld/gls/glyphshowEmulation ld/xgls{cpt 3 1 roll add exch 3 -1 roll gls m}bd
/xglsh{cpt 3 1 roll add exch 3 -1 roll glyphshow m}bd
/cd/currentdict ld/i/index ld
/DrawBox{4 2 roll m 1 index 0 rl 0 exch rl neg 0 rl cp}bd
/plus.re { 6 { 3 index } repeat moveto 0 exch rlineto 0 rlineto pop pop neg 0 exch rlineto pop lineto closepath } def
/DrawBcc{4 2 roll m 2 copy 0 lt exch 0 lt xor{dup 0 exch rl exch 0 rl neg 0 exch rl}{exch dup 0 rl exch 0 exch rl neg 0 rl}ifelse cp}bd
/rectline{dup type/arraytype eq{dup length 0 exch 4 exch 4 sub{0 1 3{3 copy add get 4 1 roll pop}for pop 5 1 roll DrawBox}for pop}{DrawBox}ifelse}bd
/rectpath{dup type/arraytype eq{dup length 0 exch 4 exch 4 sub{0 1 3{3 copy add get 4 1 roll pop}for pop 5 1 roll DrawBcc}for pop}{DrawBcc}ifelse}bd
/pathproc{[{/m cvx}{/l cvx}{/c cvx}{/cp cvx}pathforall]cvx}bd
/L1img/image ld/L1idx[{0}
 {dup 7 and 3 1 roll -3 bitshift get exch 7 sub 1 mul bitshift  1 and}bind 1 index dup
 {dup 1 and 3 1 roll -1 bitshift get exch 1 sub 4 mul bitshift 15 and}bind 1 index dup dup
 {get}bind]def
/image{dup type/dicttype eq {dup/ImgCS get 0 get/Indexed eq}{false}ifelse
 {begin Width Height 8 ImageMatrix {rgb_string rgb_lookup
 cd/DataSource get dup type/filetype eq
 {mystring readstring pop}{exec}ifelse
 dup length 0 ne
 {L1idx BitsPerComponent get 0 1 Width 1 sub
 {3 copy exch exec exch 3 mul exch
 3 mul dup 5 index exch get exch 1 add dup 6 index exch get exch 1 add 6 index exch get
 7 index exch 4 index 2 add exch put 6 index exch 3 index 1 add exch put 5 index exch 2 index exch put pop
 }for pop pop pop }{pop pop pop ()}ifelse }false 3 colorimage end} {dup type/dicttype eq
 {{dup mark exch L1img pop pop}stopped{cleartomark begin Width Height BitsPerComponent ImageMatrix
 {cd/DataSource get dup type/filetype eq {mystring readstring pop}{exec}ifelse
 }false 3 colorimage end} if}{L1img}ifelse}ifelse
 }bd
/L1imgmask/imagemask ld/imagemask{dup type/dicttype eq
 {{dup mark exch L1imgmask pop pop}stopped {cleartomark begin Width Height polarityflag ImageMatrix
 {cd/DataSource get dup type/filetype eq {mystring readstring pop}{exec}ifelse
 }L1imgmask end}if}{L1imgmask}ifelse
 }bd
% Gradient function
/GradientStep 1 150 div def
/GradientStartRGB { /R1 exch def /G1 exch def /B1 exch def } def
/GradientEndRGB { /R2 exch def /G2 exch def /B2 exch def
/GradientSteps GradientLength GradientStep div def
/GradientRStep R2 R1 sub GradientSteps div def
/GradientGStep G2 G1 sub GradientSteps div def
/GradientBStep B2 B1 sub GradientSteps div def
} def
/GradientStepRGB { /R1 R1 GradientRStep add def
/G1 G1 GradientGStep add def
/B1 B1 GradientBStep add def
R1 G1 B1 setrgbcolor
} def
%%EndResource
/rectclip{np rectpath clip np}wd
/rectfill{gs np rectpath fi gr}wd
/rectstroke{gs np dup type/arraytype eq{dup length 6 eq}{false}ifelse{1 index type/arraytype eq{exch}{5 1 roll}ifelse rectline concat st}{rectline st}ifelse gr}wd
%%BeginResource: procset OriginLab::Image
/OriginLab::Image 32 dict dup begin
/BinProc{[currentfile mystring /readstring cvx /pop cvx] cvx bind}bd
/HexProc{[currentfile mystring /readhexstring cvx /pop cvx] cvx bind}bd
/Ascii85Proc{currentfile /ASCII85Decode filter}bd
/LZWA85{currentfile /ASCII85Decode filter /LZWDecode filter}bd
/ImgProcArray[/BinProc /HexProc /Ascii85Proc /LZWA85]def
/ImgDict{/ImgDict 16 dict def ImgDict dup begin /ImageType 1 def /MultipleDataSource false def end}bd
/L2Dec{{[1 0]}{[0 1]}ifelse}bd
/BegImg{ /Img_sv save def
 /ImgDir ed ImgProcArray exch get /ImgProc exch ld
 dup /polarityflag ed L2Dec /polarity ed /smoothflag ed
 tr /dx 2 index def /dy 1 index abs def sc
 string /mystring ed /bpc ed /ih ed /iw ed
 }bd
/EndImg {Img_sv restore}bd
/DoXImg{ /rgb_lookup ed /hival ed ImgDict dup begin
 [/Indexed /DeviceRGB hival rgb_lookup] /L1img where{pop/ImgCS ed}{setcolorspace}ifelse
 /rgb_string iw 3 mul string def
 /Width iw def
 /Height ih def
 /Decode [0 1 bpc{2 mul}repeat 1 sub] def
 /ImageMatrix
  ImgDir 0 eq{[iw 0 0 ih 0 0]}if
  ImgDir 1 eq{[iw neg 0 0 ih iw 0]}if
  ImgDir 2 eq{[iw 0 0 ih neg 0 ih]}if
  ImgDir 3 eq{[iw neg 0 0 ih neg iw ih]}if
  def
 /DataSource ImgProc def
 /BitsPerComponent bpc def
 /Interpolate smoothflag def
 end image}bd
/DoImg{ ImgDict dup begin
 [/DeviceRGB] /L1img where{pop/ImgCS ed}{setcolorspace}ifelse
 /rgb_string iw 3 mul string def
 /Width iw def
 /Height ih def
 /Decode [0 1 0 1 0 1] def
 /ImageMatrix
  ImgDir 0 eq{[iw 0 0 ih 0 0]}if
  ImgDir 1 eq{[iw neg 0 0 ih iw 0]}if
  ImgDir 2 eq{[iw 0 0 ih neg 0 ih]}if
  ImgDir 3 eq{[iw neg 0 0 ih neg iw ih]}if
  def
 /DataSource ImgProc def
 /BitsPerComponent 8 def
 /Interpolate smoothflag def
 end image}bd
end def
%%EndResource
/initmtx mtx cmtx def
%%BeginFont: /MC1_Times-New-Roman
12 dict begin
/FontInfo 8 dict dup begin
/ItalicAngle 0 def
/UnderlinePosition -223.00 def
/UnderlineThickness 100.00 def
/StrikeoutPosition 530.00 def
/StrikeoutThickness 102.00 def
/isFixedPitch false def
end readonly def
/FontName /MC1_Times-New-Roman def
/FontType 3 def
/FontMatrix [1 2048 div 0 0 1 2048 div 0 0] def
/FontBBox [-1164 -628 4190 2129] def
/Encoding 256 array def 0 1 255{Encoding exch/.notdef put}for
Encoding 32/s32 put
Encoding 37/s37 put
Encoding 48/s48 put
Encoding 49/s49 put
Encoding 50/s50 put
Encoding 52/s52 put
Encoding 54/s54 put
Encoding 55/s55 put
Encoding 56/s56 put
Encoding 57/s57 put
Encoding 66/s66 put
Encoding 67/s67 put
Encoding 69/s69 put
Encoding 70/s70 put
Encoding 76/s76 put
Encoding 80/s80 put
Encoding 82/s82 put
Encoding 83/s83 put
Encoding 97/s97 put
Encoding 99/s99 put
Encoding 100/s100 put
Encoding 101/s101 put
Encoding 103/s103 put
Encoding 104/s104 put
Encoding 105/s105 put
Encoding 109/s109 put
Encoding 110/s110 put
Encoding 111/s111 put
Encoding 112/s112 put
Encoding 114/s114 put
Encoding 115/s115 put
Encoding 116/s116 put
Encoding 117/s117 put
Encoding 118/s118 put
Encoding 119/s119 put
Encoding 121/s121 put
/BoundingBoxes 37 dict def
BoundingBoxes begin
/s32 [0 -443 512 1825] def
/s37 [0 -443 1706 1825] def
/s48 [0 -443 1024 1825] def
/s49 [0 -443 1024 1825] def
/s50 [0 -443 1024 1825] def
/s52 [0 -443 1024 1825] def
/s54 [0 -443 1024 1825] def
/s55 [0 -443 1024 1825] def
/s56 [0 -443 1024 1825] def
/s57 [0 -443 1024 1825] def
/s66 [0 -443 1366 1825] def
/s67 [0 -443 1366 1825] def
/s69 [0 -443 1251 1825] def
/s70 [0 -443 1139 1825] def
/s76 [0 -443 1251 1825] def
/s80 [0 -443 1139 1825] def
/s82 [0 -443 1366 1825] def
/s83 [0 -443 1139 1825] def
/s97 [0 -443 909 1825] def
/s99 [0 -443 909 1825] def
/s100 [0 -443 1024 1825] def
/s101 [0 -443 909 1825] def
/s103 [0 -443 1024 1825] def
/s104 [0 -443 1024 1825] def
/s105 [0 -443 569 1825] def
/s109 [0 -443 1593 1825] def
/s110 [0 -443 1024 1825] def
/s111 [0 -443 1024 1825] def
/s112 [-7 -443 1024 1825] def
/s114 [0 -443 682 1825] def
/s115 [0 -443 797 1825] def
/s116 [0 -443 569 1825] def
/s117 [0 -443 1024 1825] def
/s118 [0 -443 1024 1825] def
/s119 [0 -443 1479 1825] def
/s121 [0 -443 1024 1825] def
end
/Metrics 37 dict def
 Metrics begin
/s32 512 def
/s37 1706 def
/s48 1024 def
/s49 1024 def
/s50 1024 def
/s52 1024 def
/s54 1024 def
/s55 1024 def
/s56 1024 def
/s57 1024 def
/s66 1366 def
/s67 1366 def
/s69 1251 def
/s70 1139 def
/s76 1251 def
/s80 1139 def
/s82 1366 def
/s83 1139 def
/s97 909 def
/s99 909 def
/s100 1024 def
/s101 909 def
/s103 1024 def
/s104 1024 def
/s105 569 def
/s109 1593 def
/s110 1024 def
/s111 1024 def
/s112 1024 def
/s114 682 def
/s115 797 def
/s116 569 def
/s117 1024 def
/s118 1024 def
/s119 1479 def
/s121 1024 def
end
/CharProcs 37 dict def
CharProcs begin
/.notdef {} def
/s37 {
1392 1387 m
404 -56 1392 1387 404 -56 c
315 -56 404 -56 315 -56 c
1303 1387 315 -56 1303 1387 c
1392 1387 1303 1387 1392 1387 c
closepath 364 1387 m
454 1387 523.83 1349.67 573.5 1275 c
623.17 1200.33 648 1114.67 648 1018 c
648 902 620 812.33 564 749 c
508 685.67 440.67 654 362 654 c
309.33 654 261 668.5 217 697.5 c
173 726.5 137.83 769.67 111.5 827 c
85.17 884.33 72 948 72 1018 c
72 1088 85.33 1152.5 112 1211.5 c
138.67 1270.5 175.17 1314.5 221.5 1343.5 c
267.83 1372.5 315.33 1387 364 1387 c
closepath 361 1331 m
327 1331 296.83 1311 270.5 1271 c
244.17 1231 231 1147 231 1019 c
231 926.33 238.33 855.67 253 807 c
264.33 770.33 282 742 306 722 c
320 710 337.33 704 358 704 c
390 704 417.33 721.33 440 756 c
473.33 807.33 490 893 490 1013 c
490 1139.67 473.67 1228.67 441 1280 c
419.67 1314 393 1331 361 1331 c
closepath 1346 673 m
1393.33 673 1440.5 658 1487.5 628 c
1534.5 598 1570.83 554.33 1596.5 497 c
1622.17 439.67 1635 376.67 1635 308 c
1635 190 1606.67 99.83 1550 37.5 c
1493.33 -24.83 1426.33 -56 1349 -56 c
1300.33 -56 1253.17 -41 1207.5 -11 c
1161.83 19 1125.83 61.83 1099.5 117.5 c
1073.17 173.17 1060 236.67 1060 308 c
1060 378 1073.17 442 1099.5 500 c
1125.83 558 1161.83 601.33 1207.5 630 c
1253.17 658.67 1299.33 673 1346 673 c
closepath 1347 620 m
1315 620 1287.33 602 1264 566 c
1234 519.33 1219 431 1219 301 c
1219 181.67 1234.33 98.33 1265 51 c
1287.67 17 1315 0 1347 0 c
1377.67 0 1405 18.33 1429 55 c
1461 103.67 1477 187.33 1477 306 c
1477 431.33 1461 519 1429 569 c
1407 603 1379.67 620 1347 620 c
closepath } bind def
/s48 {
74 670 m
74 824.67 97.33 957.83 144 1069.5 c
190.67 1181.17 252.67 1264.33 330 1319 c
390 1362.33 452 1384 516 1384 c
620 1384 713.33 1331 796 1225 c
899.33 1093.67 951 915.67 951 691 c
951 533.67 928.33 400 883 290 c
837.67 180 779.83 100.17 709.5 50.5 c
639.17 0.83 571.33 -24 506 -24 c
376.67 -24 269 52.33 183 205 c
110.33 333.67 74 488.67 74 670 c
closepath 270 645 m
270 458.33 293 306 339 188 c
377 88.67 433.67 39 509 39 c
545 39 582.33 55.17 621 87.5 c
659.67 119.83 689 174 709 250 c
739.67 364.67 755 526.33 755 735 c
755 889.67 739 1018.67 707 1122 c
683 1198.67 652 1253 614 1285 c
586.67 1307 553.67 1318 515 1318 c
469.67 1318 429.33 1297.67 394 1257 c
346 1201.67 313.33 1114.67 296 996 c
278.67 877.33 270 760.33 270 645 c
closepath } bind def
/s49 {
240 1223 m
570 1384 240 1223 570 1384 c
603 1384 570 1384 603 1384 c
603 239 603 1384 603 239 c
603 163 606.17 115.67 612.5 97 c
618.83 78.33 632 64 652 54 c
672 44 712.67 38.33 774 37 c
774 0 774 37 774 0 c
264 0 774 0 264 0 c
264 37 264 0 264 37 c
328 38.33 369.33 43.83 388 53.5 c
406.67 63.17 419.67 76.17 427 92.5 c
434.33 108.83 438 157.67 438 239 c
438 971 438 239 438 971 c
438 1069.67 434.67 1133 428 1161 c
423.33 1182.33 414.83 1198 402.5 1208 c
390.17 1218 375.33 1223 358 1223 c
333.33 1223 299 1212.67 255 1192 c
240 1223 255 1192 240 1223 c
closepath } bind def
/s50 {
939 261 m
844 0 939 261 844 0 c
44 0 844 0 44 0 c
44 37 44 0 44 37 c
279.33 251.67 445 427 541 563 c
637 699 685 823.33 685 936 c
685 1022 658.67 1092.67 606 1148 c
553.33 1203.33 490.33 1231 417 1231 c
350.33 1231 290.5 1211.5 237.5 1172.5 c
184.5 1133.5 145.33 1076.33 120 1001 c
83 1001 120 1001 83 1001 c
99.67 1124.33 142.5 1219 211.5 1285 c
280.5 1351 366.67 1384 470 1384 c
580 1384 671.83 1348.67 745.5 1278 c
819.17 1207.33 856 1124 856 1028 c
856 959.33 840 890.67 808 822 c
758.67 714 678.67 599.67 568 479 c
402 297.67 298.33 188.33 257 151 c
611 151 257 151 611 151 c
683 151 733.5 153.67 762.5 159 c
791.5 164.33 817.67 175.17 841 191.5 c
864.33 207.83 884.67 231 902 261 c
939 261 902 261 939 261 c
closepath } bind def
/s52 {
953 500 m
953 358 953 500 953 358 c
771 358 953 358 771 358 c
771 0 771 358 771 0 c
606 0 771 0 606 0 c
606 358 606 0 606 358 c
32 358 606 358 32 358 c
32 486 32 358 32 486 c
661 1384 32 486 661 1384 c
771 1384 661 1384 771 1384 c
771 500 771 1384 771 500 c
953 500 771 500 953 500 c
closepath 606 500 m
606 1173 606 500 606 1173 c
130 500 606 1173 130 500 c
606 500 130 500 606 500 c
closepath } bind def
/s54 {
918 1384 m
918 1347 918 1384 918 1347 c
830 1338.33 758.17 1320.83 702.5 1294.5 c
646.83 1268.17 591.83 1228 537.5 1174 c
483.17 1120 438.17 1059.83 402.5 993.5 c
366.83 927.17 337 848.33 313 757 c
409 823 505.33 856 602 856 c
694.67 856 775 818.67 843 744 c
911 669.33 945 573.33 945 456 c
945 342.67 910.67 239.33 842 146 c
759.33 32.67 650 -24 514 -24 c
421.33 -24 342.67 6.67 278 68 c
151.33 187.33 88 342 88 532 c
88 653.33 112.33 768.67 161 878 c
209.67 987.33 279.17 1084.33 369.5 1169 c
459.83 1253.67 546.33 1310.67 629 1340 c
711.67 1369.33 788.67 1384 860 1384 c
918 1384 860 1384 918 1384 c
closepath 296 684 m
284 594 278 521.33 278 466 c
278 402 289.83 332.5 313.5 257.5 c
337.17 182.5 372.33 123 419 79 c
453 47.67 494.33 32 543 32 c
601 32 652.83 59.33 698.5 114 c
744.17 168.67 767 246.67 767 348 c
767 462 744.33 560.67 699 644 c
653.67 727.33 589.33 769 506 769 c
480.67 769 453.5 763.67 424.5 753 c
395.5 742.33 352.67 719.33 296 684 c
closepath } bind def
/s55 {
206 1356 m
933 1356 206 1356 933 1356 c
933 1318 933 1356 933 1318 c
481 -28 933 1318 481 -28 c
369 -28 481 -28 369 -28 c
774 1193 369 -28 774 1193 c
401 1193 774 1193 401 1193 c
325.67 1193 272 1184 240 1166 c
184 1135.33 139 1088 105 1024 c
76 1035 105 1024 76 1035 c
206 1356 76 1035 206 1356 c
closepath } bind def
/s56 {
393 683 m
285.67 771 216.5 841.67 185.5 895 c
154.5 948.33 139 1003.67 139 1061 c
139 1149 173 1224.83 241 1288.5 c
309 1352.17 399.33 1384 512 1384 c
621.33 1384 709.33 1354.33 776 1295 c
842.67 1235.67 876 1168 876 1092 c
876 1041.33 858 989.67 822 937 c
786 884.33 711 822.33 597 751 c
714.33 660.33 792 589 830 537 c
880.67 469 906 397.33 906 322 c
906 226.67 869.67 145.17 797 77.5 c
724.33 9.83 629 -24 511 -24 c
382.33 -24 282 16.33 210 97 c
152.67 161.67 124 232.33 124 309 c
124 369 144.17 428.5 184.5 487.5 c
224.83 546.5 294.33 611.67 393 683 c
closepath 550 790 m
630 862 680.67 918.83 702 960.5 c
723.33 1002.17 734 1049.33 734 1102 c
734 1172 714.33 1226.83 675 1266.5 c
635.67 1306.17 582 1326 514 1326 c
446 1326 390.67 1306.33 348 1267 c
305.33 1227.67 284 1181.67 284 1129 c
284 1094.33 292.83 1059.67 310.5 1025 c
328.17 990.33 353.33 957.33 386 926 c
550 790 386 926 550 790 c
closepath 440 645 m
384.67 598.33 343.67 547.5 317 492.5 c
290.33 437.5 277 378 277 314 c
277 228 300.5 159.17 347.5 107.5 c
394.5 55.83 454.33 30 527 30 c
599 30 656.67 50.33 700 91 c
743.33 131.67 765 181 765 239 c
765 287 752.33 330 727 368 c
679.67 438.67 584 531 440 645 c
closepath } bind def
/s57 {
108 -28 m
108 9 108 -28 108 9 c
194.67 10.33 275.33 30.5 350 69.5 c
424.67 108.5 496.83 176.67 566.5 274 c
636.17 371.33 684.67 478.33 712 595 c
607.33 527.67 512.67 494 428 494 c
332.67 494 251 530.83 183 604.5 c
115 678.17 81 776 81 898 c
81 1016.67 115 1122.33 183 1215 c
265 1327.67 372 1384 504 1384 c
615.33 1384 710.67 1338 790 1246 c
887.33 1132 936 991.33 936 824 c
936 673.33 899 532.83 825 402.5 c
751 272.17 648 164 516 78 c
408.67 7.33 291.67 -28 165 -28 c
108 -28 165 -28 108 -28 c
closepath 728 669 m
740 755.67 746 825 746 877 c
746 941.67 735 1011.5 713 1086.5 c
691 1161.5 659.83 1219 619.5 1259 c
579.17 1299 533.33 1319 482 1319 c
422.67 1319 370.67 1292.33 326 1239 c
281.33 1185.67 259 1106.33 259 1001 c
259 860.33 288.67 750.33 348 671 c
391.33 613.67 444.67 585 508 585 c
538.67 585 575 592.33 617 607 c
659 621.67 696 642.33 728 669 c
closepath } bind def
/s66 {
946 692 m
1040 672 1110.33 640 1157 596 c
1221.67 534.67 1254 459.67 1254 371 c
1254 303.67 1232.67 239.17 1190 177.5 c
1147.33 115.83 1088.83 70.83 1014.5 42.5 c
940.17 14.17 826.67 0 674 0 c
34 0 674 0 34 0 c
34 37 34 0 34 37 c
85 37 34 37 85 37 c
141.67 37 182.33 55 207 91 c
222.33 114.33 230 164 230 240 c
230 1116 230 240 230 1116 c
230 1200 220.33 1253 201 1275 c
175 1304.33 136.33 1319 85 1319 c
34 1319 85 1319 34 1319 c
34 1356 34 1319 34 1356 c
620 1356 34 1356 620 1356 c
729.33 1356 817 1348 883 1332 c
983 1308 1059.33 1265.5 1112 1204.5 c
1164.67 1143.5 1191 1073.33 1191 994 c
1191 926 1170.33 865.17 1129 811.5 c
1087.67 757.83 1026.67 718 946 692 c
closepath 422 746 m
446.67 741.33 474.83 737.83 506.5 735.5 c
538.17 733.17 573 732 611 732 c
708.33 732 781.5 742.5 830.5 763.5 c
879.5 784.5 917 816.67 943 860 c
969 903.33 982 950.67 982 1002 c
982 1081.33 949.67 1149 885 1205 c
820.33 1261 726 1289 602 1289 c
535.33 1289 475.33 1281.67 422 1267 c
422 746 422 1267 422 746 c
closepath 422 98 m
499.33 80 575.67 71 651 71 c
771.67 71 863.67 98.17 927 152.5 c
990.33 206.83 1022 274 1022 354 c
1022 406.67 1007.67 457.33 979 506 c
950.33 554.67 903.67 593 839 621 c
774.33 649 694.33 663 599 663 c
557.67 663 522.33 662.33 493 661 c
463.67 659.67 440 657.33 422 654 c
422 98 422 654 422 98 c
closepath } bind def
/s67 {
1233 1387 m
1264 926 1233 1387 1264 926 c
1233 926 1264 926 1233 926 c
1191.67 1064 1132.67 1163.33 1056 1224 c
979.33 1284.67 887.33 1315 780 1315 c
690 1315 608.67 1292.17 536 1246.5 c
463.33 1200.83 406.17 1128 364.5 1028 c
322.83 928 302 803.67 302 655 c
302 532.33 321.67 426 361 336 c
400.33 246 459.5 177 538.5 129 c
617.5 81 707.67 57 809 57 c
897 57 974.67 75.83 1042 113.5 c
1109.33 151.17 1183.33 226 1264 338 c
1295 318 1264 338 1295 318 c
1227 197.33 1147.67 109 1057 53 c
966.33 -3 858.67 -31 734 -31 c
509.33 -31 335.33 52.33 212 219 c
120 343 74 489 74 657 c
74 792.33 104.33 916.67 165 1030 c
225.67 1143.33 309.17 1231.17 415.5 1293.5 c
521.83 1355.83 638 1387 764 1387 c
862 1387 958.67 1363 1054 1315 c
1082 1300.33 1102 1293 1114 1293 c
1132 1293 1147.67 1299.33 1161 1312 c
1178.33 1330 1190.67 1355 1198 1387 c
1233 1387 1198 1387 1233 1387 c
closepath } bind def
/s69 {
428 1282 m
428 746 428 1282 428 746 c
726 746 428 746 726 746 c
803.33 746 855 757.67 881 781 c
915.67 811.67 935 865.67 939 943 c
976 943 939 943 976 943 c
976 471 976 943 976 471 c
939 471 976 471 939 471 c
929.67 537 920.33 579.33 911 598 c
899 621.33 879.33 639.67 852 653 c
824.67 666.33 782.67 673 726 673 c
428 673 726 673 428 673 c
428 226 428 673 428 226 c
428 166 430.67 129.5 436 116.5 c
441.33 103.5 450.67 93.17 464 85.5 c
477.33 77.83 502.67 74 540 74 c
770 74 540 74 770 74 c
846.67 74 902.33 79.33 937 90 c
971.67 100.67 1005 121.67 1037 153 c
1078.33 194.33 1120.67 256.67 1164 340 c
1204 340 1164 340 1204 340 c
1087 0 1204 340 1087 0 c
42 0 1087 0 42 0 c
42 37 42 0 42 37 c
90 37 42 37 90 37 c
122 37 152.33 44.67 181 60 c
202.33 70.67 216.83 86.67 224.5 108 c
232.17 129.33 236 173 236 239 c
236 1120 236 239 236 1120 c
236 1206 227.33 1259 210 1279 c
186 1305.67 146 1319 90 1319 c
42 1319 90 1319 42 1319 c
42 1356 42 1319 42 1356 c
1087 1356 42 1356 1087 1356 c
1102 1059 1087 1356 1102 1059 c
1063 1059 1102 1059 1063 1059 c
1049 1130.33 1033.5 1179.33 1016.5 1206 c
999.5 1232.67 974.33 1253 941 1267 c
914.33 1277 867.33 1282 800 1282 c
428 1282 800 1282 428 1282 c
closepath } bind def
/s70 {
419 1282 m
419 749 419 1282 419 749 c
666 749 419 749 666 749 c
722.67 749 764.17 761.5 790.5 786.5 c
816.83 811.5 834.33 861 843 935 c
880 935 843 935 880 935 c
880 476 880 935 880 476 c
843 476 880 476 843 476 c
842.33 528.67 835.5 567.33 822.5 592 c
809.5 616.67 791.5 635.17 768.5 647.5 c
745.5 659.83 711.33 666 666 666 c
419 666 666 666 419 666 c
419 240 419 666 419 240 c
419 171.33 423.33 126 432 104 c
438.67 87.33 452.67 73 474 61 c
503.33 45 534 37 566 37 c
615 37 566 37 615 37 c
615 0 615 37 615 0 c
33 0 615 0 33 0 c
33 37 33 0 33 37 c
81 37 33 37 81 37 c
137 37 177.67 53.33 203 86 c
219 107.33 227 158.67 227 240 c
227 1116 227 240 227 1116 c
227 1184.67 222.67 1230 214 1252 c
207.33 1268.67 193.67 1283 173 1295 c
144.33 1311 113.67 1319 81 1319 c
33 1319 81 1319 33 1319 c
33 1356 33 1319 33 1356 c
1042 1356 33 1356 1042 1356 c
1055 1058 1042 1356 1055 1058 c
1020 1058 1055 1058 1020 1058 c
1002.67 1121.33 982.5 1167.83 959.5 1197.5 c
936.5 1227.17 908.17 1248.67 874.5 1262 c
840.83 1275.33 788.67 1282 718 1282 c
419 1282 718 1282 419 1282 c
closepath } bind def
/s76 {
1174 375 m
1207 368 1174 375 1207 368 c
1091 0 1207 368 1091 0 c
41 0 1091 0 41 0 c
41 37 41 0 41 37 c
92 37 41 37 92 37 c
149.33 37 190.33 55.67 215 93 c
229 114.33 236 163.67 236 241 c
236 1116 236 241 236 1116 c
236 1200.67 226.67 1253.67 208 1275 c
182 1304.33 143.33 1319 92 1319 c
41 1319 92 1319 41 1319 c
41 1356 41 1319 41 1356 c
655 1356 41 1356 655 1356 c
655 1319 655 1356 655 1319 c
583 1319.67 532.5 1313 503.5 1299 c
474.5 1285 454.67 1267.33 444 1246 c
433.33 1224.67 428 1173.67 428 1093 c
428 241 428 1093 428 241 c
428 185.67 433.33 147.67 444 127 c
452 113 464.33 102.67 481 96 c
497.67 89.33 549.67 86 637 86 c
736 86 637 86 736 86 c
840 86 913 93.67 955 109 c
997 124.33 1035.33 151.5 1070 190.5 c
1104.67 229.5 1139.33 291 1174 375 c
closepath } bind def
/s80 {
420 635 m
420 240 420 635 420 240 c
420 154.67 429.33 101.67 448 81 c
473.33 51.67 511.67 37 563 37 c
615 37 563 37 615 37 c
615 0 615 37 615 0 c
34 0 615 0 34 0 c
34 37 34 0 34 37 c
85 37 34 37 85 37 c
142.33 37 183.33 55.67 208 93 c
221.33 113.67 228 162.67 228 240 c
228 1116 228 240 228 1116 c
228 1201.33 219 1254.33 201 1275 c
175 1304.33 136.33 1319 85 1319 c
34 1319 85 1319 34 1319 c
34 1356 34 1319 34 1356 c
531 1356 34 1356 531 1356 c
652.33 1356 748 1343.5 818 1318.5 c
888 1293.5 947 1251.33 995 1192 c
1043 1132.67 1067 1062.33 1067 981 c
1067 870.33 1030.5 780.33 957.5 711 c
884.5 641.67 781.33 607 648 607 c
615.33 607 580 609.33 542 614 c
504 618.67 463.33 625.67 420 635 c
closepath 420 692 m
455.33 685.33 486.67 680.33 514 677 c
541.33 673.67 564.67 672 584 672 c
653.33 672 713.17 698.83 763.5 752.5 c
813.83 806.17 839 875.67 839 961 c
839 1019.67 827 1074.17 803 1124.5 c
779 1174.83 745 1212.5 701 1237.5 c
657 1262.5 607 1275 551 1275 c
517 1275 473.33 1268.67 420 1256 c
420 692 420 1256 420 692 c
closepath } bind def
/s82 {
1384 0 m
1022 0 1384 0 1022 0 c
563 634 1022 0 563 634 c
529 632.67 501.33 632 480 632 c
471.33 632 462 632.17 452 632.5 c
442 632.83 431.67 633.33 421 634 c
421 240 421 634 421 240 c
421 154.67 430.33 101.67 449 81 c
474.33 51.67 512.33 37 563 37 c
616 37 563 37 616 37 c
616 0 616 37 616 0 c
35 0 616 0 35 0 c
35 37 35 0 35 37 c
86 37 35 37 86 37 c
143.33 37 184.33 55.67 209 93 c
223 113.67 230 162.67 230 240 c
230 1116 230 240 230 1116 c
230 1201.33 220.67 1254.33 202 1275 c
176 1304.33 137.33 1319 86 1319 c
35 1319 86 1319 35 1319 c
35 1356 35 1319 35 1356 c
529 1356 35 1356 529 1356 c
673 1356 779.17 1345.5 847.5 1324.5 c
915.83 1303.5 973.83 1264.83 1021.5 1208.5 c
1069.17 1152.17 1093 1085 1093 1007 c
1093 923.67 1065.83 851.33 1011.5 790 c
957.17 728.67 873 685.33 759 660 c
1039 271 759 660 1039 271 c
1103 181.67 1158 122.33 1204 93 c
1250 63.67 1310 45 1384 37 c
1384 0 1384 37 1384 0 c
closepath 421 697 m
433.67 697 444.67 696.83 454 696.5 c
463.33 696.17 471 696 477 696 c
606.33 696 703.83 724 769.5 780 c
835.17 836 868 907.33 868 994 c
868 1078.67 841.5 1147.5 788.5 1200.5 c
735.5 1253.5 665.33 1280 578 1280 c
539.33 1280 487 1273.67 421 1261 c
421 697 421 1261 421 697 c
closepath } bind def
/s83 {
939 1387 m
939 918 939 1387 939 918 c
902 918 939 918 902 918 c
890 1008 868.5 1079.67 837.5 1133 c
806.5 1186.33 762.33 1228.67 705 1260 c
647.67 1291.33 588.33 1307 527 1307 c
457.67 1307 400.33 1285.83 355 1243.5 c
309.67 1201.17 287 1153 287 1099 c
287 1057.67 301.33 1020 330 986 c
371.33 936 469.67 869.33 625 786 c
751.67 718 838.17 665.83 884.5 629.5 c
930.83 593.17 966.5 550.33 991.5 501 c
1016.5 451.67 1029 400 1029 346 c
1029 243.33 989.17 154.83 909.5 80.5 c
829.83 6.17 727.33 -31 602 -31 c
562.67 -31 525.67 -28 491 -22 c
470.33 -18.67 427.5 -6.5 362.5 14.5 c
297.5 35.5 256.33 46 239 46 c
222.33 46 209.17 41 199.5 31 c
189.83 21 182.67 0.33 178 -31 c
141 -31 178 -31 141 -31 c
141 434 141 -31 141 434 c
178 434 141 434 178 434 c
195.33 336.67 218.67 263.83 248 215.5 c
277.33 167.17 322.17 127 382.5 95 c
442.83 63 509 47 581 47 c
664.33 47 730.17 69 778.5 113 c
826.83 157 851 209 851 269 c
851 302.33 841.83 336 823.5 370 c
805.17 404 776.67 435.67 738 465 c
712 485 641 527.5 525 592.5 c
409 657.5 326.5 709.33 277.5 748 c
228.5 786.67 191.33 829.33 166 876 c
140.67 922.67 128 974 128 1030 c
128 1127.33 165.33 1211.17 240 1281.5 c
314.67 1351.83 409.67 1387 525 1387 c
597 1387 673.33 1369.33 754 1334 c
791.33 1317.33 817.67 1309 833 1309 c
850.33 1309 864.5 1314.17 875.5 1324.5 c
886.5 1334.83 895.33 1355.67 902 1387 c
939 1387 902 1387 939 1387 c
closepath } bind def
/s97 {
583 132 m
489 59.33 430 17.33 406 6 c
370 -10.67 331.67 -19 291 -19 c
227.67 -19 175.5 2.67 134.5 46 c
93.5 89.33 73 146.33 73 217 c
73 261.67 83 300.33 103 333 c
130.33 378.33 177.83 421 245.5 461 c
313.17 501 425.67 549.67 583 607 c
583 643 583 607 583 643 c
583 734.33 568.5 797 539.5 831 c
510.5 865 468.33 882 413 882 c
371 882 337.67 870.67 313 848 c
287.67 825.33 275 799.33 275 770 c
277 712 275 770 277 712 c
277 681.33 269.17 657.67 253.5 641 c
237.83 624.33 217.33 616 192 616 c
167.33 616 147.17 624.67 131.5 642 c
115.83 659.33 108 683 108 713 c
108 770.33 137.33 823 196 871 c
254.67 919 337 943 443 943 c
524.33 943 591 929.33 643 902 c
682.33 881.33 711.33 849 730 805 c
742 776.33 748 717.67 748 629 c
748 318 748 629 748 318 c
748 230.67 749.67 177.17 753 157.5 c
756.33 137.83 761.83 124.67 769.5 118 c
777.17 111.33 786 108 796 108 c
806.67 108 816 110.33 824 115 c
838 123.67 865 148 905 188 c
905 132 905 188 905 132 c
830.33 32 759 -18 691 -18 c
658.33 -18 632.33 -6.67 613 16 c
593.67 38.67 583.67 77.33 583 132 c
closepath 583 197 m
583 546 583 197 583 546 c
482.33 506 417.33 477.67 388 461 c
335.33 431.67 297.67 401 275 369 c
252.33 337 241 302 241 264 c
241 216 255.33 176.17 284 144.5 c
312.67 112.83 345.67 97 383 97 c
433.67 97 500.33 130.33 583 197 c
closepath } bind def
/s99 {
842 348 m
817.33 227.33 769 134.5 697 69.5 c
625 4.5 545.33 -28 458 -28 c
354 -28 263.33 15.67 186 103 c
108.67 190.33 70 308.33 70 457 c
70 601 112.83 718 198.5 808 c
284.17 898 387 943 507 943 c
597 943 671 919.17 729 871.5 c
787 823.83 816 774.33 816 723 c
816 697.67 807.83 677.17 791.5 661.5 c
775.17 645.83 752.33 638 723 638 c
683.67 638 654 650.67 634 676 c
622.67 690 615.17 716.67 611.5 756 c
607.83 795.33 594.33 825.33 571 846 c
547.67 866 515.33 876 474 876 c
407.33 876 353.67 851.33 313 802 c
259 736.67 232 650.33 232 543 c
232 433.67 258.83 337.17 312.5 253.5 c
366.17 169.83 438.67 128 530 128 c
595.33 128 654 150.33 706 195 c
742.67 225.67 778.33 281.33 813 362 c
842 348 813 362 842 348 c
closepath } bind def
/s100 {
711 103 m
666.33 56.33 622.67 22.83 580 2.5 c
537.33 -17.83 491.33 -28 442 -28 c
342 -28 254.67 13.83 180 97.5 c
105.33 181.17 68 288.67 68 420 c
68 551.33 109.33 671.5 192 780.5 c
274.67 889.5 381 944 511 944 c
591.67 944 658.33 918.33 711 867 c
711 1036 711 867 711 1036 c
711 1140.67 708.5 1205 703.5 1229 c
698.5 1253 690.67 1269.33 680 1278 c
669.33 1286.67 656 1291 640 1291 c
622.67 1291 599.67 1285.67 571 1275 c
558 1310 571 1275 558 1310 c
831 1422 558 1310 831 1422 c
876 1422 831 1422 876 1422 c
876 363 876 1422 876 363 c
876 255.67 878.5 190.17 883.5 166.5 c
888.5 142.83 896.5 126.33 907.5 117 c
918.5 107.67 931.33 103 946 103 c
964 103 988 108.67 1018 120 c
1029 85 1018 120 1029 85 c
757 -28 1029 85 757 -28 c
711 -28 757 -28 711 -28 c
711 103 711 -28 711 103 c
closepath 711 173 m
711 645 711 173 711 645 c
707 690.33 695 731.67 675 769 c
655 806.33 628.5 834.5 595.5 853.5 c
562.5 872.5 530.33 882 499 882 c
440.33 882 388 855.67 342 803 c
281.33 733.67 251 632.33 251 499 c
251 364.33 280.33 261.17 339 189.5 c
397.67 117.83 463 82 535 82 c
595.67 82 654.33 112.33 711 173 c
closepath } bind def
/s101 {
218 571 m
217.33 435 250.33 328.33 317 251 c
383.67 173.67 462 135 552 135 c
612 135 664.17 151.5 708.5 184.5 c
752.83 217.5 790 274 820 354 c
851 334 820 354 851 334 c
837 242.67 796.33 159.5 729 84.5 c
661.67 9.5 577.33 -28 476 -28 c
366 -28 271.83 14.83 193.5 100.5 c
115.17 186.17 76 301.33 76 446 c
76 602.67 116.17 724.83 196.5 812.5 c
276.83 900.17 377.67 944 499 944 c
601.67 944 686 910.17 752 842.5 c
818 774.83 851 684.33 851 571 c
218 571 851 571 218 571 c
closepath 218 629 m
642 629 218 629 642 629 c
638.67 687.67 631.67 729 621 753 c
604.33 790.33 579.5 819.67 546.5 841 c
513.5 862.33 479 873 443 873 c
387.67 873 338.17 851.5 294.5 808.5 c
250.83 765.5 225.33 705.67 218 629 c
closepath } bind def
/s103 {
309 334 m
253 361.33 210 399.5 180 448.5 c
150 497.5 135 551.67 135 611 c
135 701.67 169.17 779.67 237.5 845 c
305.83 910.33 393.33 943 500 943 c
587.33 943 663 921.67 727 879 c
921 879 727 879 921 879 c
949.67 879 966.33 878.17 971 876.5 c
975.67 874.83 979 872 981 868 c
985 862 987 851.33 987 836 c
987 818.67 985.33 806.67 982 800 c
980 796.67 976.5 794 971.5 792 c
966.5 790 949.67 789 921 789 c
802 789 921 789 802 789 c
839.33 741 858 679.67 858 605 c
858 519.67 825.33 446.67 760 386 c
694.67 325.33 607 295 497 295 c
451.67 295 405.33 301.67 358 315 c
328.67 289.67 308.83 267.5 298.5 248.5 c
288.17 229.5 283 213.33 283 200 c
283 188.67 288.5 177.67 299.5 167 c
310.5 156.33 332 148.67 364 144 c
382.67 141.33 429.33 139 504 137 c
641.33 133.67 730.33 129 771 123 c
833 114.33 882.5 91.33 919.5 54 c
956.5 16.67 975 -29.33 975 -84 c
975 -159.33 939.67 -230 869 -296 c
765 -393.33 629.33 -442 462 -442 c
333.33 -442 224.67 -413 136 -355 c
86 -321.67 61 -287 61 -251 c
61 -235 64.67 -219 72 -203 c
83.33 -178.33 106.67 -144 142 -100 c
146.67 -94 180.67 -58 244 8 c
209.33 28.67 184.83 47.17 170.5 63.5 c
156.17 79.83 149 98.33 149 119 c
149 142.33 158.5 169.67 177.5 201 c
196.5 232.33 240.33 276.67 309 334 c
closepath 483 895 m
433.67 895 392.33 875.33 359 836 c
325.67 796.67 309 736.33 309 655 c
309 549.67 331.67 468 377 410 c
411.67 366 455.67 344 509 344 c
559.67 344 601.33 363 634 401 c
666.67 439 683 498.67 683 580 c
683 686 660 769 614 829 c
580 873 536.33 895 483 895 c
closepath 299 0 m
267.67 -34 244 -65.67 228 -95 c
212 -124.33 204 -151.33 204 -176 c
204 -208 223.33 -236 262 -260 c
328.67 -301.33 425 -322 551 -322 c
671 -322 759.5 -300.83 816.5 -258.5 c
873.5 -216.17 902 -171 902 -123 c
902 -88.33 885 -63.67 851 -49 c
816.33 -34.33 747.67 -25.67 645 -23 c
495 -19 379.67 -11.33 299 0 c
closepath } bind def
/s104 {
333 1422 m
333 752 333 1422 333 752 c
407 833.33 465.67 885.5 509 908.5 c
552.33 931.5 595.67 943 639 943 c
691 943 735.67 928.67 773 900 c
810.33 871.33 838 826.33 856 765 c
868.67 722.33 875 644.33 875 531 c
875 207 875 531 875 207 c
875 149 879.67 109.33 889 88 c
895.67 72 907 59.33 923 50 c
939 40.67 968.33 36 1011 36 c
1011 0 1011 36 1011 0 c
561 0 1011 0 561 0 c
561 36 561 0 561 36 c
582 36 561 36 582 36 c
624.67 36 654.33 42.5 671 55.5 c
687.67 68.5 699.33 87.67 706 113 c
708 123.67 709 155 709 207 c
709 531 709 207 709 531 c
709 631 703.83 696.67 693.5 728 c
683.17 759.33 666.67 782.83 644 798.5 c
621.33 814.17 594 822 562 822 c
529.33 822 495.33 813.33 460 796 c
424.67 778.67 382.33 743.67 333 691 c
333 207 333 691 333 207 c
333 144.33 336.5 105.33 343.5 90 c
350.5 74.67 363.5 61.83 382.5 51.5 c
401.5 41.17 434.33 36 481 36 c
481 0 481 36 481 0 c
27 0 481 0 27 0 c
27 36 27 0 27 36 c
67.67 36 99.67 42.33 123 55 c
136.33 61.67 147 74.33 155 93 c
163 111.67 167 149.67 167 207 c
167 1036 167 207 167 1036 c
167 1140.67 164.5 1205 159.5 1229 c
154.5 1253 146.83 1269.33 136.5 1278 c
126.17 1286.67 112.33 1291 95 1291 c
81 1291 58.33 1285.67 27 1275 c
13 1310 27 1275 13 1310 c
287 1422 13 1310 287 1422 c
333 1422 287 1422 333 1422 c
closepath } bind def
/s105 {
297 1422 m
325 1422 348.83 1412.17 368.5 1392.5 c
388.17 1372.83 398 1349 398 1321 c
398 1293 388.17 1269 368.5 1249 c
348.83 1229 325 1219 297 1219 c
269 1219 245 1229 225 1249 c
205 1269 195 1293 195 1321 c
195 1349 204.83 1372.83 224.5 1392.5 c
244.17 1412.17 268.33 1422 297 1422 c
closepath 380 943 m
380 207 380 943 380 207 c
380 149.67 384.17 111.5 392.5 92.5 c
400.83 73.5 413.17 59.33 429.5 50 c
445.83 40.67 475.67 36 519 36 c
519 0 519 36 519 0 c
74 0 519 0 74 0 c
74 36 74 0 74 36 c
118.67 36 148.67 40.33 164 49 c
179.33 57.67 191.5 72 200.5 92 c
209.5 112 214 150.33 214 207 c
214 560 214 207 214 560 c
214 659.33 211 723.67 205 753 c
200.33 774.33 193 789.17 183 797.5 c
173 805.83 159.33 810 142 810 c
123.33 810 100.67 805 74 795 c
60 831 74 795 60 831 c
336 943 60 831 336 943 c
380 943 336 943 380 943 c
closepath } bind def
/s109 {
336 748 m
402.67 814.67 442 853 454 863 c
484 888.33 516.33 908 551 922 c
585.67 936 620 943 654 943 c
711.33 943 760.67 926.33 802 893 c
843.33 859.67 871 811.33 885 748 c
953.67 828 1011.67 880.5 1059 905.5 c
1106.33 930.5 1155 943 1205 943 c
1253.67 943 1296.83 930.5 1334.5 905.5 c
1372.17 880.5 1402 839.67 1424 783 c
1438.67 744.33 1446 683.67 1446 601 c
1446 207 1446 601 1446 207 c
1446 149.67 1450.33 110.33 1459 89 c
1465.67 74.33 1478 61.83 1496 51.5 c
1514 41.17 1543.33 36 1584 36 c
1584 0 1584 36 1584 0 c
1132 0 1584 0 1132 0 c
1132 36 1132 0 1132 36 c
1151 36 1132 36 1151 36 c
1190.33 36 1221 43.67 1243 59 c
1258.33 69.67 1269.33 86.67 1276 110 c
1278.67 121.33 1280 153.67 1280 207 c
1280 601 1280 207 1280 601 c
1280 675.67 1271 728.33 1253 759 c
1227 801.67 1185.33 823 1128 823 c
1092.67 823 1057.17 814.17 1021.5 796.5 c
985.83 778.83 942.67 746 892 698 c
890 687 892 698 890 687 c
892 644 890 687 892 644 c
892 207 892 644 892 207 c
892 144.33 895.5 105.33 902.5 90 c
909.5 74.67 922.67 61.83 942 51.5 c
961.33 41.17 994.33 36 1041 36 c
1041 0 1041 36 1041 0 c
578 0 1041 0 578 0 c
578 36 578 0 578 36 c
628.67 36 663.5 42 682.5 54 c
701.5 66 714.67 84 722 108 c
725.33 119.33 727 152.33 727 207 c
727 601 727 207 727 601 c
727 675.67 716 729.33 694 762 c
664.67 804.67 623.67 826 571 826 c
535 826 499.33 816.33 464 797 c
408.67 767.67 366 734.67 336 698 c
336 207 336 698 336 207 c
336 147 340.17 108 348.5 90 c
356.83 72 369.17 58.5 385.5 49.5 c
401.83 40.5 435 36 485 36 c
485 0 485 36 485 0 c
32 0 485 0 32 0 c
32 36 32 0 32 36 c
74 36 103.33 40.5 120 49.5 c
136.67 58.5 149.33 72.83 158 92.5 c
166.67 112.17 171 150.33 171 207 c
171 557 171 207 171 557 c
171 657.67 168 722.67 162 752 c
157.33 774 150 789.17 140 797.5 c
130 805.83 116.33 810 99 810 c
80.33 810 58 805 32 795 c
17 831 32 795 17 831 c
293 943 17 831 293 943 c
336 943 293 943 336 943 c
336 748 336 943 336 748 c
closepath } bind def
/s110 {
331 749 m
438.33 878.33 540.67 943 638 943 c
688 943 731 930.5 767 905.5 c
803 880.5 831.67 839.33 853 782 c
867.67 742 875 680.67 875 598 c
875 207 875 598 875 207 c
875 149 879.67 109.67 889 89 c
896.33 72.33 908.17 59.33 924.5 50 c
940.83 40.67 971 36 1015 36 c
1015 0 1015 36 1015 0 c
562 0 1015 0 562 0 c
562 36 562 0 562 36 c
581 36 562 36 581 36 c
623.67 36 653.5 42.5 670.5 55.5 c
687.5 68.5 699.33 87.67 706 113 c
708.67 123 710 154.33 710 207 c
710 582 710 207 710 582 c
710 665.33 699.17 725.83 677.5 763.5 c
655.83 801.17 619.33 820 568 820 c
488.67 820 409.67 776.67 331 690 c
331 207 331 690 331 207 c
331 145 334.67 106.67 342 92 c
351.33 72.67 364.17 58.5 380.5 49.5 c
396.83 40.5 430 36 480 36 c
480 0 480 36 480 0 c
27 0 480 0 27 0 c
27 36 27 0 27 36 c
47 36 27 36 47 36 c
93.67 36 125.17 47.83 141.5 71.5 c
157.83 95.17 166 140.33 166 207 c
166 547 166 207 166 547 c
166 657 163.5 724 158.5 748 c
153.5 772 145.83 788.33 135.5 797 c
125.17 805.67 111.33 810 94 810 c
75.33 810 53 805 27 795 c
12 831 27 795 12 831 c
288 943 12 831 288 943 c
331 943 288 943 331 943 c
331 749 331 943 331 749 c
closepath } bind def
/s111 {
512 943 m
650.67 943 762 890.33 846 785 c
917.33 695 953 591.67 953 475 c
953 393 933.33 310 894 226 c
854.67 142 800.5 78.67 731.5 36 c
662.5 -6.67 585.67 -28 501 -28 c
363 -28 253.33 27 172 137 c
103.33 229.67 69 333.67 69 449 c
69 533 89.83 616.5 131.5 699.5 c
173.17 782.5 228 843.83 296 883.5 c
364 923.17 436 943 512 943 c
closepath 481 878 m
445.67 878 410.17 867.5 374.5 846.5 c
338.83 825.5 310 788.67 288 736 c
266 683.33 255 615.67 255 533 c
255 399.67 281.5 284.67 334.5 188 c
387.5 91.33 457.33 43 544 43 c
608.67 43 662 69.67 704 123 c
746 176.33 767 268 767 398 c
767 560.67 732 688.67 662 782 c
614.67 846 554.33 878 481 878 c
closepath } bind def
/s112 {
-2 825 m
280 939 -2 825 280 939 c
318 939 280 939 318 939 c
318 725 318 939 318 725 c
365.33 805.67 412.83 862.17 460.5 894.5 c
508.17 926.83 558.33 943 611 943 c
703 943 779.67 907 841 835 c
916.33 747 954 632.33 954 491 c
954 333 908.67 202.33 818 99 c
743.33 14.33 649.33 -28 536 -28 c
486.67 -28 444 -21 408 -7 c
381.33 3 351.33 23 318 53 c
318 -226 318 53 318 -226 c
318 -288.67 321.83 -328.5 329.5 -345.5 c
337.17 -362.5 350.5 -376 369.5 -386 c
388.5 -396 423 -401 473 -401 c
473 -438 473 -401 473 -438 c
-7 -438 473 -438 -7 -438 c
-7 -401 -7 -438 -7 -401 c
18 -401 -7 -401 18 -401 c
54.67 -401.67 86 -394.67 112 -380 c
124.67 -372.67 134.5 -360.83 141.5 -344.5 c
148.5 -328.17 152 -286.67 152 -220 c
152 646 152 -220 152 646 c
152 705.33 149.33 743 144 759 c
138.67 775 130.17 787 118.5 795 c
106.83 803 91 807 71 807 c
55 807 34.67 802.33 10 793 c
-2 825 10 793 -2 825 c
closepath 318 666 m
318 324 318 666 318 324 c
318 250 321 201.33 327 178 c
336.33 139.33 359.17 105.33 395.5 76 c
431.83 46.67 477.67 32 533 32 c
599.67 32 653.67 58 695 110 c
749 178 776 273.67 776 397 c
776 537 745.33 644.67 684 720 c
641.33 772 590.67 798 532 798 c
500 798 468.33 790 437 774 c
413 762 373.33 726 318 666 c
closepath } bind def
/s114 {
332 943 m
332 737 332 943 332 737 c
408.67 874.33 487.33 943 568 943 c
604.67 943 635 931.83 659 909.5 c
683 887.17 695 861.33 695 832 c
695 806 686.33 784 669 766 c
651.67 748 631 739 607 739 c
583.67 739 557.5 750.5 528.5 773.5 c
499.5 796.5 478 808 464 808 c
452 808 439 801.33 425 788 c
395 760.67 364 715.67 332 653 c
332 214 332 653 332 214 c
332 163.33 338.33 125 351 99 c
359.67 81 375 66 397 54 c
419 42 450.67 36 492 36 c
492 0 492 36 492 0 c
23 0 492 0 23 0 c
23 36 23 0 23 36 c
69.67 36 104.33 43.33 127 58 c
143.67 68.67 155.33 85.67 162 109 c
165.33 120.33 167 152.67 167 206 c
167 561 167 206 167 561 c
167 667.67 164.83 731.17 160.5 751.5 c
156.17 771.83 148.17 786.67 136.5 796 c
124.83 805.33 110.33 810 93 810 c
72.33 810 49 805 23 795 c
13 831 23 795 13 831 c
290 943 13 831 290 943 c
332 943 290 943 332 943 c
closepath } bind def
/s115 {
656 943 m
656 631 656 943 656 631 c
623 631 656 631 623 631 c
597.67 729 565.17 795.67 525.5 831 c
485.83 866.33 435.33 884 374 884 c
327.33 884 289.67 871.67 261 847 c
232.33 822.33 218 795 218 765 c
218 727.67 228.67 695.67 250 669 c
270.67 641.67 312.67 612.67 376 582 c
522 511 376 582 522 511 c
657.33 445 725 358 725 250 c
725 166.67 693.5 99.5 630.5 48.5 c
567.5 -2.5 497 -28 419 -28 c
363 -28 299 -18 227 2 c
205 8.67 187 12 173 12 c
157.67 12 145.67 3.33 137 -14 c
104 -14 137 -14 104 -14 c
104 313 104 -14 104 313 c
137 313 104 313 137 313 c
155.67 219.67 191.33 149.33 244 102 c
296.67 54.67 355.67 31 421 31 c
467 31 504.5 44.5 533.5 71.5 c
562.5 98.5 577 131 577 169 c
577 215 560.83 253.67 528.5 285 c
496.17 316.33 431.67 356 335 404 c
238.33 452 175 495.33 145 534 c
115 572 100 620 100 678 c
100 753.33 125.83 816.33 177.5 867 c
229.17 917.67 296 943 378 943 c
414 943 457.67 935.33 509 920 c
543 910 565.67 905 577 905 c
587.67 905 596 907.33 602 912 c
608 916.67 615 927 623 943 c
656 943 623 943 656 943 c
closepath } bind def
/s116 {
330 1217 m
330 916 330 1217 330 916 c
544 916 330 916 544 916 c
544 846 544 916 544 846 c
330 846 544 846 330 846 c
330 252 330 846 330 252 c
330 192.67 338.5 152.67 355.5 132 c
372.5 111.33 394.33 101 421 101 c
443 101 464.33 107.83 485 121.5 c
505.67 135.17 521.67 155.33 533 182 c
572 182 533 182 572 182 c
548.67 116.67 515.67 67.5 473 34.5 c
430.33 1.5 386.33 -15 341 -15 c
310.33 -15 280.33 -6.5 251 10.5 c
221.67 27.5 200 51.83 186 83.5 c
172 115.17 165 164 165 230 c
165 846 165 230 165 846 c
20 846 165 846 20 846 c
20 879 20 846 20 879 c
56.67 893.67 94.17 918.5 132.5 953.5 c
170.83 988.5 205 1030 235 1078 c
250.33 1103.33 271.67 1149.67 299 1217 c
330 1217 299 1217 330 1217 c
closepath } bind def
/s117 {
867 916 m
867 361 867 916 867 361 c
867 255 869.5 190.17 874.5 166.5 c
879.5 142.83 887.5 126.33 898.5 117 c
909.5 107.67 922.33 103 937 103 c
957.67 103 981 108.67 1007 120 c
1021 85 1007 120 1021 85 c
747 -28 1021 85 747 -28 c
702 -28 747 -28 702 -28 c
702 166 702 -28 702 166 c
623.33 80.67 563.33 27 522 5 c
480.67 -17 437 -28 391 -28 c
339.67 -28 295.17 -13.17 257.5 16.5 c
219.83 46.17 193.67 84.33 179 131 c
164.33 177.67 157 243.67 157 329 c
157 738 157 329 157 738 c
157 781.33 152.33 811.33 143 828 c
133.67 844.67 119.83 857.5 101.5 866.5 c
83.17 875.5 50 879.67 2 879 c
2 916 2 879 2 916 c
323 916 2 916 323 916 c
323 303 323 916 323 303 c
323 217.67 337.83 161.67 367.5 135 c
397.17 108.33 433 95 475 95 c
503.67 95 536.17 104 572.5 122 c
608.83 140 652 174.33 702 225 c
702 744 702 225 702 744 c
702 796 692.5 831.17 673.5 849.5 c
654.5 867.83 615 877.67 555 879 c
555 916 555 879 555 916 c
867 916 555 916 867 916 c
closepath } bind def
/s118 {
17 916 m
448 916 17 916 448 916 c
448 879 448 916 448 879 c
420 879 448 879 420 879 c
394 879 374.17 872.67 360.5 860 c
346.83 847.33 340 830.33 340 809 c
340 785.67 347 758 361 726 c
574 220 361 726 574 220 c
788 745 574 220 788 745 c
803.33 782.33 811 810.67 811 830 c
811 839.33 808.33 847 803 853 c
795.67 863 786.33 869.83 775 873.5 c
763.67 877.17 740.67 879 706 879 c
706 916 706 879 706 916 c
1005 916 706 916 1005 916 c
1005 879 1005 916 1005 879 c
970.33 876.33 946.33 869.33 933 858 c
909.67 838 888.67 804.67 870 758 c
545 -28 870 758 545 -28 c
504 -28 545 -28 504 -28 c
177 745 504 -28 177 745 c
162.33 781 148.33 806.83 135 822.5 c
121.67 838.17 104.67 851.33 84 862 c
72.67 868 50.33 873.67 17 879 c
17 916 17 879 17 916 c
closepath } bind def
/s119 {
13 916 m
397 916 13 916 397 916 c
397 879 397 916 397 879 c
361.67 876.33 338.5 870 327.5 860 c
316.5 850 311 835.67 311 817 c
311 796.33 316.67 771.33 328 742 c
524 215 328 742 524 215 c
721 644 524 215 721 644 c
669 779 721 644 669 779 c
653 819 632 846.67 606 862 c
591.33 871.33 564 877 524 879 c
524 916 524 879 524 916 c
960 916 524 916 960 916 c
960 879 960 916 960 879 c
912 877 878 868.33 858 853 c
844.67 842.33 838 825.33 838 802 c
838 788.67 840.67 775 846 761 c
1054 235 846 761 1054 235 c
1247 742 1054 235 1247 742 c
1260.33 778 1267 806.67 1267 828 c
1267 840.67 1260.5 852 1247.5 862 c
1234.5 872 1209 877.67 1171 879 c
1171 916 1171 879 1171 916 c
1460 916 1171 916 1460 916 c
1460 879 1460 916 1460 879 c
1402 870.33 1359.33 831 1332 761 c
1026 -28 1332 761 1026 -28 c
985 -28 1026 -28 985 -28 c
756 557 985 -28 756 557 c
489 -28 756 557 489 -28 c
452 -28 489 -28 452 -28 c
158 742 452 -28 158 742 c
138.67 790.67 119.67 823.5 101 840.5 c
82.33 857.5 53 870.33 13 879 c
13 916 13 879 13 916 c
closepath } bind def
/s121 {
12 916 m
439 916 12 916 439 916 c
439 879 439 916 439 879 c
418 879 439 879 418 879 c
388 879 365.5 872.5 350.5 859.5 c
335.5 846.5 328 830.33 328 811 c
328 785 339 749 361 703 c
584 241 361 703 584 241 c
789 747 584 241 789 747 c
800.33 774.33 806 801.33 806 828 c
806 840 803.67 849 799 855 c
793.67 862.33 785.33 868.17 774 872.5 c
762.67 876.83 742.67 879 714 879 c
714 916 714 879 714 916 c
1012 916 714 916 1012 916 c
1012 879 1012 916 1012 879 c
987.33 876.33 968.33 871 955 863 c
941.67 855 927 840 911 818 c
905 808.67 893.67 783 877 741 c
504 -173 877 741 504 -173 c
468 -261.67 420.83 -328.67 362.5 -374 c
304.17 -419.33 248 -442 194 -442 c
154.67 -442 122.33 -430.67 97 -408 c
71.67 -385.33 59 -359.33 59 -330 c
59 -302 68.17 -279.5 86.5 -262.5 c
104.83 -245.5 130 -237 162 -237 c
184 -237 214 -244.33 252 -259 c
278.67 -269 295.33 -274 302 -274 c
322 -274 343.83 -263.67 367.5 -243 c
391.17 -222.33 415 -182.33 439 -123 c
504 36 439 -123 504 36 c
175 727 504 36 175 727 c
165 747.67 149 773.33 127 804 c
110.33 827.33 96.67 843 86 851 c
70.67 861.67 46 871 12 879 c
12 916 12 879 12 916 c
closepath } bind def
end
/BuildGlyph {
 exch dup /Metrics get 2 index get 0 setcharwidth
/CharProcs get exch 2 copy known not{pop/.notdef}if get exec fill}bind def
/BuildChar {
1 index /Encoding get exch get
1 index /BuildGlyph get exec
} bind def
currentdict end /MC1_Times-New-Roman exch definefont pop
%%EndFont
%%BeginFont: /MC2_Times-New-Roman
12 dict begin
/FontInfo 8 dict dup begin
/ItalicAngle 0 def
/UnderlinePosition -223.00 def
/UnderlineThickness 100.00 def
/StrikeoutPosition 530.00 def
/StrikeoutThickness 102.00 def
/isFixedPitch false def
end readonly def
/FontName /MC2_Times-New-Roman def
/FontType 3 def
/FontMatrix [1 2048 div 0 0 1 2048 div 0 0] def
/FontBBox [-1164 -628 4190 2129] def
/Encoding 256 array def 0 1 255{Encoding exch/.notdef put}for
Encoding 32/s32 put
Encoding 48/s48 put
Encoding 49/s49 put
Encoding 50/s50 put
Encoding 51/s51 put
Encoding 52/s52 put
Encoding 53/s53 put
Encoding 54/s54 put
Encoding 55/s55 put
Encoding 66/s66 put
Encoding 67/s67 put
Encoding 70/s70 put
Encoding 76/s76 put
Encoding 83/s83 put
Encoding 97/s97 put
Encoding 99/s99 put
Encoding 100/s100 put
Encoding 101/s101 put
Encoding 104/s104 put
Encoding 105/s105 put
Encoding 109/s109 put
Encoding 110/s110 put
Encoding 111/s111 put
Encoding 112/s112 put
Encoding 114/s114 put
Encoding 115/s115 put
Encoding 116/s116 put
Encoding 117/s117 put
Encoding 118/s118 put
Encoding 119/s119 put
Encoding 121/s121 put
/BoundingBoxes 32 dict def
BoundingBoxes begin
/s32 [0 -443 512 1825] def
/s48 [0 -443 1024 1825] def
/s49 [0 -443 1024 1825] def
/s50 [0 -443 1024 1825] def
/s51 [0 -443 1024 1825] def
/s52 [0 -443 1024 1825] def
/s53 [0 -443 1024 1825] def
/s54 [0 -443 1024 1825] def
/s55 [0 -443 1024 1825] def
/s66 [0 -443 1366 1825] def
/s67 [0 -443 1366 1825] def
/s70 [0 -443 1139 1825] def
/s76 [0 -443 1251 1825] def
/s83 [0 -443 1139 1825] def
/s97 [0 -443 909 1825] def
/s99 [0 -443 909 1825] def
/s100 [0 -443 1024 1825] def
/s101 [0 -443 909 1825] def
/s104 [0 -443 1024 1825] def
/s105 [0 -443 569 1825] def
/s109 [0 -443 1593 1825] def
/s110 [0 -443 1024 1825] def
/s111 [0 -443 1024 1825] def
/s112 [-7 -443 1024 1825] def
/s114 [0 -443 682 1825] def
/s115 [0 -443 797 1825] def
/s116 [0 -443 569 1825] def
/s117 [0 -443 1024 1825] def
/s118 [0 -443 1024 1825] def
/s119 [0 -443 1479 1825] def
/s121 [0 -443 1024 1825] def
end
/Metrics 32 dict def
 Metrics begin
/s32 512 def
/s48 1024 def
/s49 1024 def
/s50 1024 def
/s51 1024 def
/s52 1024 def
/s53 1024 def
/s54 1024 def
/s55 1024 def
/s66 1366 def
/s67 1366 def
/s70 1139 def
/s76 1251 def
/s83 1139 def
/s97 909 def
/s99 909 def
/s100 1024 def
/s101 909 def
/s104 1024 def
/s105 569 def
/s109 1593 def
/s110 1024 def
/s111 1024 def
/s112 1024 def
/s114 682 def
/s115 797 def
/s116 569 def
/s117 1024 def
/s118 1024 def
/s119 1479 def
/s121 1024 def
end
/CharProcs 32 dict def
CharProcs begin
/.notdef {} def
/s48 {
74 670 m
74 824.67 97.33 957.83 144 1069.5 c
190.67 1181.17 252.67 1264.33 330 1319 c
390 1362.33 452 1384 516 1384 c
620 1384 713.33 1331 796 1225 c
899.33 1093.67 951 915.67 951 691 c
951 533.67 928.33 400 883 290 c
837.67 180 779.83 100.17 709.5 50.5 c
639.17 0.83 571.33 -24 506 -24 c
376.67 -24 269 52.33 183 205 c
110.33 333.67 74 488.67 74 670 c
closepath 270 645 m
270 458.33 293 306 339 188 c
377 88.67 433.67 39 509 39 c
545 39 582.33 55.17 621 87.5 c
659.67 119.83 689 174 709 250 c
739.67 364.67 755 526.33 755 735 c
755 889.67 739 1018.67 707 1122 c
683 1198.67 652 1253 614 1285 c
586.67 1307 553.67 1318 515 1318 c
469.67 1318 429.33 1297.67 394 1257 c
346 1201.67 313.33 1114.67 296 996 c
278.67 877.33 270 760.33 270 645 c
closepath } bind def
/s49 {
240 1223 m
570 1384 240 1223 570 1384 c
603 1384 570 1384 603 1384 c
603 239 603 1384 603 239 c
603 163 606.17 115.67 612.5 97 c
618.83 78.33 632 64 652 54 c
672 44 712.67 38.33 774 37 c
774 0 774 37 774 0 c
264 0 774 0 264 0 c
264 37 264 0 264 37 c
328 38.33 369.33 43.83 388 53.5 c
406.67 63.17 419.67 76.17 427 92.5 c
434.33 108.83 438 157.67 438 239 c
438 971 438 239 438 971 c
438 1069.67 434.67 1133 428 1161 c
423.33 1182.33 414.83 1198 402.5 1208 c
390.17 1218 375.33 1223 358 1223 c
333.33 1223 299 1212.67 255 1192 c
240 1223 255 1192 240 1223 c
closepath } bind def
/s50 {
939 261 m
844 0 939 261 844 0 c
44 0 844 0 44 0 c
44 37 44 0 44 37 c
279.33 251.67 445 427 541 563 c
637 699 685 823.33 685 936 c
685 1022 658.67 1092.67 606 1148 c
553.33 1203.33 490.33 1231 417 1231 c
350.33 1231 290.5 1211.5 237.5 1172.5 c
184.5 1133.5 145.33 1076.33 120 1001 c
83 1001 120 1001 83 1001 c
99.67 1124.33 142.5 1219 211.5 1285 c
280.5 1351 366.67 1384 470 1384 c
580 1384 671.83 1348.67 745.5 1278 c
819.17 1207.33 856 1124 856 1028 c
856 959.33 840 890.67 808 822 c
758.67 714 678.67 599.67 568 479 c
402 297.67 298.33 188.33 257 151 c
611 151 257 151 611 151 c
683 151 733.5 153.67 762.5 159 c
791.5 164.33 817.67 175.17 841 191.5 c
864.33 207.83 884.67 231 902 261 c
939 261 902 261 939 261 c
closepath } bind def
/s51 {
104 1098 m
142.67 1189.33 191.5 1259.83 250.5 1309.5 c
309.5 1359.17 383 1384 471 1384 c
579.67 1384 663 1348.67 721 1278 c
765 1225.33 787 1169 787 1109 c
787 1010.33 725 908.33 601 803 c
684.33 770.33 747.33 723.67 790 663 c
832.67 602.33 854 531 854 449 c
854 331.67 816.67 230 742 144 c
644.67 32 503.67 -24 319 -24 c
227.67 -24 165.5 -12.67 132.5 10 c
99.5 32.67 83 57 83 83 c
83 102.33 90.83 119.33 106.5 134 c
122.17 148.67 141 156 163 156 c
179.67 156 196.67 153.33 214 148 c
225.33 144.67 251 132.5 291 111.5 c
331 90.5 358.67 78 374 74 c
398.67 66.67 425 63 453 63 c
521 63 580.17 89.33 630.5 142 c
680.83 194.67 706 257 706 329 c
706 381.67 694.33 433 671 483 c
653.67 520.33 634.67 548.67 614 568 c
585.33 594.67 546 618.83 496 640.5 c
446 662.17 395 673 343 673 c
311 673 343 673 311 673 c
311 703 311 673 311 703 c
363.67 709.67 416.5 728.67 469.5 760 c
522.5 791.33 561 829 585 873 c
609 917 621 965.33 621 1018 c
621 1086.67 599.5 1142.17 556.5 1184.5 c
513.5 1226.83 460 1248 396 1248 c
292.67 1248 206.33 1192.67 137 1082 c
104 1098 137 1082 104 1098 c
closepath } bind def
/s52 {
953 500 m
953 358 953 500 953 358 c
771 358 953 358 771 358 c
771 0 771 358 771 0 c
606 0 771 0 606 0 c
606 358 606 0 606 358 c
32 358 606 358 32 358 c
32 486 32 358 32 486 c
661 1384 32 486 661 1384 c
771 1384 661 1384 771 1384 c
771 500 771 1384 771 500 c
953 500 771 500 953 500 c
closepath 606 500 m
606 1173 606 500 606 1173 c
130 500 606 1173 130 500 c
606 500 130 500 606 500 c
closepath } bind def
/s53 {
889 1356 m
811 1186 889 1356 811 1186 c
403 1186 811 1186 403 1186 c
314 1004 403 1186 314 1004 c
490.67 978 630.67 912.33 734 807 c
822.67 716.33 867 609.67 867 487 c
867 415.67 852.5 349.67 823.5 289 c
794.5 228.33 758 176.67 714 134 c
670 91.33 621 57 567 31 c
490.33 -5.67 411.67 -24 331 -24 c
249.67 -24 190.5 -10.17 153.5 17.5 c
116.5 45.17 98 75.67 98 109 c
98 127.67 105.67 144.17 121 158.5 c
136.33 172.83 155.67 180 179 180 c
196.33 180 211.5 177.33 224.5 172 c
237.5 166.67 259.67 153 291 131 c
341 96.33 391.67 79 443 79 c
521 79 589.5 108.5 648.5 167.5 c
707.5 226.5 737 298.33 737 383 c
737 465 710.67 541.5 658 612.5 c
605.33 683.5 532.67 738.33 440 777 c
367.33 807 268.33 824.33 143 829 c
403 1356 143 829 403 1356 c
889 1356 403 1356 889 1356 c
closepath } bind def
/s54 {
918 1384 m
918 1347 918 1384 918 1347 c
830 1338.33 758.17 1320.83 702.5 1294.5 c
646.83 1268.17 591.83 1228 537.5 1174 c
483.17 1120 438.17 1059.83 402.5 993.5 c
366.83 927.17 337 848.33 313 757 c
409 823 505.33 856 602 856 c
694.67 856 775 818.67 843 744 c
911 669.33 945 573.33 945 456 c
945 342.67 910.67 239.33 842 146 c
759.33 32.67 650 -24 514 -24 c
421.33 -24 342.67 6.67 278 68 c
151.33 187.33 88 342 88 532 c
88 653.33 112.33 768.67 161 878 c
209.67 987.33 279.17 1084.33 369.5 1169 c
459.83 1253.67 546.33 1310.67 629 1340 c
711.67 1369.33 788.67 1384 860 1384 c
918 1384 860 1384 918 1384 c
closepath 296 684 m
284 594 278 521.33 278 466 c
278 402 289.83 332.5 313.5 257.5 c
337.17 182.5 372.33 123 419 79 c
453 47.67 494.33 32 543 32 c
601 32 652.83 59.33 698.5 114 c
744.17 168.67 767 246.67 767 348 c
767 462 744.33 560.67 699 644 c
653.67 727.33 589.33 769 506 769 c
480.67 769 453.5 763.67 424.5 753 c
395.5 742.33 352.67 719.33 296 684 c
closepath } bind def
/s55 {
206 1356 m
933 1356 206 1356 933 1356 c
933 1318 933 1356 933 1318 c
481 -28 933 1318 481 -28 c
369 -28 481 -28 369 -28 c
774 1193 369 -28 774 1193 c
401 1193 774 1193 401 1193 c
325.67 1193 272 1184 240 1166 c
184 1135.33 139 1088 105 1024 c
76 1035 105 1024 76 1035 c
206 1356 76 1035 206 1356 c
closepath } bind def
/s66 {
946 692 m
1040 672 1110.33 640 1157 596 c
1221.67 534.67 1254 459.67 1254 371 c
1254 303.67 1232.67 239.17 1190 177.5 c
1147.33 115.83 1088.83 70.83 1014.5 42.5 c
940.17 14.17 826.67 0 674 0 c
34 0 674 0 34 0 c
34 37 34 0 34 37 c
85 37 34 37 85 37 c
141.67 37 182.33 55 207 91 c
222.33 114.33 230 164 230 240 c
230 1116 230 240 230 1116 c
230 1200 220.33 1253 201 1275 c
175 1304.33 136.33 1319 85 1319 c
34 1319 85 1319 34 1319 c
34 1356 34 1319 34 1356 c
620 1356 34 1356 620 1356 c
729.33 1356 817 1348 883 1332 c
983 1308 1059.33 1265.5 1112 1204.5 c
1164.67 1143.5 1191 1073.33 1191 994 c
1191 926 1170.33 865.17 1129 811.5 c
1087.67 757.83 1026.67 718 946 692 c
closepath 422 746 m
446.67 741.33 474.83 737.83 506.5 735.5 c
538.17 733.17 573 732 611 732 c
708.33 732 781.5 742.5 830.5 763.5 c
879.5 784.5 917 816.67 943 860 c
969 903.33 982 950.67 982 1002 c
982 1081.33 949.67 1149 885 1205 c
820.33 1261 726 1289 602 1289 c
535.33 1289 475.33 1281.67 422 1267 c
422 746 422 1267 422 746 c
closepath 422 98 m
499.33 80 575.67 71 651 71 c
771.67 71 863.67 98.17 927 152.5 c
990.33 206.83 1022 274 1022 354 c
1022 406.67 1007.67 457.33 979 506 c
950.33 554.67 903.67 593 839 621 c
774.33 649 694.33 663 599 663 c
557.67 663 522.33 662.33 493 661 c
463.67 659.67 440 657.33 422 654 c
422 98 422 654 422 98 c
closepath } bind def
/s67 {
1233 1387 m
1264 926 1233 1387 1264 926 c
1233 926 1264 926 1233 926 c
1191.67 1064 1132.67 1163.33 1056 1224 c
979.33 1284.67 887.33 1315 780 1315 c
690 1315 608.67 1292.17 536 1246.5 c
463.33 1200.83 406.17 1128 364.5 1028 c
322.83 928 302 803.67 302 655 c
302 532.33 321.67 426 361 336 c
400.33 246 459.5 177 538.5 129 c
617.5 81 707.67 57 809 57 c
897 57 974.67 75.83 1042 113.5 c
1109.33 151.17 1183.33 226 1264 338 c
1295 318 1264 338 1295 318 c
1227 197.33 1147.67 109 1057 53 c
966.33 -3 858.67 -31 734 -31 c
509.33 -31 335.33 52.33 212 219 c
120 343 74 489 74 657 c
74 792.33 104.33 916.67 165 1030 c
225.67 1143.33 309.17 1231.17 415.5 1293.5 c
521.83 1355.83 638 1387 764 1387 c
862 1387 958.67 1363 1054 1315 c
1082 1300.33 1102 1293 1114 1293 c
1132 1293 1147.67 1299.33 1161 1312 c
1178.33 1330 1190.67 1355 1198 1387 c
1233 1387 1198 1387 1233 1387 c
closepath } bind def
/s70 {
419 1282 m
419 749 419 1282 419 749 c
666 749 419 749 666 749 c
722.67 749 764.17 761.5 790.5 786.5 c
816.83 811.5 834.33 861 843 935 c
880 935 843 935 880 935 c
880 476 880 935 880 476 c
843 476 880 476 843 476 c
842.33 528.67 835.5 567.33 822.5 592 c
809.5 616.67 791.5 635.17 768.5 647.5 c
745.5 659.83 711.33 666 666 666 c
419 666 666 666 419 666 c
419 240 419 666 419 240 c
419 171.33 423.33 126 432 104 c
438.67 87.33 452.67 73 474 61 c
503.33 45 534 37 566 37 c
615 37 566 37 615 37 c
615 0 615 37 615 0 c
33 0 615 0 33 0 c
33 37 33 0 33 37 c
81 37 33 37 81 37 c
137 37 177.67 53.33 203 86 c
219 107.33 227 158.67 227 240 c
227 1116 227 240 227 1116 c
227 1184.67 222.67 1230 214 1252 c
207.33 1268.67 193.67 1283 173 1295 c
144.33 1311 113.67 1319 81 1319 c
33 1319 81 1319 33 1319 c
33 1356 33 1319 33 1356 c
1042 1356 33 1356 1042 1356 c
1055 1058 1042 1356 1055 1058 c
1020 1058 1055 1058 1020 1058 c
1002.67 1121.33 982.5 1167.83 959.5 1197.5 c
936.5 1227.17 908.17 1248.67 874.5 1262 c
840.83 1275.33 788.67 1282 718 1282 c
419 1282 718 1282 419 1282 c
closepath } bind def
/s76 {
1174 375 m
1207 368 1174 375 1207 368 c
1091 0 1207 368 1091 0 c
41 0 1091 0 41 0 c
41 37 41 0 41 37 c
92 37 41 37 92 37 c
149.33 37 190.33 55.67 215 93 c
229 114.33 236 163.67 236 241 c
236 1116 236 241 236 1116 c
236 1200.67 226.67 1253.67 208 1275 c
182 1304.33 143.33 1319 92 1319 c
41 1319 92 1319 41 1319 c
41 1356 41 1319 41 1356 c
655 1356 41 1356 655 1356 c
655 1319 655 1356 655 1319 c
583 1319.67 532.5 1313 503.5 1299 c
474.5 1285 454.67 1267.33 444 1246 c
433.33 1224.67 428 1173.67 428 1093 c
428 241 428 1093 428 241 c
428 185.67 433.33 147.67 444 127 c
452 113 464.33 102.67 481 96 c
497.67 89.33 549.67 86 637 86 c
736 86 637 86 736 86 c
840 86 913 93.67 955 109 c
997 124.33 1035.33 151.5 1070 190.5 c
1104.67 229.5 1139.33 291 1174 375 c
closepath } bind def
/s83 {
939 1387 m
939 918 939 1387 939 918 c
902 918 939 918 902 918 c
890 1008 868.5 1079.67 837.5 1133 c
806.5 1186.33 762.33 1228.67 705 1260 c
647.67 1291.33 588.33 1307 527 1307 c
457.67 1307 400.33 1285.83 355 1243.5 c
309.67 1201.17 287 1153 287 1099 c
287 1057.67 301.33 1020 330 986 c
371.33 936 469.67 869.33 625 786 c
751.67 718 838.17 665.83 884.5 629.5 c
930.83 593.17 966.5 550.33 991.5 501 c
1016.5 451.67 1029 400 1029 346 c
1029 243.33 989.17 154.83 909.5 80.5 c
829.83 6.17 727.33 -31 602 -31 c
562.67 -31 525.67 -28 491 -22 c
470.33 -18.67 427.5 -6.5 362.5 14.5 c
297.5 35.5 256.33 46 239 46 c
222.33 46 209.17 41 199.5 31 c
189.83 21 182.67 0.33 178 -31 c
141 -31 178 -31 141 -31 c
141 434 141 -31 141 434 c
178 434 141 434 178 434 c
195.33 336.67 218.67 263.83 248 215.5 c
277.33 167.17 322.17 127 382.5 95 c
442.83 63 509 47 581 47 c
664.33 47 730.17 69 778.5 113 c
826.83 157 851 209 851 269 c
851 302.33 841.83 336 823.5 370 c
805.17 404 776.67 435.67 738 465 c
712 485 641 527.5 525 592.5 c
409 657.5 326.5 709.33 277.5 748 c
228.5 786.67 191.33 829.33 166 876 c
140.67 922.67 128 974 128 1030 c
128 1127.33 165.33 1211.17 240 1281.5 c
314.67 1351.83 409.67 1387 525 1387 c
597 1387 673.33 1369.33 754 1334 c
791.33 1317.33 817.67 1309 833 1309 c
850.33 1309 864.5 1314.17 875.5 1324.5 c
886.5 1334.83 895.33 1355.67 902 1387 c
939 1387 902 1387 939 1387 c
closepath } bind def
/s97 {
583 132 m
489 59.33 430 17.33 406 6 c
370 -10.67 331.67 -19 291 -19 c
227.67 -19 175.5 2.67 134.5 46 c
93.5 89.33 73 146.33 73 217 c
73 261.67 83 300.33 103 333 c
130.33 378.33 177.83 421 245.5 461 c
313.17 501 425.67 549.67 583 607 c
583 643 583 607 583 643 c
583 734.33 568.5 797 539.5 831 c
510.5 865 468.33 882 413 882 c
371 882 337.67 870.67 313 848 c
287.67 825.33 275 799.33 275 770 c
277 712 275 770 277 712 c
277 681.33 269.17 657.67 253.5 641 c
237.83 624.33 217.33 616 192 616 c
167.33 616 147.17 624.67 131.5 642 c
115.83 659.33 108 683 108 713 c
108 770.33 137.33 823 196 871 c
254.67 919 337 943 443 943 c
524.33 943 591 929.33 643 902 c
682.33 881.33 711.33 849 730 805 c
742 776.33 748 717.67 748 629 c
748 318 748 629 748 318 c
748 230.67 749.67 177.17 753 157.5 c
756.33 137.83 761.83 124.67 769.5 118 c
777.17 111.33 786 108 796 108 c
806.67 108 816 110.33 824 115 c
838 123.67 865 148 905 188 c
905 132 905 188 905 132 c
830.33 32 759 -18 691 -18 c
658.33 -18 632.33 -6.67 613 16 c
593.67 38.67 583.67 77.33 583 132 c
closepath 583 197 m
583 546 583 197 583 546 c
482.33 506 417.33 477.67 388 461 c
335.33 431.67 297.67 401 275 369 c
252.33 337 241 302 241 264 c
241 216 255.33 176.17 284 144.5 c
312.67 112.83 345.67 97 383 97 c
433.67 97 500.33 130.33 583 197 c
closepath } bind def
/s99 {
842 348 m
817.33 227.33 769 134.5 697 69.5 c
625 4.5 545.33 -28 458 -28 c
354 -28 263.33 15.67 186 103 c
108.67 190.33 70 308.33 70 457 c
70 601 112.83 718 198.5 808 c
284.17 898 387 943 507 943 c
597 943 671 919.17 729 871.5 c
787 823.83 816 774.33 816 723 c
816 697.67 807.83 677.17 791.5 661.5 c
775.17 645.83 752.33 638 723 638 c
683.67 638 654 650.67 634 676 c
622.67 690 615.17 716.67 611.5 756 c
607.83 795.33 594.33 825.33 571 846 c
547.67 866 515.33 876 474 876 c
407.33 876 353.67 851.33 313 802 c
259 736.67 232 650.33 232 543 c
232 433.67 258.83 337.17 312.5 253.5 c
366.17 169.83 438.67 128 530 128 c
595.33 128 654 150.33 706 195 c
742.67 225.67 778.33 281.33 813 362 c
842 348 813 362 842 348 c
closepath } bind def
/s100 {
711 103 m
666.33 56.33 622.67 22.83 580 2.5 c
537.33 -17.83 491.33 -28 442 -28 c
342 -28 254.67 13.83 180 97.5 c
105.33 181.17 68 288.67 68 420 c
68 551.33 109.33 671.5 192 780.5 c
274.67 889.5 381 944 511 944 c
591.67 944 658.33 918.33 711 867 c
711 1036 711 867 711 1036 c
711 1140.67 708.5 1205 703.5 1229 c
698.5 1253 690.67 1269.33 680 1278 c
669.33 1286.67 656 1291 640 1291 c
622.67 1291 599.67 1285.67 571 1275 c
558 1310 571 1275 558 1310 c
831 1422 558 1310 831 1422 c
876 1422 831 1422 876 1422 c
876 363 876 1422 876 363 c
876 255.67 878.5 190.17 883.5 166.5 c
888.5 142.83 896.5 126.33 907.5 117 c
918.5 107.67 931.33 103 946 103 c
964 103 988 108.67 1018 120 c
1029 85 1018 120 1029 85 c
757 -28 1029 85 757 -28 c
711 -28 757 -28 711 -28 c
711 103 711 -28 711 103 c
closepath 711 173 m
711 645 711 173 711 645 c
707 690.33 695 731.67 675 769 c
655 806.33 628.5 834.5 595.5 853.5 c
562.5 872.5 530.33 882 499 882 c
440.33 882 388 855.67 342 803 c
281.33 733.67 251 632.33 251 499 c
251 364.33 280.33 261.17 339 189.5 c
397.67 117.83 463 82 535 82 c
595.67 82 654.33 112.33 711 173 c
closepath } bind def
/s101 {
218 571 m
217.33 435 250.33 328.33 317 251 c
383.67 173.67 462 135 552 135 c
612 135 664.17 151.5 708.5 184.5 c
752.83 217.5 790 274 820 354 c
851 334 820 354 851 334 c
837 242.67 796.33 159.5 729 84.5 c
661.67 9.5 577.33 -28 476 -28 c
366 -28 271.83 14.83 193.5 100.5 c
115.17 186.17 76 301.33 76 446 c
76 602.67 116.17 724.83 196.5 812.5 c
276.83 900.17 377.67 944 499 944 c
601.67 944 686 910.17 752 842.5 c
818 774.83 851 684.33 851 571 c
218 571 851 571 218 571 c
closepath 218 629 m
642 629 218 629 642 629 c
638.67 687.67 631.67 729 621 753 c
604.33 790.33 579.5 819.67 546.5 841 c
513.5 862.33 479 873 443 873 c
387.67 873 338.17 851.5 294.5 808.5 c
250.83 765.5 225.33 705.67 218 629 c
closepath } bind def
/s104 {
333 1422 m
333 752 333 1422 333 752 c
407 833.33 465.67 885.5 509 908.5 c
552.33 931.5 595.67 943 639 943 c
691 943 735.67 928.67 773 900 c
810.33 871.33 838 826.33 856 765 c
868.67 722.33 875 644.33 875 531 c
875 207 875 531 875 207 c
875 149 879.67 109.33 889 88 c
895.67 72 907 59.33 923 50 c
939 40.67 968.33 36 1011 36 c
1011 0 1011 36 1011 0 c
561 0 1011 0 561 0 c
561 36 561 0 561 36 c
582 36 561 36 582 36 c
624.67 36 654.33 42.5 671 55.5 c
687.67 68.5 699.33 87.67 706 113 c
708 123.67 709 155 709 207 c
709 531 709 207 709 531 c
709 631 703.83 696.67 693.5 728 c
683.17 759.33 666.67 782.83 644 798.5 c
621.33 814.17 594 822 562 822 c
529.33 822 495.33 813.33 460 796 c
424.67 778.67 382.33 743.67 333 691 c
333 207 333 691 333 207 c
333 144.33 336.5 105.33 343.5 90 c
350.5 74.67 363.5 61.83 382.5 51.5 c
401.5 41.17 434.33 36 481 36 c
481 0 481 36 481 0 c
27 0 481 0 27 0 c
27 36 27 0 27 36 c
67.67 36 99.67 42.33 123 55 c
136.33 61.67 147 74.33 155 93 c
163 111.67 167 149.67 167 207 c
167 1036 167 207 167 1036 c
167 1140.67 164.5 1205 159.5 1229 c
154.5 1253 146.83 1269.33 136.5 1278 c
126.17 1286.67 112.33 1291 95 1291 c
81 1291 58.33 1285.67 27 1275 c
13 1310 27 1275 13 1310 c
287 1422 13 1310 287 1422 c
333 1422 287 1422 333 1422 c
closepath } bind def
/s105 {
297 1422 m
325 1422 348.83 1412.17 368.5 1392.5 c
388.17 1372.83 398 1349 398 1321 c
398 1293 388.17 1269 368.5 1249 c
348.83 1229 325 1219 297 1219 c
269 1219 245 1229 225 1249 c
205 1269 195 1293 195 1321 c
195 1349 204.83 1372.83 224.5 1392.5 c
244.17 1412.17 268.33 1422 297 1422 c
closepath 380 943 m
380 207 380 943 380 207 c
380 149.67 384.17 111.5 392.5 92.5 c
400.83 73.5 413.17 59.33 429.5 50 c
445.83 40.67 475.67 36 519 36 c
519 0 519 36 519 0 c
74 0 519 0 74 0 c
74 36 74 0 74 36 c
118.67 36 148.67 40.33 164 49 c
179.33 57.67 191.5 72 200.5 92 c
209.5 112 214 150.33 214 207 c
214 560 214 207 214 560 c
214 659.33 211 723.67 205 753 c
200.33 774.33 193 789.17 183 797.5 c
173 805.83 159.33 810 142 810 c
123.33 810 100.67 805 74 795 c
60 831 74 795 60 831 c
336 943 60 831 336 943 c
380 943 336 943 380 943 c
closepath } bind def
/s109 {
336 748 m
402.67 814.67 442 853 454 863 c
484 888.33 516.33 908 551 922 c
585.67 936 620 943 654 943 c
711.33 943 760.67 926.33 802 893 c
843.33 859.67 871 811.33 885 748 c
953.67 828 1011.67 880.5 1059 905.5 c
1106.33 930.5 1155 943 1205 943 c
1253.67 943 1296.83 930.5 1334.5 905.5 c
1372.17 880.5 1402 839.67 1424 783 c
1438.67 744.33 1446 683.67 1446 601 c
1446 207 1446 601 1446 207 c
1446 149.67 1450.33 110.33 1459 89 c
1465.67 74.33 1478 61.83 1496 51.5 c
1514 41.17 1543.33 36 1584 36 c
1584 0 1584 36 1584 0 c
1132 0 1584 0 1132 0 c
1132 36 1132 0 1132 36 c
1151 36 1132 36 1151 36 c
1190.33 36 1221 43.67 1243 59 c
1258.33 69.67 1269.33 86.67 1276 110 c
1278.67 121.33 1280 153.67 1280 207 c
1280 601 1280 207 1280 601 c
1280 675.67 1271 728.33 1253 759 c
1227 801.67 1185.33 823 1128 823 c
1092.67 823 1057.17 814.17 1021.5 796.5 c
985.83 778.83 942.67 746 892 698 c
890 687 892 698 890 687 c
892 644 890 687 892 644 c
892 207 892 644 892 207 c
892 144.33 895.5 105.33 902.5 90 c
909.5 74.67 922.67 61.83 942 51.5 c
961.33 41.17 994.33 36 1041 36 c
1041 0 1041 36 1041 0 c
578 0 1041 0 578 0 c
578 36 578 0 578 36 c
628.67 36 663.5 42 682.5 54 c
701.5 66 714.67 84 722 108 c
725.33 119.33 727 152.33 727 207 c
727 601 727 207 727 601 c
727 675.67 716 729.33 694 762 c
664.67 804.67 623.67 826 571 826 c
535 826 499.33 816.33 464 797 c
408.67 767.67 366 734.67 336 698 c
336 207 336 698 336 207 c
336 147 340.17 108 348.5 90 c
356.83 72 369.17 58.5 385.5 49.5 c
401.83 40.5 435 36 485 36 c
485 0 485 36 485 0 c
32 0 485 0 32 0 c
32 36 32 0 32 36 c
74 36 103.33 40.5 120 49.5 c
136.67 58.5 149.33 72.83 158 92.5 c
166.67 112.17 171 150.33 171 207 c
171 557 171 207 171 557 c
171 657.67 168 722.67 162 752 c
157.33 774 150 789.17 140 797.5 c
130 805.83 116.33 810 99 810 c
80.33 810 58 805 32 795 c
17 831 32 795 17 831 c
293 943 17 831 293 943 c
336 943 293 943 336 943 c
336 748 336 943 336 748 c
closepath } bind def
/s110 {
331 749 m
438.33 878.33 540.67 943 638 943 c
688 943 731 930.5 767 905.5 c
803 880.5 831.67 839.33 853 782 c
867.67 742 875 680.67 875 598 c
875 207 875 598 875 207 c
875 149 879.67 109.67 889 89 c
896.33 72.33 908.17 59.33 924.5 50 c
940.83 40.67 971 36 1015 36 c
1015 0 1015 36 1015 0 c
562 0 1015 0 562 0 c
562 36 562 0 562 36 c
581 36 562 36 581 36 c
623.67 36 653.5 42.5 670.5 55.5 c
687.5 68.5 699.33 87.67 706 113 c
708.67 123 710 154.33 710 207 c
710 582 710 207 710 582 c
710 665.33 699.17 725.83 677.5 763.5 c
655.83 801.17 619.33 820 568 820 c
488.67 820 409.67 776.67 331 690 c
331 207 331 690 331 207 c
331 145 334.67 106.67 342 92 c
351.33 72.67 364.17 58.5 380.5 49.5 c
396.83 40.5 430 36 480 36 c
480 0 480 36 480 0 c
27 0 480 0 27 0 c
27 36 27 0 27 36 c
47 36 27 36 47 36 c
93.67 36 125.17 47.83 141.5 71.5 c
157.83 95.17 166 140.33 166 207 c
166 547 166 207 166 547 c
166 657 163.5 724 158.5 748 c
153.5 772 145.83 788.33 135.5 797 c
125.17 805.67 111.33 810 94 810 c
75.33 810 53 805 27 795 c
12 831 27 795 12 831 c
288 943 12 831 288 943 c
331 943 288 943 331 943 c
331 749 331 943 331 749 c
closepath } bind def
/s111 {
512 943 m
650.67 943 762 890.33 846 785 c
917.33 695 953 591.67 953 475 c
953 393 933.33 310 894 226 c
854.67 142 800.5 78.67 731.5 36 c
662.5 -6.67 585.67 -28 501 -28 c
363 -28 253.33 27 172 137 c
103.33 229.67 69 333.67 69 449 c
69 533 89.83 616.5 131.5 699.5 c
173.17 782.5 228 843.83 296 883.5 c
364 923.17 436 943 512 943 c
closepath 481 878 m
445.67 878 410.17 867.5 374.5 846.5 c
338.83 825.5 310 788.67 288 736 c
266 683.33 255 615.67 255 533 c
255 399.67 281.5 284.67 334.5 188 c
387.5 91.33 457.33 43 544 43 c
608.67 43 662 69.67 704 123 c
746 176.33 767 268 767 398 c
767 560.67 732 688.67 662 782 c
614.67 846 554.33 878 481 878 c
closepath } bind def
/s112 {
-2 825 m
280 939 -2 825 280 939 c
318 939 280 939 318 939 c
318 725 318 939 318 725 c
365.33 805.67 412.83 862.17 460.5 894.5 c
508.17 926.83 558.33 943 611 943 c
703 943 779.67 907 841 835 c
916.33 747 954 632.33 954 491 c
954 333 908.67 202.33 818 99 c
743.33 14.33 649.33 -28 536 -28 c
486.67 -28 444 -21 408 -7 c
381.33 3 351.33 23 318 53 c
318 -226 318 53 318 -226 c
318 -288.67 321.83 -328.5 329.5 -345.5 c
337.17 -362.5 350.5 -376 369.5 -386 c
388.5 -396 423 -401 473 -401 c
473 -438 473 -401 473 -438 c
-7 -438 473 -438 -7 -438 c
-7 -401 -7 -438 -7 -401 c
18 -401 -7 -401 18 -401 c
54.67 -401.67 86 -394.67 112 -380 c
124.67 -372.67 134.5 -360.83 141.5 -344.5 c
148.5 -328.17 152 -286.67 152 -220 c
152 646 152 -220 152 646 c
152 705.33 149.33 743 144 759 c
138.67 775 130.17 787 118.5 795 c
106.83 803 91 807 71 807 c
55 807 34.67 802.33 10 793 c
-2 825 10 793 -2 825 c
closepath 318 666 m
318 324 318 666 318 324 c
318 250 321 201.33 327 178 c
336.33 139.33 359.17 105.33 395.5 76 c
431.83 46.67 477.67 32 533 32 c
599.67 32 653.67 58 695 110 c
749 178 776 273.67 776 397 c
776 537 745.33 644.67 684 720 c
641.33 772 590.67 798 532 798 c
500 798 468.33 790 437 774 c
413 762 373.33 726 318 666 c
closepath } bind def
/s114 {
332 943 m
332 737 332 943 332 737 c
408.67 874.33 487.33 943 568 943 c
604.67 943 635 931.83 659 909.5 c
683 887.17 695 861.33 695 832 c
695 806 686.33 784 669 766 c
651.67 748 631 739 607 739 c
583.67 739 557.5 750.5 528.5 773.5 c
499.5 796.5 478 808 464 808 c
452 808 439 801.33 425 788 c
395 760.67 364 715.67 332 653 c
332 214 332 653 332 214 c
332 163.33 338.33 125 351 99 c
359.67 81 375 66 397 54 c
419 42 450.67 36 492 36 c
492 0 492 36 492 0 c
23 0 492 0 23 0 c
23 36 23 0 23 36 c
69.67 36 104.33 43.33 127 58 c
143.67 68.67 155.33 85.67 162 109 c
165.33 120.33 167 152.67 167 206 c
167 561 167 206 167 561 c
167 667.67 164.83 731.17 160.5 751.5 c
156.17 771.83 148.17 786.67 136.5 796 c
124.83 805.33 110.33 810 93 810 c
72.33 810 49 805 23 795 c
13 831 23 795 13 831 c
290 943 13 831 290 943 c
332 943 290 943 332 943 c
closepath } bind def
/s115 {
656 943 m
656 631 656 943 656 631 c
623 631 656 631 623 631 c
597.67 729 565.17 795.67 525.5 831 c
485.83 866.33 435.33 884 374 884 c
327.33 884 289.67 871.67 261 847 c
232.33 822.33 218 795 218 765 c
218 727.67 228.67 695.67 250 669 c
270.67 641.67 312.67 612.67 376 582 c
522 511 376 582 522 511 c
657.33 445 725 358 725 250 c
725 166.67 693.5 99.5 630.5 48.5 c
567.5 -2.5 497 -28 419 -28 c
363 -28 299 -18 227 2 c
205 8.67 187 12 173 12 c
157.67 12 145.67 3.33 137 -14 c
104 -14 137 -14 104 -14 c
104 313 104 -14 104 313 c
137 313 104 313 137 313 c
155.67 219.67 191.33 149.33 244 102 c
296.67 54.67 355.67 31 421 31 c
467 31 504.5 44.5 533.5 71.5 c
562.5 98.5 577 131 577 169 c
577 215 560.83 253.67 528.5 285 c
496.17 316.33 431.67 356 335 404 c
238.33 452 175 495.33 145 534 c
115 572 100 620 100 678 c
100 753.33 125.83 816.33 177.5 867 c
229.17 917.67 296 943 378 943 c
414 943 457.67 935.33 509 920 c
543 910 565.67 905 577 905 c
587.67 905 596 907.33 602 912 c
608 916.67 615 927 623 943 c
656 943 623 943 656 943 c
closepath } bind def
/s116 {
330 1217 m
330 916 330 1217 330 916 c
544 916 330 916 544 916 c
544 846 544 916 544 846 c
330 846 544 846 330 846 c
330 252 330 846 330 252 c
330 192.67 338.5 152.67 355.5 132 c
372.5 111.33 394.33 101 421 101 c
443 101 464.33 107.83 485 121.5 c
505.67 135.17 521.67 155.33 533 182 c
572 182 533 182 572 182 c
548.67 116.67 515.67 67.5 473 34.5 c
430.33 1.5 386.33 -15 341 -15 c
310.33 -15 280.33 -6.5 251 10.5 c
221.67 27.5 200 51.83 186 83.5 c
172 115.17 165 164 165 230 c
165 846 165 230 165 846 c
20 846 165 846 20 846 c
20 879 20 846 20 879 c
56.67 893.67 94.17 918.5 132.5 953.5 c
170.83 988.5 205 1030 235 1078 c
250.33 1103.33 271.67 1149.67 299 1217 c
330 1217 299 1217 330 1217 c
closepath } bind def
/s117 {
867 916 m
867 361 867 916 867 361 c
867 255 869.5 190.17 874.5 166.5 c
879.5 142.83 887.5 126.33 898.5 117 c
909.5 107.67 922.33 103 937 103 c
957.67 103 981 108.67 1007 120 c
1021 85 1007 120 1021 85 c
747 -28 1021 85 747 -28 c
702 -28 747 -28 702 -28 c
702 166 702 -28 702 166 c
623.33 80.67 563.33 27 522 5 c
480.67 -17 437 -28 391 -28 c
339.67 -28 295.17 -13.17 257.5 16.5 c
219.83 46.17 193.67 84.33 179 131 c
164.33 177.67 157 243.67 157 329 c
157 738 157 329 157 738 c
157 781.33 152.33 811.33 143 828 c
133.67 844.67 119.83 857.5 101.5 866.5 c
83.17 875.5 50 879.67 2 879 c
2 916 2 879 2 916 c
323 916 2 916 323 916 c
323 303 323 916 323 303 c
323 217.67 337.83 161.67 367.5 135 c
397.17 108.33 433 95 475 95 c
503.67 95 536.17 104 572.5 122 c
608.83 140 652 174.33 702 225 c
702 744 702 225 702 744 c
702 796 692.5 831.17 673.5 849.5 c
654.5 867.83 615 877.67 555 879 c
555 916 555 879 555 916 c
867 916 555 916 867 916 c
closepath } bind def
/s118 {
17 916 m
448 916 17 916 448 916 c
448 879 448 916 448 879 c
420 879 448 879 420 879 c
394 879 374.17 872.67 360.5 860 c
346.83 847.33 340 830.33 340 809 c
340 785.67 347 758 361 726 c
574 220 361 726 574 220 c
788 745 574 220 788 745 c
803.33 782.33 811 810.67 811 830 c
811 839.33 808.33 847 803 853 c
795.67 863 786.33 869.83 775 873.5 c
763.67 877.17 740.67 879 706 879 c
706 916 706 879 706 916 c
1005 916 706 916 1005 916 c
1005 879 1005 916 1005 879 c
970.33 876.33 946.33 869.33 933 858 c
909.67 838 888.67 804.67 870 758 c
545 -28 870 758 545 -28 c
504 -28 545 -28 504 -28 c
177 745 504 -28 177 745 c
162.33 781 148.33 806.83 135 822.5 c
121.67 838.17 104.67 851.33 84 862 c
72.67 868 50.33 873.67 17 879 c
17 916 17 879 17 916 c
closepath } bind def
/s119 {
13 916 m
397 916 13 916 397 916 c
397 879 397 916 397 879 c
361.67 876.33 338.5 870 327.5 860 c
316.5 850 311 835.67 311 817 c
311 796.33 316.67 771.33 328 742 c
524 215 328 742 524 215 c
721 644 524 215 721 644 c
669 779 721 644 669 779 c
653 819 632 846.67 606 862 c
591.33 871.33 564 877 524 879 c
524 916 524 879 524 916 c
960 916 524 916 960 916 c
960 879 960 916 960 879 c
912 877 878 868.33 858 853 c
844.67 842.33 838 825.33 838 802 c
838 788.67 840.67 775 846 761 c
1054 235 846 761 1054 235 c
1247 742 1054 235 1247 742 c
1260.33 778 1267 806.67 1267 828 c
1267 840.67 1260.5 852 1247.5 862 c
1234.5 872 1209 877.67 1171 879 c
1171 916 1171 879 1171 916 c
1460 916 1171 916 1460 916 c
1460 879 1460 916 1460 879 c
1402 870.33 1359.33 831 1332 761 c
1026 -28 1332 761 1026 -28 c
985 -28 1026 -28 985 -28 c
756 557 985 -28 756 557 c
489 -28 756 557 489 -28 c
452 -28 489 -28 452 -28 c
158 742 452 -28 158 742 c
138.67 790.67 119.67 823.5 101 840.5 c
82.33 857.5 53 870.33 13 879 c
13 916 13 879 13 916 c
closepath } bind def
/s121 {
12 916 m
439 916 12 916 439 916 c
439 879 439 916 439 879 c
418 879 439 879 418 879 c
388 879 365.5 872.5 350.5 859.5 c
335.5 846.5 328 830.33 328 811 c
328 785 339 749 361 703 c
584 241 361 703 584 241 c
789 747 584 241 789 747 c
800.33 774.33 806 801.33 806 828 c
806 840 803.67 849 799 855 c
793.67 862.33 785.33 868.17 774 872.5 c
762.67 876.83 742.67 879 714 879 c
714 916 714 879 714 916 c
1012 916 714 916 1012 916 c
1012 879 1012 916 1012 879 c
987.33 876.33 968.33 871 955 863 c
941.67 855 927 840 911 818 c
905 808.67 893.67 783 877 741 c
504 -173 877 741 504 -173 c
468 -261.67 420.83 -328.67 362.5 -374 c
304.17 -419.33 248 -442 194 -442 c
154.67 -442 122.33 -430.67 97 -408 c
71.67 -385.33 59 -359.33 59 -330 c
59 -302 68.17 -279.5 86.5 -262.5 c
104.83 -245.5 130 -237 162 -237 c
184 -237 214 -244.33 252 -259 c
278.67 -269 295.33 -274 302 -274 c
322 -274 343.83 -263.67 367.5 -243 c
391.17 -222.33 415 -182.33 439 -123 c
504 36 439 -123 504 36 c
175 727 504 36 175 727 c
165 747.67 149 773.33 127 804 c
110.33 827.33 96.67 843 86 851 c
70.67 861.67 46 871 12 879 c
12 916 12 879 12 916 c
closepath } bind def
end
/BuildGlyph {
 exch dup /Metrics get 2 index get 0 setcharwidth
/CharProcs get exch 2 copy known not{pop/.notdef}if get exec fill}bind def
/BuildChar {
1 index /Encoding get exch get
1 index /BuildGlyph get exec
} bind def
currentdict end /MC2_Times-New-Roman exch definefont pop
%%EndFont
/clipproc{clippath{[{/m cvx}{/l cvx}{/c cvx}{/cp cvx}pathforall}stopped
{cleartomark[pathbbox exch 3 i sub exch 2 i sub/rectpath cvx}if]np}bd
/iclmtx mtx cmtx def/iclpath clipproc xd/clinit{pathproc initclip np iclpath cl np exec}bd
/clmove{pathproc 3 1 roll clippath pathproc 2 i neg 2 i neg tr initclip np exec cl tr np exec}bd
/clrect[gs np iclpath{pathbbox}stopped{0 0 735.11 500.4 }if gr]def
/cloper{mtx cmtx iclmtx smtx exch exec smtx}bd
/cland{{exch cvx exec}cloper}bd
/clcopy{{exch clinit cvx exec}cloper}bd
/cldiff{{exch pathbbox 4 -1 roll clrect 0 get 2 copy gt{exch}if pop 4 1 roll
 3 -1 roll clrect 1 get 2 copy gt{exch}if pop 3 1 roll
 2 -1 roll clrect 2 get 2 copy lt{exch}if pop 2 1 roll
 1 -1 roll clrect 3 get 2 copy lt{exch}if pop 1 1 roll
 exch 3 i sub exch 2 i sub rectpath cvx exec}cloper}bd
/icl{{clinit}cloper}bd
0.371719 0.380354 sc
-85.21 167.84 tr

/initmtx mtx cmtx def
initmtx smtx
[1.0000 0.0000 0.0000 1.0000 0.0000 0.0000 ] concat
 [0.645635 -0 0 -0.631 0 1315.62] concat
gs
gs
pathproc 577 286 2196 1770 np rectpath
/eocl cland
np exec
800 1701 m
1086 1770 l
18 sw
0 0 1 rgb
1 sj
1 scap
st
1167 1785 m
1451 1830 l
st
1533 1840 m
1816 1871 l
st
1898 1878 m
2182 1899 l
st
2264 1904 m
2548 1919 l
st
760 1722 m
785 1707 l
785 1677 l
760 1662 l
734 1677 l
734 1707 l
cp
gs
eofi
gr
4 sw
st
1126 1809 m
1151 1794 l
1151 1764 l
1126 1749 l
1100 1764 l
1100 1794 l
cp
gs
eofi
gr
st
1492 1866 m
1517 1851 l
1517 1821 l
1492 1806 l
1466 1821 l
1466 1851 l
cp
gs
eofi
gr
st
1857 1905 m
1882 1890 l
1882 1860 l
1857 1845 l
1831 1860 l
1831 1890 l
cp
gs
eofi
gr
st
2223 1932 m
2248 1917 l
2248 1887 l
2223 1872 l
2197 1887 l
2197 1917 l
cp
gs
eofi
gr
st
2589 1951 m
2614 1936 l
2614 1906 l
2589 1891 l
2563 1906 l
2563 1936 l
cp
gs
eofi
gr
st
gr
gs
pathproc 577 286 2196 1770 np rectpath
/eocl cland
np exec
788 450 m
1098 784 l
18 sw
0.502 1 1 rgb
1 sj
1 scap
st
1160 837 m
1458 1046 l
st
1529 1087 m
1820 1226 l
st
1896 1257 m
2184 1355 l
st
2263 1377 m
2549 1442 l
st
760 389 m
766 410 l
789 410 l
771 423 l
778 445 l
760 431 l
741 445 l
748 423 l
730 410 l
753 410 l
cp
gs
eofi
gr
4 sw
st
1126 783 m
1132 804 l
1155 804 l
1137 817 l
1144 839 l
1126 825 l
1107 839 l
1114 817 l
1096 804 l
1119 804 l
cp
gs
eofi
gr
st
1492 1038 m
1498 1059 l
1521 1059 l
1503 1072 l
1510 1094 l
1492 1080 l
1473 1094 l
1480 1072 l
1462 1059 l
1485 1059 l
cp
gs
eofi
gr
st
1857 1213 m
1863 1234 l
1886 1234 l
1868 1247 l
1875 1269 l
1857 1255 l
1838 1269 l
1845 1247 l
1827 1234 l
1850 1234 l
cp
gs
eofi
gr
st
2223 1337 m
2229 1358 l
2252 1358 l
2234 1371 l
2241 1393 l
2223 1379 l
2204 1393 l
2211 1371 l
2193 1358 l
2216 1358 l
cp
gs
eofi
gr
st
2589 1420 m
2595 1441 l
2618 1441 l
2600 1454 l
2607 1476 l
2589 1462 l
2570 1476 l
2577 1454 l
2559 1441 l
2582 1441 l
cp
gs
eofi
gr
st
gr
gs
pathproc 577 286 2196 1770 np rectpath
/eocl cland
np exec
781 1812 m
1105 1272 l
18 sw
0.945 0.251 0.251 rgb
1 sj
1 scap
st
1156 1209 m
1462 913 l
st
1527 863 m
1822 676 l
st
1895 638 m
2185 514 l
st
2262 484 m
2550 383 l
st
736 1823 48 48 rectfill
2550 383 m
4 sw
736 1823 48 48 rectstroke
1102 1213 48 48 rectfill
1102 1213 48 48 rectstroke
1468 861 48 48 rectfill
1468 861 48 48 rectstroke
1833 630 48 48 rectfill
1833 630 48 48 rectstroke
2199 474 48 48 rectfill
2199 474 48 48 rectstroke
2565 345 48 48 rectfill
2565 345 48 48 rectstroke
gr
577 2055 m
2772 2055 l
7 sw
1 sj
2 scap
st
577 2055 m
577 2072 l
0 scap
st
943 2055 m
943 2072 l
st
1309 2055 m
1309 2072 l
st
1675 2055 m
1675 2072 l
st
2040 2055 m
2040 2072 l
st
2406 2055 m
2406 2072 l
st
2772 2055 m
2772 2072 l
st
760 2055 m
760 2089 l
st
1126 2055 m
1126 2089 l
st
1492 2055 m
1492 2089 l
st
1857 2055 m
1857 2089 l
st
2223 2055 m
2223 2089 l
st
2589 2055 m
2589 2089 l
st
577 2055 m
577 286 l
0 0 1 rgb
2 scap
st
577 1937 m
560 1937 l
0 scap
st
577 1701 m
560 1701 l
st
577 1465 m
560 1465 l
st
577 1229 m
560 1229 l
st
577 994 m
560 994 l
st
577 758 m
560 758 l
st
577 522 m
560 522 l
st
577 286 m
560 286 l
st
577 2055 m
543 2055 l
st
577 1819 m
543 1819 l
st
577 1583 m
543 1583 l
st
577 1347 m
543 1347 l
st
577 1112 m
543 1112 l
st
577 876 m
543 876 l
st
577 640 m
543 640 l
st
577 404 m
543 404 l
st
gs
gr
gs
gr
gs
1 -1 sc
0 0 0 rgb
/MC1_Times-New-Roman 108 self 688 -2195 m
(0%)[55 92 ] xs
1 -1 sc
gr
gs
gr
gs
gr
gs
1 -1 sc
0 0 0 rgb
/MC1_Times-New-Roman 108 self 1027 -2195 m
(20%)[55 55 92 ] xs
1 -1 sc
gr
gs
gr
gs
gr
gs
1 -1 sc
0 0 0 rgb
/MC1_Times-New-Roman 108 self 1393 -2195 m
(40%)[55 55 92 ] xs
1 -1 sc
gr
gs
gr
gs
gr
gs
1 -1 sc
0 0 0 rgb
/MC1_Times-New-Roman 108 self 1758 -2195 m
(60%)[55 55 92 ] xs
1 -1 sc
gr
gs
gr
gs
gr
gs
1 -1 sc
0 0 0 rgb
/MC1_Times-New-Roman 108 self 2124 -2195 m
(80%)[55 55 92 ] xs
1 -1 sc
gr
gs
gr
gs
gr
gs
1 -1 sc
0 0 0 rgb
/MC1_Times-New-Roman 108 self 2463 -2195 m
(100%)[55 55 55 92 ] xs
1 -1 sc
gr
gs
gr
gs
gr
gs
gs
1 -1 sc
493 -2052 tr
30 ro
/MC2_Times-New-Roman 108 self 0 0 m
(0)[55 ] xs
1 -1 sc
gr
gr
gs
gr
gs
gr
gs
gs
1 -1 sc
306 -1924 tr
30 ro
/MC2_Times-New-Roman 108 self 0 0 m
(10000)[55 55 55 55 55 ] xs
1 -1 sc
gr
gr
gs
gr
gs
gr
gs
gs
1 -1 sc
306 -1688 tr
30 ro
/MC2_Times-New-Roman 108 self 0 0 m
(20000)[55 55 55 55 55 ] xs
1 -1 sc
gr
gr
gs
gr
gs
gr
gs
gs
1 -1 sc
306 -1452 tr
30 ro
/MC2_Times-New-Roman 108 self 0 0 m
(30000)[55 55 55 55 55 ] xs
1 -1 sc
gr
gr
gs
gr
gs
gr
gs
gs
1 -1 sc
306 -1217 tr
30 ro
/MC2_Times-New-Roman 108 self 0 0 m
(40000)[55 55 55 55 55 ] xs
1 -1 sc
gr
gr
gs
gr
gs
gr
gs
gs
1 -1 sc
306 -981 tr
30 ro
/MC2_Times-New-Roman 108 self 0 0 m
(50000)[55 55 55 55 55 ] xs
1 -1 sc
gr
gr
gs
gr
gs
gr
gs
gs
1 -1 sc
306 -745 tr
30 ro
/MC2_Times-New-Roman 108 self 0 0 m
(60000)[55 55 55 55 55 ] xs
1 -1 sc
gr
gr
gs
gr
gs
gr
gs
gs
1 -1 sc
306 -509 tr
30 ro
/MC2_Times-New-Roman 108 self 0 0 m
(70000)[55 55 55 55 55 ] xs
1 -1 sc
gr
gr
gs
gr
gs
gr
gs
gr
gs
gr
gs
gr
gs
gr
gs
gr
gs
gr
gs
gr
gs
gr
gs
gr
gs
gr
gs
gr
gs
gr
gs
gr
gs
gr
gs
gr
gs
gr
gs
gr
gs
gr
gs
gr
gs
gr
gs
gr
gs
gr
gs
gr
gs
gr
gs
gr
gs
gr
gs
gr
gs
gr
gs
gr
gs
gr
gs
gr
gs
gr
gs
gr
gs
gr
gs
gr
1826 836 m
2633 836 l
2633 987 l
1826 987 l
cp
gs
1 1 1 rgb
eofi
gr
3 sw
0 0 0 rgb
0 sj
2 scap
st
gs
gs
gr
gs
gs
1840 911 m
1926 911 l
18 sw
0.945 0.251 0.251 rgb
1 sj
1 scap
st
2000 911 m
2086 911 l
st
gr
0.945 0.251 0.251 rgb
1939 887 48 48 rectfill
1826 987 m
4 sw
1 sj
1 scap
1939 887 48 48 rectstroke
gr
1 -1 sc
/MC1_Times-New-Roman 108 self 2086 -947 m
( Service Fee)[27 61 49 36 55 30 49 49 27 61 49 49 ] xs
1 -1 sc
gr
1272 1509 m
2656 1509 l
2656 1795 l
1272 1795 l
cp
gs
1 1 1 rgb
eofi
gr
st
gs
gs
gr
gs
gs
1287 1584 m
1373 1584 l
18 sw
0 0 1 rgb
1 sj
1 scap
st
1447 1584 m
1533 1584 l
st
gr
1410 1614 m
1435 1599 l
1435 1569 l
1410 1554 l
1384 1569 l
1384 1599 l
cp
gs
0 0 1 rgb
eofi
gr
4 sw
0 0 1 rgb
1 sj
1 scap
st
gr
1 -1 sc
/MC1_Times-New-Roman 108 self 1533 -1620 m
( Service Latency)[27 61 49 36 55 30 49 49 27 67 49 30 49 55 49 52 ] xs
1 -1 sc
gs
gr
gs
gs
1287 1719 m
1373 1719 l
18 sw
0.502 1 1 rgb
1 sj
1 scap
st
1447 1719 m
1533 1719 l
st
gr
1410 1688 m
1416 1709 l
1439 1709 l
1421 1722 l
1428 1744 l
1410 1730 l
1391 1744 l
1398 1722 l
1380 1709 l
1403 1709 l
cp
gs
0.502 1 1 rgb
eofi
gr
4 sw
0.502 1 1 rgb
1 sj
1 scap
st
gr
1 -1 sc
1533 -1755 m
( Bandwidth Consumption)[27 73 49 55 55 79 30 55 30 55 27 73 55 55 42 55 84 55 30 30 55 55 ] xs
1 -1 sc
gr
gs
1 -1 sc
/MC1_Times-New-Roman 108 self 1126 -2318 m
(Prompt Engineering Rate)[61 36 55 84 55 30 27 67 55 55 30 55 49 49 36 30 55 55 27 73 49 30 49 ] xs
1 -1 sc
gr
gs
gs
1 -1 sc
238 -2266 tr
90 ro
/MC2_Times-New-Roman 108 self 0 0 m
(Service Latency and Bandwidth Consumption)[ 61 49 36 55 30 49 49 27 67 49 30 49 55 49 55 27 49 55 55 27 73 49 55 55 79 30 55 30 55 27 73 55 55 
42 55 85 55 30 30 55 55 ] xs
1 -1 sc
gr
gr
577 286 m
2772 286 l
7 sw
1 sj
st
577 286 m
577 303 l
0 scap
st
943 286 m
943 303 l
st
1309 286 m
1309 303 l
st
1675 286 m
1675 303 l
st
2040 286 m
2040 303 l
st
2406 286 m
2406 303 l
st
2772 286 m
2772 303 l
st
760 286 m
760 320 l
st
1126 286 m
1126 320 l
st
1492 286 m
1492 320 l
st
1857 286 m
1857 320 l
st
2223 286 m
2223 320 l
st
2589 286 m
2589 320 l
st
2772 2055 m
2772 286 l
0.945 0.251 0.251 rgb
2 scap
st
2772 1951 m
2789 1951 l
0 scap
st
2772 1743 m
2789 1743 l
st
2772 1535 m
2789 1535 l
st
2772 1327 m
2789 1327 l
st
2772 1118 m
2789 1118 l
st
2772 910 m
2789 910 l
st
2772 702 m
2789 702 l
st
2772 494 m
2789 494 l
st
2772 286 m
2789 286 l
st
2772 2055 m
2806 2055 l
st
2772 1847 m
2806 1847 l
st
2772 1639 m
2806 1639 l
st
2772 1431 m
2806 1431 l
st
2772 1223 m
2806 1223 l
st
2772 1014 m
2806 1014 l
st
2772 806 m
2806 806 l
st
2772 598 m
2806 598 l
st
2772 390 m
2806 390 l
st
gs
gr
gs
gr
gs
1 -1 sc
/MC1_Times-New-Roman 108 self 2830 -2087 m
(7800)[55 55 55 55 ] xs
1 -1 sc
gr
gs
gr
gs
gr
gs
1 -1 sc
/MC1_Times-New-Roman 108 self 2830 -1879 m
(8000)[55 55 55 55 ] xs
1 -1 sc
gr
gs
gr
gs
gr
gs
1 -1 sc
/MC1_Times-New-Roman 108 self 2830 -1671 m
(8200)[55 55 55 55 ] xs
1 -1 sc
gr
gs
gr
gs
gr
gs
1 -1 sc
/MC1_Times-New-Roman 108 self 2830 -1463 m
(8400)[55 55 55 55 ] xs
1 -1 sc
gr
gs
gr
gs
gr
gs
1 -1 sc
/MC1_Times-New-Roman 108 self 2830 -1255 m
(8600)[55 55 55 55 ] xs
1 -1 sc
gr
gs
gr
gs
gr
gs
1 -1 sc
/MC1_Times-New-Roman 108 self 2830 -1046 m
(8800)[55 55 55 55 ] xs
1 -1 sc
gr
gs
gr
gs
gr
gs
1 -1 sc
/MC1_Times-New-Roman 108 self 2830 -838 m
(9000)[55 55 55 55 ] xs
1 -1 sc
gr
gs
gr
gs
gr
gs
1 -1 sc
/MC1_Times-New-Roman 108 self 2830 -630 m
(9200)[55 55 55 55 ] xs
1 -1 sc
gr
gs
gr
gs
gr
gs
1 -1 sc
/MC1_Times-New-Roman 108 self 2830 -422 m
(9400)[55 55 55 55 ] xs
1 -1 sc
gr
gs
gr
gs
gr
gs
gr
gs
gr
gs
gr
gs
gr
gs
gr
gs
gr
gs
gr
gs
gr
gs
gr
gs
gr
gs
gr
gs
gr
gs
gr
gs
gr
gs
gr
gs
gr
gs
gr
gs
gr
gs
gr
gs
gr
gs
gr
gs
gr
gs
gr
gs
gr
gs
gs
1 -1 sc
3161 -1437 tr
90 ro
0 0 0 rgb
/MC2_Times-New-Roman 108 self 0 0 m
( Service Fee)[27 61 49 36 55 30 49 49 27 61 49 49 ] xs
1 -1 sc
gr
gr
gr
gs
gr
Save0 restore end
showpage
%%EOF
