\relax 
\providecommand\babel@aux[2]{}
\@nameuse{bbl@beforestart}
\catcode `"\active 
\babel@aux{english}{}
\citation{devlin2018bert}
\citation{karpukhin2020dense}
\citation{xiong2020approximate}
\citation{qu2020rocketqa}
\citation{liu2022retromae}
\citation{nguyen2016ms}
\citation{louis2021statutory}
\citation{nguyen2016ms}
\citation{louis2021statutory}
\@writefile{lof}{\contentsline {figure}{\numberline {1}{\ignorespaces Minh họa tác vụ truy vấn chính sách thực hiện trên Tập dữ liệu Truy vấn Chính sách Tài chính Trung Quốc (CSPRD), bao gồm trên 700 đoạn giới thiệu đánh dấu cẩn thận bởi các chuyên gia có kinh nghiệm liên hệ với các điều lệ chính sách thu thập bởi Sàn chứng khoán Thượng Hải.}}{2}{}\protected@file@percent }
\newlabel{fig:intro}{{1}{2}{}{}{}}
\@writefile{toc}{\contentsline {section}{\numberline {1}Giới thiệu}{2}{}\protected@file@percent }
\newlabel{sec:intro}{{1}{2}{}{}{}}
\citation{daudert-etal-2018-leveraging}
\citation{chen2021finqa}
\citation{jorgensen-etal-2023-multifin}
\citation{daudert-ahmadi-2019-cofif}
\citation{handschke-etal-2018-corpus}
\citation{wilson-etal-2016-creation}
\@writefile{toc}{\contentsline {section}{\numberline {2}Công trình liên quan}{3}{}\protected@file@percent }
\@writefile{toc}{\contentsline {subsection}{\numberline {2.1}Các tập dữ liệu tài chính chuyên dụng}{3}{}\protected@file@percent }
\citation{robertson1995okapi}
\citation{karpukhin2020dense}
\citation{xiong2020approximate}
\citation{karpukhin2020dense}
\citation{xiong2020approximate}
\citation{qu2020rocketqa}
\citation{liu2022retromae}
\citation{qu2020rocketqa}
\citation{liu2022retromae}
\@writefile{lof}{\contentsline {figure}{\numberline {2}{\ignorespaces Tổng quan quá trình chú thích. Sau phân tích dữ liệu, các đoạn giới thiệu thu thập và điều khoản chính sách được đưa cho hệ thống lựa chọn pha trộn chuyên gia (MoE) bao gồm các mô hình không giám sát. Các điều khoản Top-20 cho mỗi đoạn giới thiệu được chọn là gợi ý cho quá trình chú thích con người.}}{4}{}\protected@file@percent }
\newlabel{fig:annotation}{{2}{4}{}{}{}}
\@writefile{toc}{\contentsline {subsection}{\numberline {2.2}Các mô hình truy vấn}{4}{}\protected@file@percent }
\citation{zhao2020TermTree}
\citation{simbert}
\@writefile{toc}{\contentsline {section}{\numberline {3}Tập dữ liệu Truy vấn Chính sách cho Thị trường Chứng khoán Trung Quốc}{5}{}\protected@file@percent }
\newlabel{sec:dataset}{{3}{5}{}{}{}}
\@writefile{toc}{\contentsline {subsection}{\numberline {3.1}Thu thập dữ liệu}{5}{}\protected@file@percent }
\@writefile{toc}{\contentsline {subsection}{\numberline {3.2}Xử lý dữ liệu}{5}{}\protected@file@percent }
\@writefile{toc}{\contentsline {subsection}{\numberline {3.3}Lựa chọn MoE không giám sát}{5}{}\protected@file@percent }
\@writefile{toc}{\contentsline {subsection}{\numberline {3.4}Chú thích chuyên gia}{6}{}\protected@file@percent }
\@writefile{toc}{\contentsline {subsection}{\numberline {3.5}Phát hành tập dữ liệu}{6}{}\protected@file@percent }
\@writefile{toc}{\contentsline {section}{\numberline {4}Các thí nghiệm}{6}{}\protected@file@percent }
\newlabel{sec:models}{{4}{6}{}{}{}}
\@writefile{toc}{\contentsline {subsection}{\numberline {4.1}Các mô hình}{6}{}\protected@file@percent }
\citation{robertson1995okapi}
\citation{devlin2018bert}
\citation{karpukhin2020dense}
\citation{liu2022retromae}
\citation{cui-etal-2020-revisiting}
\citation{cui-etal-2020-revisiting}
\citation{liu2022retromae}
\citation{cui-etal-2020-revisiting}
\citation{karpukhin2020dense}
\citation{liu2022retromae}
\citation{cui-etal-2020-revisiting}
\citation{karpukhin2020dense}
\citation{robertson1995okapi}
\citation{devlin2018bert}
\citation{cui-etal-2020-revisiting}
\citation{cui-etal-2020-revisiting}
\citation{zhang2021mengzi}
\citation{liu2022retromae}
\citation{text2vec}
\@writefile{toc}{\contentsline {subsection}{\numberline {4.2}Kết quả và phân tích}{7}{}\protected@file@percent }
\@writefile{lot}{\contentsline {table}{\numberline {1}{\ignorespaces Kiểm chuẩn truy vấn của một số phương pháp trên tập phát triển CSPRD. Chúng tôi cho huấn luyện trước RetroMAE \cite  {liu2022retromae} từ đầu trên $\sim $60GB tập văn tiếng Trung với BERT tiếng Trung \cite  {cui-etal-2020-revisiting} làm encoder. Các mô hình với $^\dagger $ được tinh chỉnh với DPR \cite  {karpukhin2020dense} làm khuôn mẫu.}}{8}{}\protected@file@percent }
\newlabel{tab:results}{{1}{8}{}{}{}}
\@writefile{toc}{\contentsline {section}{\numberline {5}Kết luận}{8}{}\protected@file@percent }
\bibstyle{IEEEbib}
\bibdata{refs}
\bibcite{devlin2018bert}{1}
\bibcite{karpukhin2020dense}{2}
\bibcite{xiong2020approximate}{3}
\bibcite{qu2020rocketqa}{4}
\bibcite{liu2022retromae}{5}
\bibcite{nguyen2016ms}{6}
\bibcite{louis2021statutory}{7}
\bibcite{daudert-etal-2018-leveraging}{8}
\bibcite{chen2021finqa}{9}
\bibcite{jorgensen-etal-2023-multifin}{10}
\bibcite{daudert-ahmadi-2019-cofif}{11}
\bibcite{handschke-etal-2018-corpus}{12}
\bibcite{wilson-etal-2016-creation}{13}
\bibcite{robertson1995okapi}{14}
\bibcite{zhao2020TermTree}{15}
\bibcite{simbert}{16}
\bibcite{cui-etal-2020-revisiting}{17}
\bibcite{zhang2021mengzi}{18}
\bibcite{text2vec}{19}
\@writefile{toc}{\contentsline {section}{\numberline {A}Nguồn dữ liệu}{10}{}\protected@file@percent }
\newlabel{sec:data_source}{{A}{10}{}{}{}}
\citation{devlin2018bert}
\citation{cui-etal-2020-revisiting}
\citation{cui-etal-2020-revisiting}
\citation{zhang2021mengzi}
\citation{liu2022retromae}
\citation{text2vec}
\@writefile{lot}{\contentsline {table}{\numberline {2}{\ignorespaces Các files nguồn từ website SSE STAR Market}}{11}{}\protected@file@percent }
\newlabel{tab:policy_source}{{2}{11}{}{}{}}
\@writefile{toc}{\contentsline {section}{\numberline {B}Các thống kê tập dữ liệu}{11}{}\protected@file@percent }
\newlabel{app:sta}{{B}{11}{}{}{}}
\@writefile{toc}{\contentsline {section}{\numberline {C}Dịch tập dữ liệu}{11}{}\protected@file@percent }
\newlabel{app:trans}{{C}{11}{}{}{}}
\@writefile{toc}{\contentsline {section}{\numberline {D}Cài đặt thực nghiệm}{11}{}\protected@file@percent }
\@writefile{lof}{\contentsline {figure}{\numberline {3}{\ignorespaces Phân phối các đoạn giới thiệu cặp đôi từng điều khoản chính sách.}}{12}{}\protected@file@percent }
\newlabel{fig:dataset5}{{3}{12}{}{}{}}
\@writefile{lof}{\contentsline {figure}{\numberline {4}{\ignorespaces Các thống kê mẫu trong tập huấn luyện và phát triển của CSPRD. Các mẫu được đánh dấu vào 7 nhóm, 6 giống hệt với các nhóm STAR Market, nhóm còn lại là \textit  {Chung}.}}{13}{}\protected@file@percent }
\newlabel{fig:dataset}{{4}{13}{}{}{}}
\@writefile{lof}{\contentsline {figure}{\numberline {5}{\ignorespaces Thống kê số các điều khoản chính sách liên quan với mỗi đoạn quảng cáo}}{13}{}\protected@file@percent }
\newlabel{fig:dataset2}{{5}{13}{}{}{}}
\@writefile{lof}{\contentsline {figure}{\numberline {6}{\ignorespaces Phân phối ghép giữa các đoạn quảng cáo và các tài liệu quy định Top20}}{14}{}\protected@file@percent }
\newlabel{fig:dataset3}{{6}{14}{}{}{}}
\@writefile{lof}{\contentsline {figure}{\numberline {7}{\ignorespaces Phân phối độ dài của đoạn quảng cáo và điều khoản chính sách}}{14}{}\protected@file@percent }
\newlabel{fig:dataset4}{{7}{14}{}{}{}}
\gdef \@abspage@last{14}
