%!PS-Adobe-3.0 EPSF-3.0
%%BoundingBox: 0 0 701 470
%%LanguageLevel: 2
%%Creator: OriginLab Corporation
%%Title: (\\Mac\Home\Desktop\OriginLab\User Files\figure1-prompt1.eps)
%%CreationDate: Sun Aug 27 09:02:46 2023
%%EndComments

/OriginLab::PSL1 128 dict dup begin def
/Save0 save def
%%BeginResource: procset OriginLab::PSL1
/wd{1 index where{pop pop pop}{bind def}ifelse}bind def
/setcmykcolor{1 sub 4 1 roll 3{3 index add neg dup 0 lt{pop 0}if 3 1 roll}repeat setrgbcolor pop}wd
/selectfont{dup type/arraytype eq{exch findfont exch makefont setfont}{exch findfont exch scalefont setfont}ifelse}wd
/xshow{1 index length 0 le{}{currentpoint exch 3 index length 1 sub 0 exch 1 exch{dup 5 index exch 1 getinterval show 3 index exch get add 2 copy exch moveto}for pop pop}ifelse pop pop}wd
/glyphshowEmulation{matrix currentmatrix exch currentfont dup/FontMatrix get concat currentpoint translate
 dup/Metrics get 2 index get 0 4 2 roll gsave/CharProcs get exch 2 copy known not{pop/.notdef}if
 get exec fill grestore moveto setmatrix} bind def
/grayimage/image load def/rgbtogray{cvx exec dup length 3 idiv 1 sub 0 exch 1 exch{dup 3 mul dup 3 index exch get 255 div .3 mul exch
 1 add dup 4 index exch get 255 div .59 mul exch 1 add 4 index exch get 255 div .11 mul add add
 255 mul dup 255 gt{255}if round cvi 2 index 3 1 roll put}for dup length 3 idiv 0 exch getinterval}bind def
/colorimage{0 setgray pop pop cvlit/rgbtogray cvx 2 packedarray cvx grayimage}wd
/IsWord2010 { false } bind def
currentsystemparams /PrinterName known { /IsWord2010 { false currentsystemparams /PrinterName get (Access Softek) eq } bind def } if
IsWord2010 { /glyphshow { pop } bind def}{/glyphshow{glyphshowEmulation}wd }ifelse
/bd{bind def}bind def/ld{load def}bd/ed{exch def}bd/xd{cvx def}bd
/np/newpath ld/a/arc ld/m/moveto ld/l/lineto ld/c/curveto ld/rm/rmoveto ld/rl/rlineto ld/rc/rcurveto ld/cp/closepath ld/cpt/currentpoint ld
/tr/translate ld/sc/scale ld/ro/rotate ld/t/transform ld/it/itransform ld/dt/dtransform ld/idt/idtransform ld
/mtx/matrix ld/cmtx/currentmatrix ld/dmtx/defaultmatrix ld/smtx/setmatrix ld/catmtx/concatmatrix ld
/sw/setlinewidth ld/scap/setlinecap ld/sj/setlinejoin ld/sm/setmiterlimit ld/sd/setdash ld/rgb/setrgbcolor ld/crgb/currentrgbcolor ld/cmyk/setcmykcolor ld/gs/gsave ld/gr/grestore ld
/st/stroke ld/fi/fill ld/eofi/eofill ld/cl/clip ld/eocl/eoclip ld
/df/definefont ld/ff/findfont ld/sf/setfont ld/scf/scalefont ld/self/selectfont ld/cf/currentfont ld
/s/show ld/xs/xshow ld/gls/glyphshowEmulation ld/xgls{cpt 3 1 roll add exch 3 -1 roll gls m}bd
/xglsh{cpt 3 1 roll add exch 3 -1 roll glyphshow m}bd
/cd/currentdict ld/i/index ld
/DrawBox{4 2 roll m 1 index 0 rl 0 exch rl neg 0 rl cp}bd
/plus.re { 6 { 3 index } repeat moveto 0 exch rlineto 0 rlineto pop pop neg 0 exch rlineto pop lineto closepath } def
/DrawBcc{4 2 roll m 2 copy 0 lt exch 0 lt xor{dup 0 exch rl exch 0 rl neg 0 exch rl}{exch dup 0 rl exch 0 exch rl neg 0 rl}ifelse cp}bd
/rectline{dup type/arraytype eq{dup length 0 exch 4 exch 4 sub{0 1 3{3 copy add get 4 1 roll pop}for pop 5 1 roll DrawBox}for pop}{DrawBox}ifelse}bd
/rectpath{dup type/arraytype eq{dup length 0 exch 4 exch 4 sub{0 1 3{3 copy add get 4 1 roll pop}for pop 5 1 roll DrawBcc}for pop}{DrawBcc}ifelse}bd
/pathproc{[{/m cvx}{/l cvx}{/c cvx}{/cp cvx}pathforall]cvx}bd
/L1img/image ld/L1idx[{0}
 {dup 7 and 3 1 roll -3 bitshift get exch 7 sub 1 mul bitshift  1 and}bind 1 index dup
 {dup 1 and 3 1 roll -1 bitshift get exch 1 sub 4 mul bitshift 15 and}bind 1 index dup dup
 {get}bind]def
/image{dup type/dicttype eq {dup/ImgCS get 0 get/Indexed eq}{false}ifelse
 {begin Width Height 8 ImageMatrix {rgb_string rgb_lookup
 cd/DataSource get dup type/filetype eq
 {mystring readstring pop}{exec}ifelse
 dup length 0 ne
 {L1idx BitsPerComponent get 0 1 Width 1 sub
 {3 copy exch exec exch 3 mul exch
 3 mul dup 5 index exch get exch 1 add dup 6 index exch get exch 1 add 6 index exch get
 7 index exch 4 index 2 add exch put 6 index exch 3 index 1 add exch put 5 index exch 2 index exch put pop
 }for pop pop pop }{pop pop pop ()}ifelse }false 3 colorimage end} {dup type/dicttype eq
 {{dup mark exch L1img pop pop}stopped{cleartomark begin Width Height BitsPerComponent ImageMatrix
 {cd/DataSource get dup type/filetype eq {mystring readstring pop}{exec}ifelse
 }false 3 colorimage end} if}{L1img}ifelse}ifelse
 }bd
/L1imgmask/imagemask ld/imagemask{dup type/dicttype eq
 {{dup mark exch L1imgmask pop pop}stopped {cleartomark begin Width Height polarityflag ImageMatrix
 {cd/DataSource get dup type/filetype eq {mystring readstring pop}{exec}ifelse
 }L1imgmask end}if}{L1imgmask}ifelse
 }bd
% Gradient function
/GradientStep 1 150 div def
/GradientStartRGB { /R1 exch def /G1 exch def /B1 exch def } def
/GradientEndRGB { /R2 exch def /G2 exch def /B2 exch def
/GradientSteps GradientLength GradientStep div def
/GradientRStep R2 R1 sub GradientSteps div def
/GradientGStep G2 G1 sub GradientSteps div def
/GradientBStep B2 B1 sub GradientSteps div def
} def
/GradientStepRGB { /R1 R1 GradientRStep add def
/G1 G1 GradientGStep add def
/B1 B1 GradientBStep add def
R1 G1 B1 setrgbcolor
} def
%%EndResource
/rectclip{np rectpath clip np}wd
/rectfill{gs np rectpath fi gr}wd
/rectstroke{gs np dup type/arraytype eq{dup length 6 eq}{false}ifelse{1 index type/arraytype eq{exch}{5 1 roll}ifelse rectline concat st}{rectline st}ifelse gr}wd
%%BeginResource: procset OriginLab::Image
/OriginLab::Image 32 dict dup begin
/BinProc{[currentfile mystring /readstring cvx /pop cvx] cvx bind}bd
/HexProc{[currentfile mystring /readhexstring cvx /pop cvx] cvx bind}bd
/Ascii85Proc{currentfile /ASCII85Decode filter}bd
/LZWA85{currentfile /ASCII85Decode filter /LZWDecode filter}bd
/ImgProcArray[/BinProc /HexProc /Ascii85Proc /LZWA85]def
/ImgDict{/ImgDict 16 dict def ImgDict dup begin /ImageType 1 def /MultipleDataSource false def end}bd
/L2Dec{{[1 0]}{[0 1]}ifelse}bd
/BegImg{ /Img_sv save def
 /ImgDir ed ImgProcArray exch get /ImgProc exch ld
 dup /polarityflag ed L2Dec /polarity ed /smoothflag ed
 tr /dx 2 index def /dy 1 index abs def sc
 string /mystring ed /bpc ed /ih ed /iw ed
 }bd
/EndImg {Img_sv restore}bd
/DoXImg{ /rgb_lookup ed /hival ed ImgDict dup begin
 [/Indexed /DeviceRGB hival rgb_lookup] /L1img where{pop/ImgCS ed}{setcolorspace}ifelse
 /rgb_string iw 3 mul string def
 /Width iw def
 /Height ih def
 /Decode [0 1 bpc{2 mul}repeat 1 sub] def
 /ImageMatrix
  ImgDir 0 eq{[iw 0 0 ih 0 0]}if
  ImgDir 1 eq{[iw neg 0 0 ih iw 0]}if
  ImgDir 2 eq{[iw 0 0 ih neg 0 ih]}if
  ImgDir 3 eq{[iw neg 0 0 ih neg iw ih]}if
  def
 /DataSource ImgProc def
 /BitsPerComponent bpc def
 /Interpolate smoothflag def
 end image}bd
/DoImg{ ImgDict dup begin
 [/DeviceRGB] /L1img where{pop/ImgCS ed}{setcolorspace}ifelse
 /rgb_string iw 3 mul string def
 /Width iw def
 /Height ih def
 /Decode [0 1 0 1 0 1] def
 /ImageMatrix
  ImgDir 0 eq{[iw 0 0 ih 0 0]}if
  ImgDir 1 eq{[iw neg 0 0 ih iw 0]}if
  ImgDir 2 eq{[iw 0 0 ih neg 0 ih]}if
  ImgDir 3 eq{[iw neg 0 0 ih neg iw ih]}if
  def
 /DataSource ImgProc def
 /BitsPerComponent 8 def
 /Interpolate smoothflag def
 end image}bd
end def
%%EndResource
/initmtx mtx cmtx def
%%BeginFont: /MC1_Times-New-Roman
12 dict begin
/FontInfo 8 dict dup begin
/ItalicAngle 0 def
/UnderlinePosition -223.00 def
/UnderlineThickness 100.00 def
/StrikeoutPosition 530.00 def
/StrikeoutThickness 102.00 def
/isFixedPitch false def
end readonly def
/FontName /MC1_Times-New-Roman def
/FontType 3 def
/FontMatrix [1 2048 div 0 0 1 2048 div 0 0] def
/FontBBox [-1164 -628 4190 2129] def
/Encoding 256 array def 0 1 255{Encoding exch/.notdef put}for
Encoding 32/s32 put
Encoding 37/s37 put
Encoding 40/s40 put
Encoding 41/s41 put
Encoding 46/s46 put
Encoding 48/s48 put
Encoding 49/s49 put
Encoding 50/s50 put
Encoding 52/s52 put
Encoding 53/s53 put
Encoding 54/s54 put
Encoding 56/s56 put
Encoding 65/s65 put
Encoding 68/s68 put
Encoding 69/s69 put
Encoding 71/s71 put
Encoding 73/s73 put
Encoding 77/s77 put
Encoding 78/s78 put
Encoding 80/s80 put
Encoding 81/s81 put
Encoding 82/s82 put
Encoding 97/s97 put
Encoding 98/s98 put
Encoding 101/s101 put
Encoding 102/s102 put
Encoding 103/s103 put
Encoding 104/s104 put
Encoding 105/s105 put
Encoding 109/s109 put
Encoding 110/s110 put
Encoding 111/s111 put
Encoding 112/s112 put
Encoding 114/s114 put
Encoding 115/s115 put
Encoding 116/s116 put
Encoding 121/s121 put
/BoundingBoxes 38 dict def
BoundingBoxes begin
/s32 [0 -443 512 1825] def
/s37 [0 -443 1706 1825] def
/s40 [0 -443 682 1825] def
/s41 [0 -443 682 1825] def
/s46 [0 -443 512 1825] def
/s48 [0 -443 1024 1825] def
/s49 [0 -443 1024 1825] def
/s50 [0 -443 1024 1825] def
/s52 [0 -443 1024 1825] def
/s53 [0 -443 1024 1825] def
/s54 [0 -443 1024 1825] def
/s56 [0 -443 1024 1825] def
/s65 [0 -443 1479 1825] def
/s68 [0 -443 1479 1825] def
/s69 [0 -443 1251 1825] def
/s71 [0 -443 1479 1825] def
/s73 [0 -443 682 1825] def
/s77 [0 -443 1821 1825] def
/s78 [-27 -443 1479 1825] def
/s80 [0 -443 1139 1825] def
/s81 [0 -443 1479 1825] def
/s82 [0 -443 1366 1825] def
/s97 [0 -443 909 1825] def
/s98 [-5 -443 1024 1825] def
/s101 [0 -443 909 1825] def
/s102 [0 -443 682 1825] def
/s103 [0 -443 1024 1825] def
/s104 [0 -443 1024 1825] def
/s105 [0 -443 569 1825] def
/s109 [0 -443 1593 1825] def
/s110 [0 -443 1024 1825] def
/s111 [0 -443 1024 1825] def
/s112 [-7 -443 1024 1825] def
/s114 [0 -443 682 1825] def
/s115 [0 -443 797 1825] def
/s116 [0 -443 569 1825] def
/s121 [0 -443 1024 1825] def
end
/Metrics 38 dict def
 Metrics begin
/s32 512 def
/s37 1706 def
/s40 682 def
/s41 682 def
/s46 512 def
/s48 1024 def
/s49 1024 def
/s50 1024 def
/s52 1024 def
/s53 1024 def
/s54 1024 def
/s56 1024 def
/s65 1479 def
/s68 1479 def
/s69 1251 def
/s71 1479 def
/s73 682 def
/s77 1821 def
/s78 1479 def
/s80 1139 def
/s81 1479 def
/s82 1366 def
/s97 909 def
/s98 1024 def
/s101 909 def
/s102 682 def
/s103 1024 def
/s104 1024 def
/s105 569 def
/s109 1593 def
/s110 1024 def
/s111 1024 def
/s112 1024 def
/s114 682 def
/s115 797 def
/s116 569 def
/s121 1024 def
end
/CharProcs 38 dict def
CharProcs begin
/.notdef {} def
/s37 {
1392 1387 m
404 -56 1392 1387 404 -56 c
315 -56 404 -56 315 -56 c
1303 1387 315 -56 1303 1387 c
1392 1387 1303 1387 1392 1387 c
closepath 364 1387 m
454 1387 523.83 1349.67 573.5 1275 c
623.17 1200.33 648 1114.67 648 1018 c
648 902 620 812.33 564 749 c
508 685.67 440.67 654 362 654 c
309.33 654 261 668.5 217 697.5 c
173 726.5 137.83 769.67 111.5 827 c
85.17 884.33 72 948 72 1018 c
72 1088 85.33 1152.5 112 1211.5 c
138.67 1270.5 175.17 1314.5 221.5 1343.5 c
267.83 1372.5 315.33 1387 364 1387 c
closepath 361 1331 m
327 1331 296.83 1311 270.5 1271 c
244.17 1231 231 1147 231 1019 c
231 926.33 238.33 855.67 253 807 c
264.33 770.33 282 742 306 722 c
320 710 337.33 704 358 704 c
390 704 417.33 721.33 440 756 c
473.33 807.33 490 893 490 1013 c
490 1139.67 473.67 1228.67 441 1280 c
419.67 1314 393 1331 361 1331 c
closepath 1346 673 m
1393.33 673 1440.5 658 1487.5 628 c
1534.5 598 1570.83 554.33 1596.5 497 c
1622.17 439.67 1635 376.67 1635 308 c
1635 190 1606.67 99.83 1550 37.5 c
1493.33 -24.83 1426.33 -56 1349 -56 c
1300.33 -56 1253.17 -41 1207.5 -11 c
1161.83 19 1125.83 61.83 1099.5 117.5 c
1073.17 173.17 1060 236.67 1060 308 c
1060 378 1073.17 442 1099.5 500 c
1125.83 558 1161.83 601.33 1207.5 630 c
1253.17 658.67 1299.33 673 1346 673 c
closepath 1347 620 m
1315 620 1287.33 602 1264 566 c
1234 519.33 1219 431 1219 301 c
1219 181.67 1234.33 98.33 1265 51 c
1287.67 17 1315 0 1347 0 c
1377.67 0 1405 18.33 1429 55 c
1461 103.67 1477 187.33 1477 306 c
1477 431.33 1461 519 1429 569 c
1407 603 1379.67 620 1347 620 c
closepath } bind def
/s40 {
636 -401 m
636 -438 636 -401 636 -438 c
535.33 -387.33 451.33 -328 384 -260 c
288 -163.33 214 -49.33 162 82 c
110 213.33 84 349.67 84 491 c
84 697.67 135 886.17 237 1056.5 c
339 1226.83 472 1348.67 636 1422 c
636 1380 636 1422 636 1380 c
554 1334.67 486.67 1272.67 434 1194 c
381.33 1115.33 342 1015.67 316 895 c
290 774.33 277 648.33 277 517 c
277 374.33 288 244.67 310 128 c
327.33 36 348.33 -37.83 373 -93.5 c
397.67 -149.17 430.83 -202.67 472.5 -254 c
514.17 -305.33 568.67 -354.33 636 -401 c
closepath } bind def
/s41 {
46 1380 m
46 1422 46 1380 46 1422 c
147.33 1372 231.67 1313 299 1245 c
394.33 1147.67 468 1033.5 520 902.5 c
572 771.5 598 635 598 493 c
598 286.33 547.17 97.83 445.5 -72.5 c
343.83 -242.83 210.67 -364.67 46 -438 c
46 -401 46 -438 46 -401 c
128 -355 195.5 -292.83 248.5 -214.5 c
301.5 -136.17 340.83 -36.5 366.5 84.5 c
392.17 205.5 405 331.67 405 463 c
405 605 394 734.67 372 852 c
355.33 944 334.5 1017.67 309.5 1073 c
284.5 1128.33 251.33 1181.67 210 1233 c
168.67 1284.33 114 1333.33 46 1380 c
closepath } bind def
/s46 {
256 194 m
287.33 194 313.67 183.17 335 161.5 c
356.33 139.83 367 113.67 367 83 c
367 52.33 356.17 26.17 334.5 4.5 c
312.83 -17.17 286.67 -28 256 -28 c
225.33 -28 199.17 -17.17 177.5 4.5 c
155.83 26.17 145 52.33 145 83 c
145 114.33 155.83 140.67 177.5 162 c
199.17 183.33 225.33 194 256 194 c
closepath } bind def
/s48 {
74 670 m
74 824.67 97.33 957.83 144 1069.5 c
190.67 1181.17 252.67 1264.33 330 1319 c
390 1362.33 452 1384 516 1384 c
620 1384 713.33 1331 796 1225 c
899.33 1093.67 951 915.67 951 691 c
951 533.67 928.33 400 883 290 c
837.67 180 779.83 100.17 709.5 50.5 c
639.17 0.83 571.33 -24 506 -24 c
376.67 -24 269 52.33 183 205 c
110.33 333.67 74 488.67 74 670 c
closepath 270 645 m
270 458.33 293 306 339 188 c
377 88.67 433.67 39 509 39 c
545 39 582.33 55.17 621 87.5 c
659.67 119.83 689 174 709 250 c
739.67 364.67 755 526.33 755 735 c
755 889.67 739 1018.67 707 1122 c
683 1198.67 652 1253 614 1285 c
586.67 1307 553.67 1318 515 1318 c
469.67 1318 429.33 1297.67 394 1257 c
346 1201.67 313.33 1114.67 296 996 c
278.67 877.33 270 760.33 270 645 c
closepath } bind def
/s49 {
240 1223 m
570 1384 240 1223 570 1384 c
603 1384 570 1384 603 1384 c
603 239 603 1384 603 239 c
603 163 606.17 115.67 612.5 97 c
618.83 78.33 632 64 652 54 c
672 44 712.67 38.33 774 37 c
774 0 774 37 774 0 c
264 0 774 0 264 0 c
264 37 264 0 264 37 c
328 38.33 369.33 43.83 388 53.5 c
406.67 63.17 419.67 76.17 427 92.5 c
434.33 108.83 438 157.67 438 239 c
438 971 438 239 438 971 c
438 1069.67 434.67 1133 428 1161 c
423.33 1182.33 414.83 1198 402.5 1208 c
390.17 1218 375.33 1223 358 1223 c
333.33 1223 299 1212.67 255 1192 c
240 1223 255 1192 240 1223 c
closepath } bind def
/s50 {
939 261 m
844 0 939 261 844 0 c
44 0 844 0 44 0 c
44 37 44 0 44 37 c
279.33 251.67 445 427 541 563 c
637 699 685 823.33 685 936 c
685 1022 658.67 1092.67 606 1148 c
553.33 1203.33 490.33 1231 417 1231 c
350.33 1231 290.5 1211.5 237.5 1172.5 c
184.5 1133.5 145.33 1076.33 120 1001 c
83 1001 120 1001 83 1001 c
99.67 1124.33 142.5 1219 211.5 1285 c
280.5 1351 366.67 1384 470 1384 c
580 1384 671.83 1348.67 745.5 1278 c
819.17 1207.33 856 1124 856 1028 c
856 959.33 840 890.67 808 822 c
758.67 714 678.67 599.67 568 479 c
402 297.67 298.33 188.33 257 151 c
611 151 257 151 611 151 c
683 151 733.5 153.67 762.5 159 c
791.5 164.33 817.67 175.17 841 191.5 c
864.33 207.83 884.67 231 902 261 c
939 261 902 261 939 261 c
closepath } bind def
/s52 {
953 500 m
953 358 953 500 953 358 c
771 358 953 358 771 358 c
771 0 771 358 771 0 c
606 0 771 0 606 0 c
606 358 606 0 606 358 c
32 358 606 358 32 358 c
32 486 32 358 32 486 c
661 1384 32 486 661 1384 c
771 1384 661 1384 771 1384 c
771 500 771 1384 771 500 c
953 500 771 500 953 500 c
closepath 606 500 m
606 1173 606 500 606 1173 c
130 500 606 1173 130 500 c
606 500 130 500 606 500 c
closepath } bind def
/s53 {
889 1356 m
811 1186 889 1356 811 1186 c
403 1186 811 1186 403 1186 c
314 1004 403 1186 314 1004 c
490.67 978 630.67 912.33 734 807 c
822.67 716.33 867 609.67 867 487 c
867 415.67 852.5 349.67 823.5 289 c
794.5 228.33 758 176.67 714 134 c
670 91.33 621 57 567 31 c
490.33 -5.67 411.67 -24 331 -24 c
249.67 -24 190.5 -10.17 153.5 17.5 c
116.5 45.17 98 75.67 98 109 c
98 127.67 105.67 144.17 121 158.5 c
136.33 172.83 155.67 180 179 180 c
196.33 180 211.5 177.33 224.5 172 c
237.5 166.67 259.67 153 291 131 c
341 96.33 391.67 79 443 79 c
521 79 589.5 108.5 648.5 167.5 c
707.5 226.5 737 298.33 737 383 c
737 465 710.67 541.5 658 612.5 c
605.33 683.5 532.67 738.33 440 777 c
367.33 807 268.33 824.33 143 829 c
403 1356 143 829 403 1356 c
889 1356 403 1356 889 1356 c
closepath } bind def
/s54 {
918 1384 m
918 1347 918 1384 918 1347 c
830 1338.33 758.17 1320.83 702.5 1294.5 c
646.83 1268.17 591.83 1228 537.5 1174 c
483.17 1120 438.17 1059.83 402.5 993.5 c
366.83 927.17 337 848.33 313 757 c
409 823 505.33 856 602 856 c
694.67 856 775 818.67 843 744 c
911 669.33 945 573.33 945 456 c
945 342.67 910.67 239.33 842 146 c
759.33 32.67 650 -24 514 -24 c
421.33 -24 342.67 6.67 278 68 c
151.33 187.33 88 342 88 532 c
88 653.33 112.33 768.67 161 878 c
209.67 987.33 279.17 1084.33 369.5 1169 c
459.83 1253.67 546.33 1310.67 629 1340 c
711.67 1369.33 788.67 1384 860 1384 c
918 1384 860 1384 918 1384 c
closepath 296 684 m
284 594 278 521.33 278 466 c
278 402 289.83 332.5 313.5 257.5 c
337.17 182.5 372.33 123 419 79 c
453 47.67 494.33 32 543 32 c
601 32 652.83 59.33 698.5 114 c
744.17 168.67 767 246.67 767 348 c
767 462 744.33 560.67 699 644 c
653.67 727.33 589.33 769 506 769 c
480.67 769 453.5 763.67 424.5 753 c
395.5 742.33 352.67 719.33 296 684 c
closepath } bind def
/s56 {
393 683 m
285.67 771 216.5 841.67 185.5 895 c
154.5 948.33 139 1003.67 139 1061 c
139 1149 173 1224.83 241 1288.5 c
309 1352.17 399.33 1384 512 1384 c
621.33 1384 709.33 1354.33 776 1295 c
842.67 1235.67 876 1168 876 1092 c
876 1041.33 858 989.67 822 937 c
786 884.33 711 822.33 597 751 c
714.33 660.33 792 589 830 537 c
880.67 469 906 397.33 906 322 c
906 226.67 869.67 145.17 797 77.5 c
724.33 9.83 629 -24 511 -24 c
382.33 -24 282 16.33 210 97 c
152.67 161.67 124 232.33 124 309 c
124 369 144.17 428.5 184.5 487.5 c
224.83 546.5 294.33 611.67 393 683 c
closepath 550 790 m
630 862 680.67 918.83 702 960.5 c
723.33 1002.17 734 1049.33 734 1102 c
734 1172 714.33 1226.83 675 1266.5 c
635.67 1306.17 582 1326 514 1326 c
446 1326 390.67 1306.33 348 1267 c
305.33 1227.67 284 1181.67 284 1129 c
284 1094.33 292.83 1059.67 310.5 1025 c
328.17 990.33 353.33 957.33 386 926 c
550 790 386 926 550 790 c
closepath 440 645 m
384.67 598.33 343.67 547.5 317 492.5 c
290.33 437.5 277 378 277 314 c
277 228 300.5 159.17 347.5 107.5 c
394.5 55.83 454.33 30 527 30 c
599 30 656.67 50.33 700 91 c
743.33 131.67 765 181 765 239 c
765 287 752.33 330 727 368 c
679.67 438.67 584 531 440 645 c
closepath } bind def
/s65 {
937 454 m
412 454 937 454 412 454 c
320 240 412 454 320 240 c
297.33 187.33 286 148 286 122 c
286 101.33 295.83 83.17 315.5 67.5 c
335.17 51.83 377.67 41.67 443 37 c
443 0 443 37 443 0 c
16 0 443 0 16 0 c
16 37 16 0 16 37 c
72.67 47 109.33 60 126 76 c
160 108 197.67 173 239 271 c
716 1387 239 271 716 1387 c
751 1387 716 1387 751 1387 c
1223 259 751 1387 1223 259 c
1261 168.33 1295.5 109.5 1326.5 82.5 c
1357.5 55.5 1400.67 40.33 1456 37 c
1456 0 1456 37 1456 0 c
921 0 1456 0 921 0 c
921 37 921 0 921 37 c
975 39.67 1011.5 48.67 1030.5 64 c
1049.5 79.33 1059 98 1059 120 c
1059 149.33 1045.67 195.67 1019 259 c
937 454 1019 259 937 454 c
closepath 909 528 m
679 1076 909 528 679 1076 c
443 528 679 1076 443 528 c
909 528 443 528 909 528 c
closepath } bind def
/s68 {
35 0 m
35 37 35 0 35 37 c
86 37 35 37 86 37 c
143.33 37 184 55.33 208 92 c
222.67 114 230 163.33 230 240 c
230 1116 230 240 230 1116 c
230 1200.67 220.67 1253.67 202 1275 c
176 1304.33 137.33 1319 86 1319 c
35 1319 86 1319 35 1319 c
35 1356 35 1319 35 1356 c
587 1356 35 1356 587 1356 c
789.67 1356 943.83 1333 1049.5 1287 c
1155.17 1241 1240.17 1164.33 1304.5 1057 c
1368.83 949.67 1401 825.67 1401 685 c
1401 496.33 1343.67 338.67 1229 212 c
1100.33 70.67 904.33 0 641 0 c
35 0 641 0 35 0 c
closepath 422 98 m
506.67 79.33 577.67 70 635 70 c
789.67 70 918 124.33 1020 233 c
1122 341.67 1173 489 1173 675 c
1173 862.33 1122 1010 1020 1118 c
918 1226 787 1280 627 1280 c
567 1280 498.67 1270.33 422 1251 c
422 98 422 1251 422 98 c
closepath } bind def
/s69 {
428 1282 m
428 746 428 1282 428 746 c
726 746 428 746 726 746 c
803.33 746 855 757.67 881 781 c
915.67 811.67 935 865.67 939 943 c
976 943 939 943 976 943 c
976 471 976 943 976 471 c
939 471 976 471 939 471 c
929.67 537 920.33 579.33 911 598 c
899 621.33 879.33 639.67 852 653 c
824.67 666.33 782.67 673 726 673 c
428 673 726 673 428 673 c
428 226 428 673 428 226 c
428 166 430.67 129.5 436 116.5 c
441.33 103.5 450.67 93.17 464 85.5 c
477.33 77.83 502.67 74 540 74 c
770 74 540 74 770 74 c
846.67 74 902.33 79.33 937 90 c
971.67 100.67 1005 121.67 1037 153 c
1078.33 194.33 1120.67 256.67 1164 340 c
1204 340 1164 340 1204 340 c
1087 0 1204 340 1087 0 c
42 0 1087 0 42 0 c
42 37 42 0 42 37 c
90 37 42 37 90 37 c
122 37 152.33 44.67 181 60 c
202.33 70.67 216.83 86.67 224.5 108 c
232.17 129.33 236 173 236 239 c
236 1120 236 239 236 1120 c
236 1206 227.33 1259 210 1279 c
186 1305.67 146 1319 90 1319 c
42 1319 90 1319 42 1319 c
42 1356 42 1319 42 1356 c
1087 1356 42 1356 1087 1356 c
1102 1059 1087 1356 1102 1059 c
1063 1059 1102 1059 1063 1059 c
1049 1130.33 1033.5 1179.33 1016.5 1206 c
999.5 1232.67 974.33 1253 941 1267 c
914.33 1277 867.33 1282 800 1282 c
428 1282 800 1282 428 1282 c
closepath } bind def
/s71 {
1257 1387 m
1292 959 1257 1387 1292 959 c
1257 959 1292 959 1257 959 c
1221.67 1065.67 1176 1146 1120 1200 c
1039.33 1278 935.67 1317 809 1317 c
636.33 1317 505 1248.67 415 1112 c
339.67 996.67 302 859.33 302 700 c
302 570.67 327 452.67 377 346 c
427 239.33 492.5 161.17 573.5 111.5 c
654.5 61.83 737.67 37 823 37 c
873 37 921.33 43.33 968 56 c
1014.67 68.67 1059.67 87.33 1103 112 c
1103 504 1103 112 1103 504 c
1103 572 1097.83 616.5 1087.5 637.5 c
1077.17 658.5 1061.17 674.5 1039.5 685.5 c
1017.83 696.5 979.67 702 925 702 c
925 740 925 702 925 740 c
1450 740 925 740 1450 740 c
1450 702 1450 740 1450 702 c
1425 702 1450 702 1425 702 c
1373 702 1337.33 684.67 1318 650 c
1304.67 625.33 1298 576.67 1298 504 c
1298 89 1298 504 1298 89 c
1221.33 47.67 1145.67 17.33 1071 -2 c
996.33 -21.33 913.33 -31 822 -31 c
560 -31 361 53 225 221 c
123 347 72 492.33 72 657 c
72 776.33 100.67 890.67 158 1000 c
226 1130 319.33 1230 438 1300 c
537.33 1358 654.67 1387 790 1387 c
839.33 1387 884.17 1383 924.5 1375 c
964.83 1367 1022 1349.33 1096 1322 c
1133.33 1308 1158.33 1301 1171 1301 c
1183.67 1301 1194.5 1306.83 1203.5 1318.5 c
1212.5 1330.17 1218 1353 1220 1387 c
1257 1387 1220 1387 1257 1387 c
closepath } bind def
/s73 {
632 37 m
632 0 632 37 632 0 c
51 0 632 0 51 0 c
51 37 51 0 51 37 c
99 37 51 37 99 37 c
155 37 195.67 53.33 221 86 c
237 107.33 245 158.67 245 240 c
245 1116 245 240 245 1116 c
245 1184.67 240.67 1230 232 1252 c
225.33 1268.67 211.67 1283 191 1295 c
161.67 1311 131 1319 99 1319 c
51 1319 99 1319 51 1319 c
51 1356 51 1319 51 1356 c
632 1356 51 1356 632 1356 c
632 1319 632 1356 632 1319 c
583 1319 632 1319 583 1319 c
527.67 1319 487.33 1302.67 462 1270 c
445.33 1248.67 437 1197.33 437 1116 c
437 240 437 1116 437 240 c
437 171.33 441.33 126 450 104 c
456.67 87.33 470.67 73 492 61 c
520.67 45 551 37 583 37 c
632 37 583 37 632 37 c
closepath } bind def
/s77 {
838 0 m
314 1141 838 0 314 1141 c
314 235 314 1141 314 235 c
314 151.67 323 99.67 341 79 c
365.67 51 404.67 37 458 37 c
506 37 458 37 506 37 c
506 0 506 37 506 0 c
34 0 506 0 34 0 c
34 37 34 0 34 37 c
82 37 34 37 82 37 c
139.33 37 180 54.33 204 89 c
218.67 110.33 226 159 226 235 c
226 1121 226 235 226 1121 c
226 1181 219.33 1224.33 206 1251 c
196.67 1270.33 179.5 1286.5 154.5 1299.5 c
129.5 1312.5 89.33 1319 34 1319 c
34 1356 34 1319 34 1356 c
418 1356 34 1356 418 1356 c
910 295 418 1356 910 295 c
1394 1356 910 295 1394 1356 c
1778 1356 1394 1356 1778 1356 c
1778 1319 1778 1356 1778 1319 c
1731 1319 1778 1319 1731 1319 c
1673 1319 1632 1301.67 1608 1267 c
1593.33 1245.67 1586 1197 1586 1121 c
1586 235 1586 1121 1586 235 c
1586 151.67 1595.33 99.67 1614 79 c
1638.67 51 1677.67 37 1731 37 c
1778 37 1731 37 1778 37 c
1778 0 1778 37 1778 0 c
1202 0 1778 0 1202 0 c
1202 37 1202 0 1202 37 c
1250 37 1202 37 1250 37 c
1308 37 1348.67 54.33 1372 89 c
1386.67 110.33 1394 159 1394 235 c
1394 1141 1394 235 1394 1141 c
871 0 1394 1141 871 0 c
838 0 871 0 838 0 c
closepath } bind def
/s78 {
-27 1356 m
341 1356 -27 1356 341 1356 c
1170 339 341 1356 1170 339 c
1170 1121 1170 339 1170 1121 c
1170 1204.33 1160.67 1256.33 1142 1277 c
1117.33 1305 1078.33 1319 1025 1319 c
978 1319 1025 1319 978 1319 c
978 1356 978 1319 978 1356 c
1450 1356 978 1356 1450 1356 c
1450 1319 1450 1356 1450 1319 c
1402 1319 1450 1319 1402 1319 c
1344.67 1319 1304 1301.67 1280 1267 c
1265.33 1245.67 1258 1197 1258 1121 c
1258 -22 1258 1121 1258 -22 c
1222 -22 1258 -22 1222 -22 c
328 1070 1222 -22 328 1070 c
328 235 328 1070 328 235 c
328 151.67 337 99.67 355 79 c
380.33 51 419.33 37 472 37 c
520 37 472 37 520 37 c
520 0 520 37 520 0 c
48 0 520 0 48 0 c
48 37 48 0 48 37 c
95 37 48 37 95 37 c
153 37 194 54.33 218 89 c
232.67 110.33 240 159 240 235 c
240 1178 240 235 240 1178 c
200.67 1224 170.83 1254.33 150.5 1269 c
130.17 1283.67 100.33 1297.33 61 1310 c
41.67 1316 12.33 1319 -27 1319 c
-27 1356 -27 1319 -27 1356 c
closepath } bind def
/s80 {
420 635 m
420 240 420 635 420 240 c
420 154.67 429.33 101.67 448 81 c
473.33 51.67 511.67 37 563 37 c
615 37 563 37 615 37 c
615 0 615 37 615 0 c
34 0 615 0 34 0 c
34 37 34 0 34 37 c
85 37 34 37 85 37 c
142.33 37 183.33 55.67 208 93 c
221.33 113.67 228 162.67 228 240 c
228 1116 228 240 228 1116 c
228 1201.33 219 1254.33 201 1275 c
175 1304.33 136.33 1319 85 1319 c
34 1319 85 1319 34 1319 c
34 1356 34 1319 34 1356 c
531 1356 34 1356 531 1356 c
652.33 1356 748 1343.5 818 1318.5 c
888 1293.5 947 1251.33 995 1192 c
1043 1132.67 1067 1062.33 1067 981 c
1067 870.33 1030.5 780.33 957.5 711 c
884.5 641.67 781.33 607 648 607 c
615.33 607 580 609.33 542 614 c
504 618.67 463.33 625.67 420 635 c
closepath 420 692 m
455.33 685.33 486.67 680.33 514 677 c
541.33 673.67 564.67 672 584 672 c
653.33 672 713.17 698.83 763.5 752.5 c
813.83 806.17 839 875.67 839 961 c
839 1019.67 827 1074.17 803 1124.5 c
779 1174.83 745 1212.5 701 1237.5 c
657 1262.5 607 1275 551 1275 c
517 1275 473.33 1268.67 420 1256 c
420 692 420 1256 420 692 c
closepath } bind def
/s81 {
902 -15 m
970 -132.33 1043.5 -218.67 1122.5 -274 c
1201.5 -329.33 1291.33 -361 1392 -369 c
1392 -401 1392 -369 1392 -401 c
1300 -397.67 1201.67 -379.17 1097 -345.5 c
992.33 -311.83 893.17 -265.17 799.5 -205.5 c
705.83 -145.83 625 -82.33 557 -15 c
461 23.67 385 64.67 329 108 c
247.67 172.67 184.5 252.17 139.5 346.5 c
94.5 440.83 72 552.33 72 681 c
72 883.67 137.67 1052 269 1186 c
400.33 1320 559.33 1387 746 1387 c
923.33 1387 1076.83 1319.83 1206.5 1185.5 c
1336.17 1051.17 1401 881.67 1401 677 c
1401 511 1354.83 365.33 1262.5 240 c
1170.17 114.67 1050 29.67 902 -15 c
closepath 734 1310 m
612.67 1310 515 1266.67 441 1180 c
347.67 1071.33 301 905 301 681 c
301 461.67 348.33 292.67 443 174 c
516.33 82.67 613.33 37 734 37 c
859.33 37 960.33 82.67 1037 174 c
1127 282 1172 441.33 1172 652 c
1172 814 1147.33 950.33 1098 1061 c
1060 1146.33 1009.5 1209.17 946.5 1249.5 c
883.5 1289.83 812.67 1310 734 1310 c
closepath } bind def
/s82 {
1384 0 m
1022 0 1384 0 1022 0 c
563 634 1022 0 563 634 c
529 632.67 501.33 632 480 632 c
471.33 632 462 632.17 452 632.5 c
442 632.83 431.67 633.33 421 634 c
421 240 421 634 421 240 c
421 154.67 430.33 101.67 449 81 c
474.33 51.67 512.33 37 563 37 c
616 37 563 37 616 37 c
616 0 616 37 616 0 c
35 0 616 0 35 0 c
35 37 35 0 35 37 c
86 37 35 37 86 37 c
143.33 37 184.33 55.67 209 93 c
223 113.67 230 162.67 230 240 c
230 1116 230 240 230 1116 c
230 1201.33 220.67 1254.33 202 1275 c
176 1304.33 137.33 1319 86 1319 c
35 1319 86 1319 35 1319 c
35 1356 35 1319 35 1356 c
529 1356 35 1356 529 1356 c
673 1356 779.17 1345.5 847.5 1324.5 c
915.83 1303.5 973.83 1264.83 1021.5 1208.5 c
1069.17 1152.17 1093 1085 1093 1007 c
1093 923.67 1065.83 851.33 1011.5 790 c
957.17 728.67 873 685.33 759 660 c
1039 271 759 660 1039 271 c
1103 181.67 1158 122.33 1204 93 c
1250 63.67 1310 45 1384 37 c
1384 0 1384 37 1384 0 c
closepath 421 697 m
433.67 697 444.67 696.83 454 696.5 c
463.33 696.17 471 696 477 696 c
606.33 696 703.83 724 769.5 780 c
835.17 836 868 907.33 868 994 c
868 1078.67 841.5 1147.5 788.5 1200.5 c
735.5 1253.5 665.33 1280 578 1280 c
539.33 1280 487 1273.67 421 1261 c
421 697 421 1261 421 697 c
closepath } bind def
/s97 {
583 132 m
489 59.33 430 17.33 406 6 c
370 -10.67 331.67 -19 291 -19 c
227.67 -19 175.5 2.67 134.5 46 c
93.5 89.33 73 146.33 73 217 c
73 261.67 83 300.33 103 333 c
130.33 378.33 177.83 421 245.5 461 c
313.17 501 425.67 549.67 583 607 c
583 643 583 607 583 643 c
583 734.33 568.5 797 539.5 831 c
510.5 865 468.33 882 413 882 c
371 882 337.67 870.67 313 848 c
287.67 825.33 275 799.33 275 770 c
277 712 275 770 277 712 c
277 681.33 269.17 657.67 253.5 641 c
237.83 624.33 217.33 616 192 616 c
167.33 616 147.17 624.67 131.5 642 c
115.83 659.33 108 683 108 713 c
108 770.33 137.33 823 196 871 c
254.67 919 337 943 443 943 c
524.33 943 591 929.33 643 902 c
682.33 881.33 711.33 849 730 805 c
742 776.33 748 717.67 748 629 c
748 318 748 629 748 318 c
748 230.67 749.67 177.17 753 157.5 c
756.33 137.83 761.83 124.67 769.5 118 c
777.17 111.33 786 108 796 108 c
806.67 108 816 110.33 824 115 c
838 123.67 865 148 905 188 c
905 132 905 188 905 132 c
830.33 32 759 -18 691 -18 c
658.33 -18 632.33 -6.67 613 16 c
593.67 38.67 583.67 77.33 583 132 c
closepath 583 197 m
583 546 583 197 583 546 c
482.33 506 417.33 477.67 388 461 c
335.33 431.67 297.67 401 275 369 c
252.33 337 241 302 241 264 c
241 216 255.33 176.17 284 144.5 c
312.67 112.83 345.67 97 383 97 c
433.67 97 500.33 130.33 583 197 c
closepath } bind def
/s98 {
315 758 m
403.67 881.33 499.33 943 602 943 c
696 943 778 902.83 848 822.5 c
918 742.17 953 632.33 953 493 c
953 330.33 899 199.33 791 100 c
698.33 14.67 595 -28 481 -28 c
427.67 -28 373.5 -18.33 318.5 1 c
263.5 20.33 207.33 49.33 150 88 c
150 1037 150 88 150 1037 c
150 1141 147.5 1205 142.5 1229 c
137.5 1253 129.67 1269.33 119 1278 c
108.33 1286.67 95 1291 79 1291 c
60.33 1291 37 1285.67 9 1275 c
-5 1310 9 1275 -5 1310 c
270 1422 -5 1310 270 1422 c
315 1422 270 1422 315 1422 c
315 758 315 1422 315 758 c
closepath 315 694 m
315 146 315 694 315 146 c
349 112.67 384.17 87.5 420.5 70.5 c
456.83 53.5 494 45 532 45 c
592.67 45 649.17 78.33 701.5 145 c
753.83 211.67 780 308.67 780 436 c
780 553.33 753.83 643.5 701.5 706.5 c
649.17 769.5 589.67 801 523 801 c
487.67 801 452.33 792 417 774 c
390.33 760.67 356.33 734 315 694 c
closepath } bind def
/s101 {
218 571 m
217.33 435 250.33 328.33 317 251 c
383.67 173.67 462 135 552 135 c
612 135 664.17 151.5 708.5 184.5 c
752.83 217.5 790 274 820 354 c
851 334 820 354 851 334 c
837 242.67 796.33 159.5 729 84.5 c
661.67 9.5 577.33 -28 476 -28 c
366 -28 271.83 14.83 193.5 100.5 c
115.17 186.17 76 301.33 76 446 c
76 602.67 116.17 724.83 196.5 812.5 c
276.83 900.17 377.67 944 499 944 c
601.67 944 686 910.17 752 842.5 c
818 774.83 851 684.33 851 571 c
218 571 851 571 218 571 c
closepath 218 629 m
642 629 218 629 642 629 c
638.67 687.67 631.67 729 621 753 c
604.33 790.33 579.5 819.67 546.5 841 c
513.5 862.33 479 873 443 873 c
387.67 873 338.17 851.5 294.5 808.5 c
250.83 765.5 225.33 705.67 218 629 c
closepath } bind def
/s102 {
422 844 m
422 242 422 844 422 242 c
422 156.67 431.33 102.67 450 80 c
474.67 50.67 507.67 36 549 36 c
632 36 549 36 632 36 c
632 0 632 36 632 0 c
85 0 632 0 85 0 c
85 36 85 0 85 36 c
126 36 85 36 126 36 c
152.67 36 177 42.67 199 56 c
221 69.33 236.17 87.33 244.5 110 c
252.83 132.67 257 176.67 257 242 c
257 844 257 242 257 844 c
79 844 257 844 79 844 c
79 916 79 844 79 916 c
257 916 79 916 257 916 c
257 976 257 916 257 976 c
257 1067.33 271.67 1144.67 301 1208 c
330.33 1271.33 375.17 1322.5 435.5 1361.5 c
495.83 1400.5 563.67 1420 639 1420 c
709 1420 773.33 1397.33 832 1352 c
870.67 1322 890 1288.33 890 1251 c
890 1231 881.33 1212.17 864 1194.5 c
846.67 1176.83 828 1168 808 1168 c
792.67 1168 776.5 1173.5 759.5 1184.5 c
742.5 1195.5 721.67 1219.17 697 1255.5 c
672.33 1291.83 649.67 1316.33 629 1329 c
608.33 1341.67 585.33 1348 560 1348 c
529.33 1348 503.33 1339.83 482 1323.5 c
460.67 1307.17 445.33 1281.83 436 1247.5 c
426.67 1213.17 422 1124.67 422 982 c
422 916 422 982 422 916 c
658 916 422 916 658 916 c
658 844 658 916 658 844 c
422 844 658 844 422 844 c
closepath } bind def
/s103 {
309 334 m
253 361.33 210 399.5 180 448.5 c
150 497.5 135 551.67 135 611 c
135 701.67 169.17 779.67 237.5 845 c
305.83 910.33 393.33 943 500 943 c
587.33 943 663 921.67 727 879 c
921 879 727 879 921 879 c
949.67 879 966.33 878.17 971 876.5 c
975.67 874.83 979 872 981 868 c
985 862 987 851.33 987 836 c
987 818.67 985.33 806.67 982 800 c
980 796.67 976.5 794 971.5 792 c
966.5 790 949.67 789 921 789 c
802 789 921 789 802 789 c
839.33 741 858 679.67 858 605 c
858 519.67 825.33 446.67 760 386 c
694.67 325.33 607 295 497 295 c
451.67 295 405.33 301.67 358 315 c
328.67 289.67 308.83 267.5 298.5 248.5 c
288.17 229.5 283 213.33 283 200 c
283 188.67 288.5 177.67 299.5 167 c
310.5 156.33 332 148.67 364 144 c
382.67 141.33 429.33 139 504 137 c
641.33 133.67 730.33 129 771 123 c
833 114.33 882.5 91.33 919.5 54 c
956.5 16.67 975 -29.33 975 -84 c
975 -159.33 939.67 -230 869 -296 c
765 -393.33 629.33 -442 462 -442 c
333.33 -442 224.67 -413 136 -355 c
86 -321.67 61 -287 61 -251 c
61 -235 64.67 -219 72 -203 c
83.33 -178.33 106.67 -144 142 -100 c
146.67 -94 180.67 -58 244 8 c
209.33 28.67 184.83 47.17 170.5 63.5 c
156.17 79.83 149 98.33 149 119 c
149 142.33 158.5 169.67 177.5 201 c
196.5 232.33 240.33 276.67 309 334 c
closepath 483 895 m
433.67 895 392.33 875.33 359 836 c
325.67 796.67 309 736.33 309 655 c
309 549.67 331.67 468 377 410 c
411.67 366 455.67 344 509 344 c
559.67 344 601.33 363 634 401 c
666.67 439 683 498.67 683 580 c
683 686 660 769 614 829 c
580 873 536.33 895 483 895 c
closepath 299 0 m
267.67 -34 244 -65.67 228 -95 c
212 -124.33 204 -151.33 204 -176 c
204 -208 223.33 -236 262 -260 c
328.67 -301.33 425 -322 551 -322 c
671 -322 759.5 -300.83 816.5 -258.5 c
873.5 -216.17 902 -171 902 -123 c
902 -88.33 885 -63.67 851 -49 c
816.33 -34.33 747.67 -25.67 645 -23 c
495 -19 379.67 -11.33 299 0 c
closepath } bind def
/s104 {
333 1422 m
333 752 333 1422 333 752 c
407 833.33 465.67 885.5 509 908.5 c
552.33 931.5 595.67 943 639 943 c
691 943 735.67 928.67 773 900 c
810.33 871.33 838 826.33 856 765 c
868.67 722.33 875 644.33 875 531 c
875 207 875 531 875 207 c
875 149 879.67 109.33 889 88 c
895.67 72 907 59.33 923 50 c
939 40.67 968.33 36 1011 36 c
1011 0 1011 36 1011 0 c
561 0 1011 0 561 0 c
561 36 561 0 561 36 c
582 36 561 36 582 36 c
624.67 36 654.33 42.5 671 55.5 c
687.67 68.5 699.33 87.67 706 113 c
708 123.67 709 155 709 207 c
709 531 709 207 709 531 c
709 631 703.83 696.67 693.5 728 c
683.17 759.33 666.67 782.83 644 798.5 c
621.33 814.17 594 822 562 822 c
529.33 822 495.33 813.33 460 796 c
424.67 778.67 382.33 743.67 333 691 c
333 207 333 691 333 207 c
333 144.33 336.5 105.33 343.5 90 c
350.5 74.67 363.5 61.83 382.5 51.5 c
401.5 41.17 434.33 36 481 36 c
481 0 481 36 481 0 c
27 0 481 0 27 0 c
27 36 27 0 27 36 c
67.67 36 99.67 42.33 123 55 c
136.33 61.67 147 74.33 155 93 c
163 111.67 167 149.67 167 207 c
167 1036 167 207 167 1036 c
167 1140.67 164.5 1205 159.5 1229 c
154.5 1253 146.83 1269.33 136.5 1278 c
126.17 1286.67 112.33 1291 95 1291 c
81 1291 58.33 1285.67 27 1275 c
13 1310 27 1275 13 1310 c
287 1422 13 1310 287 1422 c
333 1422 287 1422 333 1422 c
closepath } bind def
/s105 {
297 1422 m
325 1422 348.83 1412.17 368.5 1392.5 c
388.17 1372.83 398 1349 398 1321 c
398 1293 388.17 1269 368.5 1249 c
348.83 1229 325 1219 297 1219 c
269 1219 245 1229 225 1249 c
205 1269 195 1293 195 1321 c
195 1349 204.83 1372.83 224.5 1392.5 c
244.17 1412.17 268.33 1422 297 1422 c
closepath 380 943 m
380 207 380 943 380 207 c
380 149.67 384.17 111.5 392.5 92.5 c
400.83 73.5 413.17 59.33 429.5 50 c
445.83 40.67 475.67 36 519 36 c
519 0 519 36 519 0 c
74 0 519 0 74 0 c
74 36 74 0 74 36 c
118.67 36 148.67 40.33 164 49 c
179.33 57.67 191.5 72 200.5 92 c
209.5 112 214 150.33 214 207 c
214 560 214 207 214 560 c
214 659.33 211 723.67 205 753 c
200.33 774.33 193 789.17 183 797.5 c
173 805.83 159.33 810 142 810 c
123.33 810 100.67 805 74 795 c
60 831 74 795 60 831 c
336 943 60 831 336 943 c
380 943 336 943 380 943 c
closepath } bind def
/s109 {
336 748 m
402.67 814.67 442 853 454 863 c
484 888.33 516.33 908 551 922 c
585.67 936 620 943 654 943 c
711.33 943 760.67 926.33 802 893 c
843.33 859.67 871 811.33 885 748 c
953.67 828 1011.67 880.5 1059 905.5 c
1106.33 930.5 1155 943 1205 943 c
1253.67 943 1296.83 930.5 1334.5 905.5 c
1372.17 880.5 1402 839.67 1424 783 c
1438.67 744.33 1446 683.67 1446 601 c
1446 207 1446 601 1446 207 c
1446 149.67 1450.33 110.33 1459 89 c
1465.67 74.33 1478 61.83 1496 51.5 c
1514 41.17 1543.33 36 1584 36 c
1584 0 1584 36 1584 0 c
1132 0 1584 0 1132 0 c
1132 36 1132 0 1132 36 c
1151 36 1132 36 1151 36 c
1190.33 36 1221 43.67 1243 59 c
1258.33 69.67 1269.33 86.67 1276 110 c
1278.67 121.33 1280 153.67 1280 207 c
1280 601 1280 207 1280 601 c
1280 675.67 1271 728.33 1253 759 c
1227 801.67 1185.33 823 1128 823 c
1092.67 823 1057.17 814.17 1021.5 796.5 c
985.83 778.83 942.67 746 892 698 c
890 687 892 698 890 687 c
892 644 890 687 892 644 c
892 207 892 644 892 207 c
892 144.33 895.5 105.33 902.5 90 c
909.5 74.67 922.67 61.83 942 51.5 c
961.33 41.17 994.33 36 1041 36 c
1041 0 1041 36 1041 0 c
578 0 1041 0 578 0 c
578 36 578 0 578 36 c
628.67 36 663.5 42 682.5 54 c
701.5 66 714.67 84 722 108 c
725.33 119.33 727 152.33 727 207 c
727 601 727 207 727 601 c
727 675.67 716 729.33 694 762 c
664.67 804.67 623.67 826 571 826 c
535 826 499.33 816.33 464 797 c
408.67 767.67 366 734.67 336 698 c
336 207 336 698 336 207 c
336 147 340.17 108 348.5 90 c
356.83 72 369.17 58.5 385.5 49.5 c
401.83 40.5 435 36 485 36 c
485 0 485 36 485 0 c
32 0 485 0 32 0 c
32 36 32 0 32 36 c
74 36 103.33 40.5 120 49.5 c
136.67 58.5 149.33 72.83 158 92.5 c
166.67 112.17 171 150.33 171 207 c
171 557 171 207 171 557 c
171 657.67 168 722.67 162 752 c
157.33 774 150 789.17 140 797.5 c
130 805.83 116.33 810 99 810 c
80.33 810 58 805 32 795 c
17 831 32 795 17 831 c
293 943 17 831 293 943 c
336 943 293 943 336 943 c
336 748 336 943 336 748 c
closepath } bind def
/s110 {
331 749 m
438.33 878.33 540.67 943 638 943 c
688 943 731 930.5 767 905.5 c
803 880.5 831.67 839.33 853 782 c
867.67 742 875 680.67 875 598 c
875 207 875 598 875 207 c
875 149 879.67 109.67 889 89 c
896.33 72.33 908.17 59.33 924.5 50 c
940.83 40.67 971 36 1015 36 c
1015 0 1015 36 1015 0 c
562 0 1015 0 562 0 c
562 36 562 0 562 36 c
581 36 562 36 581 36 c
623.67 36 653.5 42.5 670.5 55.5 c
687.5 68.5 699.33 87.67 706 113 c
708.67 123 710 154.33 710 207 c
710 582 710 207 710 582 c
710 665.33 699.17 725.83 677.5 763.5 c
655.83 801.17 619.33 820 568 820 c
488.67 820 409.67 776.67 331 690 c
331 207 331 690 331 207 c
331 145 334.67 106.67 342 92 c
351.33 72.67 364.17 58.5 380.5 49.5 c
396.83 40.5 430 36 480 36 c
480 0 480 36 480 0 c
27 0 480 0 27 0 c
27 36 27 0 27 36 c
47 36 27 36 47 36 c
93.67 36 125.17 47.83 141.5 71.5 c
157.83 95.17 166 140.33 166 207 c
166 547 166 207 166 547 c
166 657 163.5 724 158.5 748 c
153.5 772 145.83 788.33 135.5 797 c
125.17 805.67 111.33 810 94 810 c
75.33 810 53 805 27 795 c
12 831 27 795 12 831 c
288 943 12 831 288 943 c
331 943 288 943 331 943 c
331 749 331 943 331 749 c
closepath } bind def
/s111 {
512 943 m
650.67 943 762 890.33 846 785 c
917.33 695 953 591.67 953 475 c
953 393 933.33 310 894 226 c
854.67 142 800.5 78.67 731.5 36 c
662.5 -6.67 585.67 -28 501 -28 c
363 -28 253.33 27 172 137 c
103.33 229.67 69 333.67 69 449 c
69 533 89.83 616.5 131.5 699.5 c
173.17 782.5 228 843.83 296 883.5 c
364 923.17 436 943 512 943 c
closepath 481 878 m
445.67 878 410.17 867.5 374.5 846.5 c
338.83 825.5 310 788.67 288 736 c
266 683.33 255 615.67 255 533 c
255 399.67 281.5 284.67 334.5 188 c
387.5 91.33 457.33 43 544 43 c
608.67 43 662 69.67 704 123 c
746 176.33 767 268 767 398 c
767 560.67 732 688.67 662 782 c
614.67 846 554.33 878 481 878 c
closepath } bind def
/s112 {
-2 825 m
280 939 -2 825 280 939 c
318 939 280 939 318 939 c
318 725 318 939 318 725 c
365.33 805.67 412.83 862.17 460.5 894.5 c
508.17 926.83 558.33 943 611 943 c
703 943 779.67 907 841 835 c
916.33 747 954 632.33 954 491 c
954 333 908.67 202.33 818 99 c
743.33 14.33 649.33 -28 536 -28 c
486.67 -28 444 -21 408 -7 c
381.33 3 351.33 23 318 53 c
318 -226 318 53 318 -226 c
318 -288.67 321.83 -328.5 329.5 -345.5 c
337.17 -362.5 350.5 -376 369.5 -386 c
388.5 -396 423 -401 473 -401 c
473 -438 473 -401 473 -438 c
-7 -438 473 -438 -7 -438 c
-7 -401 -7 -438 -7 -401 c
18 -401 -7 -401 18 -401 c
54.67 -401.67 86 -394.67 112 -380 c
124.67 -372.67 134.5 -360.83 141.5 -344.5 c
148.5 -328.17 152 -286.67 152 -220 c
152 646 152 -220 152 646 c
152 705.33 149.33 743 144 759 c
138.67 775 130.17 787 118.5 795 c
106.83 803 91 807 71 807 c
55 807 34.67 802.33 10 793 c
-2 825 10 793 -2 825 c
closepath 318 666 m
318 324 318 666 318 324 c
318 250 321 201.33 327 178 c
336.33 139.33 359.17 105.33 395.5 76 c
431.83 46.67 477.67 32 533 32 c
599.67 32 653.67 58 695 110 c
749 178 776 273.67 776 397 c
776 537 745.33 644.67 684 720 c
641.33 772 590.67 798 532 798 c
500 798 468.33 790 437 774 c
413 762 373.33 726 318 666 c
closepath } bind def
/s114 {
332 943 m
332 737 332 943 332 737 c
408.67 874.33 487.33 943 568 943 c
604.67 943 635 931.83 659 909.5 c
683 887.17 695 861.33 695 832 c
695 806 686.33 784 669 766 c
651.67 748 631 739 607 739 c
583.67 739 557.5 750.5 528.5 773.5 c
499.5 796.5 478 808 464 808 c
452 808 439 801.33 425 788 c
395 760.67 364 715.67 332 653 c
332 214 332 653 332 214 c
332 163.33 338.33 125 351 99 c
359.67 81 375 66 397 54 c
419 42 450.67 36 492 36 c
492 0 492 36 492 0 c
23 0 492 0 23 0 c
23 36 23 0 23 36 c
69.67 36 104.33 43.33 127 58 c
143.67 68.67 155.33 85.67 162 109 c
165.33 120.33 167 152.67 167 206 c
167 561 167 206 167 561 c
167 667.67 164.83 731.17 160.5 751.5 c
156.17 771.83 148.17 786.67 136.5 796 c
124.83 805.33 110.33 810 93 810 c
72.33 810 49 805 23 795 c
13 831 23 795 13 831 c
290 943 13 831 290 943 c
332 943 290 943 332 943 c
closepath } bind def
/s115 {
656 943 m
656 631 656 943 656 631 c
623 631 656 631 623 631 c
597.67 729 565.17 795.67 525.5 831 c
485.83 866.33 435.33 884 374 884 c
327.33 884 289.67 871.67 261 847 c
232.33 822.33 218 795 218 765 c
218 727.67 228.67 695.67 250 669 c
270.67 641.67 312.67 612.67 376 582 c
522 511 376 582 522 511 c
657.33 445 725 358 725 250 c
725 166.67 693.5 99.5 630.5 48.5 c
567.5 -2.5 497 -28 419 -28 c
363 -28 299 -18 227 2 c
205 8.67 187 12 173 12 c
157.67 12 145.67 3.33 137 -14 c
104 -14 137 -14 104 -14 c
104 313 104 -14 104 313 c
137 313 104 313 137 313 c
155.67 219.67 191.33 149.33 244 102 c
296.67 54.67 355.67 31 421 31 c
467 31 504.5 44.5 533.5 71.5 c
562.5 98.5 577 131 577 169 c
577 215 560.83 253.67 528.5 285 c
496.17 316.33 431.67 356 335 404 c
238.33 452 175 495.33 145 534 c
115 572 100 620 100 678 c
100 753.33 125.83 816.33 177.5 867 c
229.17 917.67 296 943 378 943 c
414 943 457.67 935.33 509 920 c
543 910 565.67 905 577 905 c
587.67 905 596 907.33 602 912 c
608 916.67 615 927 623 943 c
656 943 623 943 656 943 c
closepath } bind def
/s116 {
330 1217 m
330 916 330 1217 330 916 c
544 916 330 916 544 916 c
544 846 544 916 544 846 c
330 846 544 846 330 846 c
330 252 330 846 330 252 c
330 192.67 338.5 152.67 355.5 132 c
372.5 111.33 394.33 101 421 101 c
443 101 464.33 107.83 485 121.5 c
505.67 135.17 521.67 155.33 533 182 c
572 182 533 182 572 182 c
548.67 116.67 515.67 67.5 473 34.5 c
430.33 1.5 386.33 -15 341 -15 c
310.33 -15 280.33 -6.5 251 10.5 c
221.67 27.5 200 51.83 186 83.5 c
172 115.17 165 164 165 230 c
165 846 165 230 165 846 c
20 846 165 846 20 846 c
20 879 20 846 20 879 c
56.67 893.67 94.17 918.5 132.5 953.5 c
170.83 988.5 205 1030 235 1078 c
250.33 1103.33 271.67 1149.67 299 1217 c
330 1217 299 1217 330 1217 c
closepath } bind def
/s121 {
12 916 m
439 916 12 916 439 916 c
439 879 439 916 439 879 c
418 879 439 879 418 879 c
388 879 365.5 872.5 350.5 859.5 c
335.5 846.5 328 830.33 328 811 c
328 785 339 749 361 703 c
584 241 361 703 584 241 c
789 747 584 241 789 747 c
800.33 774.33 806 801.33 806 828 c
806 840 803.67 849 799 855 c
793.67 862.33 785.33 868.17 774 872.5 c
762.67 876.83 742.67 879 714 879 c
714 916 714 879 714 916 c
1012 916 714 916 1012 916 c
1012 879 1012 916 1012 879 c
987.33 876.33 968.33 871 955 863 c
941.67 855 927 840 911 818 c
905 808.67 893.67 783 877 741 c
504 -173 877 741 504 -173 c
468 -261.67 420.83 -328.67 362.5 -374 c
304.17 -419.33 248 -442 194 -442 c
154.67 -442 122.33 -430.67 97 -408 c
71.67 -385.33 59 -359.33 59 -330 c
59 -302 68.17 -279.5 86.5 -262.5 c
104.83 -245.5 130 -237 162 -237 c
184 -237 214 -244.33 252 -259 c
278.67 -269 295.33 -274 302 -274 c
322 -274 343.83 -263.67 367.5 -243 c
391.17 -222.33 415 -182.33 439 -123 c
504 36 439 -123 504 36 c
175 727 504 36 175 727 c
165 747.67 149 773.33 127 804 c
110.33 827.33 96.67 843 86 851 c
70.67 861.67 46 871 12 879 c
12 916 12 879 12 916 c
closepath } bind def
end
/BuildGlyph {
 exch dup /Metrics get 2 index get 0 setcharwidth
/CharProcs get exch 2 copy known not{pop/.notdef}if get exec fill}bind def
/BuildChar {
1 index /Encoding get exch get
1 index /BuildGlyph get exec
} bind def
currentdict end /MC1_Times-New-Roman exch definefont pop
%%EndFont
%%BeginFont: /MC2_Times-New-Roman
12 dict begin
/FontInfo 8 dict dup begin
/ItalicAngle 0 def
/UnderlinePosition -223.00 def
/UnderlineThickness 100.00 def
/StrikeoutPosition 530.00 def
/StrikeoutThickness 102.00 def
/isFixedPitch false def
end readonly def
/FontName /MC2_Times-New-Roman def
/FontType 3 def
/FontMatrix [1 2048 div 0 0 1 2048 div 0 0] def
/FontBBox [-1164 -628 4190 2129] def
/Encoding 256 array def 0 1 255{Encoding exch/.notdef put}for
Encoding 32/s32 put
Encoding 40/s40 put
Encoding 41/s41 put
Encoding 45/s45 put
Encoding 48/s48 put
Encoding 49/s49 put
Encoding 50/s50 put
Encoding 51/s51 put
Encoding 52/s52 put
Encoding 53/s53 put
Encoding 65/s65 put
Encoding 68/s68 put
Encoding 69/s69 put
Encoding 71/s71 put
Encoding 73/s73 put
Encoding 77/s77 put
Encoding 78/s78 put
Encoding 81/s81 put
Encoding 98/s98 put
Encoding 101/s101 put
Encoding 102/s102 put
Encoding 103/s103 put
Encoding 104/s104 put
Encoding 105/s105 put
Encoding 110/s110 put
Encoding 111/s111 put
Encoding 114/s114 put
Encoding 115/s115 put
Encoding 116/s116 put
Encoding 121/s121 put
/BoundingBoxes 31 dict def
BoundingBoxes begin
/s32 [0 -443 512 1825] def
/s40 [0 -443 682 1825] def
/s41 [0 -443 682 1825] def
/s45 [0 -443 682 1825] def
/s48 [0 -443 1024 1825] def
/s49 [0 -443 1024 1825] def
/s50 [0 -443 1024 1825] def
/s51 [0 -443 1024 1825] def
/s52 [0 -443 1024 1825] def
/s53 [0 -443 1024 1825] def
/s65 [0 -443 1479 1825] def
/s68 [0 -443 1479 1825] def
/s69 [0 -443 1251 1825] def
/s71 [0 -443 1479 1825] def
/s73 [0 -443 682 1825] def
/s77 [0 -443 1821 1825] def
/s78 [-27 -443 1479 1825] def
/s81 [0 -443 1479 1825] def
/s98 [-5 -443 1024 1825] def
/s101 [0 -443 909 1825] def
/s102 [0 -443 682 1825] def
/s103 [0 -443 1024 1825] def
/s104 [0 -443 1024 1825] def
/s105 [0 -443 569 1825] def
/s110 [0 -443 1024 1825] def
/s111 [0 -443 1024 1825] def
/s114 [0 -443 682 1825] def
/s115 [0 -443 797 1825] def
/s116 [0 -443 569 1825] def
/s121 [0 -443 1024 1825] def
end
/Metrics 31 dict def
 Metrics begin
/s32 512 def
/s40 682 def
/s41 682 def
/s45 682 def
/s48 1024 def
/s49 1024 def
/s50 1024 def
/s51 1024 def
/s52 1024 def
/s53 1024 def
/s65 1479 def
/s68 1479 def
/s69 1251 def
/s71 1479 def
/s73 682 def
/s77 1821 def
/s78 1479 def
/s81 1479 def
/s98 1024 def
/s101 909 def
/s102 682 def
/s103 1024 def
/s104 1024 def
/s105 569 def
/s110 1024 def
/s111 1024 def
/s114 682 def
/s115 797 def
/s116 569 def
/s121 1024 def
end
/CharProcs 31 dict def
CharProcs begin
/.notdef {} def
/s40 {
636 -401 m
636 -438 636 -401 636 -438 c
535.33 -387.33 451.33 -328 384 -260 c
288 -163.33 214 -49.33 162 82 c
110 213.33 84 349.67 84 491 c
84 697.67 135 886.17 237 1056.5 c
339 1226.83 472 1348.67 636 1422 c
636 1380 636 1422 636 1380 c
554 1334.67 486.67 1272.67 434 1194 c
381.33 1115.33 342 1015.67 316 895 c
290 774.33 277 648.33 277 517 c
277 374.33 288 244.67 310 128 c
327.33 36 348.33 -37.83 373 -93.5 c
397.67 -149.17 430.83 -202.67 472.5 -254 c
514.17 -305.33 568.67 -354.33 636 -401 c
closepath } bind def
/s41 {
46 1380 m
46 1422 46 1380 46 1422 c
147.33 1372 231.67 1313 299 1245 c
394.33 1147.67 468 1033.5 520 902.5 c
572 771.5 598 635 598 493 c
598 286.33 547.17 97.83 445.5 -72.5 c
343.83 -242.83 210.67 -364.67 46 -438 c
46 -401 46 -438 46 -401 c
128 -355 195.5 -292.83 248.5 -214.5 c
301.5 -136.17 340.83 -36.5 366.5 84.5 c
392.17 205.5 405 331.67 405 463 c
405 605 394 734.67 372 852 c
355.33 944 334.5 1017.67 309.5 1073 c
284.5 1128.33 251.33 1181.67 210 1233 c
168.67 1284.33 114 1333.33 46 1380 c
closepath } bind def
/s45 {
83 535 m
600 535 83 535 600 535 c
600 384 600 535 600 384 c
83 384 600 384 83 384 c
83 535 83 384 83 535 c
closepath } bind def
/s48 {
74 670 m
74 824.67 97.33 957.83 144 1069.5 c
190.67 1181.17 252.67 1264.33 330 1319 c
390 1362.33 452 1384 516 1384 c
620 1384 713.33 1331 796 1225 c
899.33 1093.67 951 915.67 951 691 c
951 533.67 928.33 400 883 290 c
837.67 180 779.83 100.17 709.5 50.5 c
639.17 0.83 571.33 -24 506 -24 c
376.67 -24 269 52.33 183 205 c
110.33 333.67 74 488.67 74 670 c
closepath 270 645 m
270 458.33 293 306 339 188 c
377 88.67 433.67 39 509 39 c
545 39 582.33 55.17 621 87.5 c
659.67 119.83 689 174 709 250 c
739.67 364.67 755 526.33 755 735 c
755 889.67 739 1018.67 707 1122 c
683 1198.67 652 1253 614 1285 c
586.67 1307 553.67 1318 515 1318 c
469.67 1318 429.33 1297.67 394 1257 c
346 1201.67 313.33 1114.67 296 996 c
278.67 877.33 270 760.33 270 645 c
closepath } bind def
/s49 {
240 1223 m
570 1384 240 1223 570 1384 c
603 1384 570 1384 603 1384 c
603 239 603 1384 603 239 c
603 163 606.17 115.67 612.5 97 c
618.83 78.33 632 64 652 54 c
672 44 712.67 38.33 774 37 c
774 0 774 37 774 0 c
264 0 774 0 264 0 c
264 37 264 0 264 37 c
328 38.33 369.33 43.83 388 53.5 c
406.67 63.17 419.67 76.17 427 92.5 c
434.33 108.83 438 157.67 438 239 c
438 971 438 239 438 971 c
438 1069.67 434.67 1133 428 1161 c
423.33 1182.33 414.83 1198 402.5 1208 c
390.17 1218 375.33 1223 358 1223 c
333.33 1223 299 1212.67 255 1192 c
240 1223 255 1192 240 1223 c
closepath } bind def
/s50 {
939 261 m
844 0 939 261 844 0 c
44 0 844 0 44 0 c
44 37 44 0 44 37 c
279.33 251.67 445 427 541 563 c
637 699 685 823.33 685 936 c
685 1022 658.67 1092.67 606 1148 c
553.33 1203.33 490.33 1231 417 1231 c
350.33 1231 290.5 1211.5 237.5 1172.5 c
184.5 1133.5 145.33 1076.33 120 1001 c
83 1001 120 1001 83 1001 c
99.67 1124.33 142.5 1219 211.5 1285 c
280.5 1351 366.67 1384 470 1384 c
580 1384 671.83 1348.67 745.5 1278 c
819.17 1207.33 856 1124 856 1028 c
856 959.33 840 890.67 808 822 c
758.67 714 678.67 599.67 568 479 c
402 297.67 298.33 188.33 257 151 c
611 151 257 151 611 151 c
683 151 733.5 153.67 762.5 159 c
791.5 164.33 817.67 175.17 841 191.5 c
864.33 207.83 884.67 231 902 261 c
939 261 902 261 939 261 c
closepath } bind def
/s51 {
104 1098 m
142.67 1189.33 191.5 1259.83 250.5 1309.5 c
309.5 1359.17 383 1384 471 1384 c
579.67 1384 663 1348.67 721 1278 c
765 1225.33 787 1169 787 1109 c
787 1010.33 725 908.33 601 803 c
684.33 770.33 747.33 723.67 790 663 c
832.67 602.33 854 531 854 449 c
854 331.67 816.67 230 742 144 c
644.67 32 503.67 -24 319 -24 c
227.67 -24 165.5 -12.67 132.5 10 c
99.5 32.67 83 57 83 83 c
83 102.33 90.83 119.33 106.5 134 c
122.17 148.67 141 156 163 156 c
179.67 156 196.67 153.33 214 148 c
225.33 144.67 251 132.5 291 111.5 c
331 90.5 358.67 78 374 74 c
398.67 66.67 425 63 453 63 c
521 63 580.17 89.33 630.5 142 c
680.83 194.67 706 257 706 329 c
706 381.67 694.33 433 671 483 c
653.67 520.33 634.67 548.67 614 568 c
585.33 594.67 546 618.83 496 640.5 c
446 662.17 395 673 343 673 c
311 673 343 673 311 673 c
311 703 311 673 311 703 c
363.67 709.67 416.5 728.67 469.5 760 c
522.5 791.33 561 829 585 873 c
609 917 621 965.33 621 1018 c
621 1086.67 599.5 1142.17 556.5 1184.5 c
513.5 1226.83 460 1248 396 1248 c
292.67 1248 206.33 1192.67 137 1082 c
104 1098 137 1082 104 1098 c
closepath } bind def
/s52 {
953 500 m
953 358 953 500 953 358 c
771 358 953 358 771 358 c
771 0 771 358 771 0 c
606 0 771 0 606 0 c
606 358 606 0 606 358 c
32 358 606 358 32 358 c
32 486 32 358 32 486 c
661 1384 32 486 661 1384 c
771 1384 661 1384 771 1384 c
771 500 771 1384 771 500 c
953 500 771 500 953 500 c
closepath 606 500 m
606 1173 606 500 606 1173 c
130 500 606 1173 130 500 c
606 500 130 500 606 500 c
closepath } bind def
/s53 {
889 1356 m
811 1186 889 1356 811 1186 c
403 1186 811 1186 403 1186 c
314 1004 403 1186 314 1004 c
490.67 978 630.67 912.33 734 807 c
822.67 716.33 867 609.67 867 487 c
867 415.67 852.5 349.67 823.5 289 c
794.5 228.33 758 176.67 714 134 c
670 91.33 621 57 567 31 c
490.33 -5.67 411.67 -24 331 -24 c
249.67 -24 190.5 -10.17 153.5 17.5 c
116.5 45.17 98 75.67 98 109 c
98 127.67 105.67 144.17 121 158.5 c
136.33 172.83 155.67 180 179 180 c
196.33 180 211.5 177.33 224.5 172 c
237.5 166.67 259.67 153 291 131 c
341 96.33 391.67 79 443 79 c
521 79 589.5 108.5 648.5 167.5 c
707.5 226.5 737 298.33 737 383 c
737 465 710.67 541.5 658 612.5 c
605.33 683.5 532.67 738.33 440 777 c
367.33 807 268.33 824.33 143 829 c
403 1356 143 829 403 1356 c
889 1356 403 1356 889 1356 c
closepath } bind def
/s65 {
937 454 m
412 454 937 454 412 454 c
320 240 412 454 320 240 c
297.33 187.33 286 148 286 122 c
286 101.33 295.83 83.17 315.5 67.5 c
335.17 51.83 377.67 41.67 443 37 c
443 0 443 37 443 0 c
16 0 443 0 16 0 c
16 37 16 0 16 37 c
72.67 47 109.33 60 126 76 c
160 108 197.67 173 239 271 c
716 1387 239 271 716 1387 c
751 1387 716 1387 751 1387 c
1223 259 751 1387 1223 259 c
1261 168.33 1295.5 109.5 1326.5 82.5 c
1357.5 55.5 1400.67 40.33 1456 37 c
1456 0 1456 37 1456 0 c
921 0 1456 0 921 0 c
921 37 921 0 921 37 c
975 39.67 1011.5 48.67 1030.5 64 c
1049.5 79.33 1059 98 1059 120 c
1059 149.33 1045.67 195.67 1019 259 c
937 454 1019 259 937 454 c
closepath 909 528 m
679 1076 909 528 679 1076 c
443 528 679 1076 443 528 c
909 528 443 528 909 528 c
closepath } bind def
/s68 {
35 0 m
35 37 35 0 35 37 c
86 37 35 37 86 37 c
143.33 37 184 55.33 208 92 c
222.67 114 230 163.33 230 240 c
230 1116 230 240 230 1116 c
230 1200.67 220.67 1253.67 202 1275 c
176 1304.33 137.33 1319 86 1319 c
35 1319 86 1319 35 1319 c
35 1356 35 1319 35 1356 c
587 1356 35 1356 587 1356 c
789.67 1356 943.83 1333 1049.5 1287 c
1155.17 1241 1240.17 1164.33 1304.5 1057 c
1368.83 949.67 1401 825.67 1401 685 c
1401 496.33 1343.67 338.67 1229 212 c
1100.33 70.67 904.33 0 641 0 c
35 0 641 0 35 0 c
closepath 422 98 m
506.67 79.33 577.67 70 635 70 c
789.67 70 918 124.33 1020 233 c
1122 341.67 1173 489 1173 675 c
1173 862.33 1122 1010 1020 1118 c
918 1226 787 1280 627 1280 c
567 1280 498.67 1270.33 422 1251 c
422 98 422 1251 422 98 c
closepath } bind def
/s69 {
428 1282 m
428 746 428 1282 428 746 c
726 746 428 746 726 746 c
803.33 746 855 757.67 881 781 c
915.67 811.67 935 865.67 939 943 c
976 943 939 943 976 943 c
976 471 976 943 976 471 c
939 471 976 471 939 471 c
929.67 537 920.33 579.33 911 598 c
899 621.33 879.33 639.67 852 653 c
824.67 666.33 782.67 673 726 673 c
428 673 726 673 428 673 c
428 226 428 673 428 226 c
428 166 430.67 129.5 436 116.5 c
441.33 103.5 450.67 93.17 464 85.5 c
477.33 77.83 502.67 74 540 74 c
770 74 540 74 770 74 c
846.67 74 902.33 79.33 937 90 c
971.67 100.67 1005 121.67 1037 153 c
1078.33 194.33 1120.67 256.67 1164 340 c
1204 340 1164 340 1204 340 c
1087 0 1204 340 1087 0 c
42 0 1087 0 42 0 c
42 37 42 0 42 37 c
90 37 42 37 90 37 c
122 37 152.33 44.67 181 60 c
202.33 70.67 216.83 86.67 224.5 108 c
232.17 129.33 236 173 236 239 c
236 1120 236 239 236 1120 c
236 1206 227.33 1259 210 1279 c
186 1305.67 146 1319 90 1319 c
42 1319 90 1319 42 1319 c
42 1356 42 1319 42 1356 c
1087 1356 42 1356 1087 1356 c
1102 1059 1087 1356 1102 1059 c
1063 1059 1102 1059 1063 1059 c
1049 1130.33 1033.5 1179.33 1016.5 1206 c
999.5 1232.67 974.33 1253 941 1267 c
914.33 1277 867.33 1282 800 1282 c
428 1282 800 1282 428 1282 c
closepath } bind def
/s71 {
1257 1387 m
1292 959 1257 1387 1292 959 c
1257 959 1292 959 1257 959 c
1221.67 1065.67 1176 1146 1120 1200 c
1039.33 1278 935.67 1317 809 1317 c
636.33 1317 505 1248.67 415 1112 c
339.67 996.67 302 859.33 302 700 c
302 570.67 327 452.67 377 346 c
427 239.33 492.5 161.17 573.5 111.5 c
654.5 61.83 737.67 37 823 37 c
873 37 921.33 43.33 968 56 c
1014.67 68.67 1059.67 87.33 1103 112 c
1103 504 1103 112 1103 504 c
1103 572 1097.83 616.5 1087.5 637.5 c
1077.17 658.5 1061.17 674.5 1039.5 685.5 c
1017.83 696.5 979.67 702 925 702 c
925 740 925 702 925 740 c
1450 740 925 740 1450 740 c
1450 702 1450 740 1450 702 c
1425 702 1450 702 1425 702 c
1373 702 1337.33 684.67 1318 650 c
1304.67 625.33 1298 576.67 1298 504 c
1298 89 1298 504 1298 89 c
1221.33 47.67 1145.67 17.33 1071 -2 c
996.33 -21.33 913.33 -31 822 -31 c
560 -31 361 53 225 221 c
123 347 72 492.33 72 657 c
72 776.33 100.67 890.67 158 1000 c
226 1130 319.33 1230 438 1300 c
537.33 1358 654.67 1387 790 1387 c
839.33 1387 884.17 1383 924.5 1375 c
964.83 1367 1022 1349.33 1096 1322 c
1133.33 1308 1158.33 1301 1171 1301 c
1183.67 1301 1194.5 1306.83 1203.5 1318.5 c
1212.5 1330.17 1218 1353 1220 1387 c
1257 1387 1220 1387 1257 1387 c
closepath } bind def
/s73 {
632 37 m
632 0 632 37 632 0 c
51 0 632 0 51 0 c
51 37 51 0 51 37 c
99 37 51 37 99 37 c
155 37 195.67 53.33 221 86 c
237 107.33 245 158.67 245 240 c
245 1116 245 240 245 1116 c
245 1184.67 240.67 1230 232 1252 c
225.33 1268.67 211.67 1283 191 1295 c
161.67 1311 131 1319 99 1319 c
51 1319 99 1319 51 1319 c
51 1356 51 1319 51 1356 c
632 1356 51 1356 632 1356 c
632 1319 632 1356 632 1319 c
583 1319 632 1319 583 1319 c
527.67 1319 487.33 1302.67 462 1270 c
445.33 1248.67 437 1197.33 437 1116 c
437 240 437 1116 437 240 c
437 171.33 441.33 126 450 104 c
456.67 87.33 470.67 73 492 61 c
520.67 45 551 37 583 37 c
632 37 583 37 632 37 c
closepath } bind def
/s77 {
838 0 m
314 1141 838 0 314 1141 c
314 235 314 1141 314 235 c
314 151.67 323 99.67 341 79 c
365.67 51 404.67 37 458 37 c
506 37 458 37 506 37 c
506 0 506 37 506 0 c
34 0 506 0 34 0 c
34 37 34 0 34 37 c
82 37 34 37 82 37 c
139.33 37 180 54.33 204 89 c
218.67 110.33 226 159 226 235 c
226 1121 226 235 226 1121 c
226 1181 219.33 1224.33 206 1251 c
196.67 1270.33 179.5 1286.5 154.5 1299.5 c
129.5 1312.5 89.33 1319 34 1319 c
34 1356 34 1319 34 1356 c
418 1356 34 1356 418 1356 c
910 295 418 1356 910 295 c
1394 1356 910 295 1394 1356 c
1778 1356 1394 1356 1778 1356 c
1778 1319 1778 1356 1778 1319 c
1731 1319 1778 1319 1731 1319 c
1673 1319 1632 1301.67 1608 1267 c
1593.33 1245.67 1586 1197 1586 1121 c
1586 235 1586 1121 1586 235 c
1586 151.67 1595.33 99.67 1614 79 c
1638.67 51 1677.67 37 1731 37 c
1778 37 1731 37 1778 37 c
1778 0 1778 37 1778 0 c
1202 0 1778 0 1202 0 c
1202 37 1202 0 1202 37 c
1250 37 1202 37 1250 37 c
1308 37 1348.67 54.33 1372 89 c
1386.67 110.33 1394 159 1394 235 c
1394 1141 1394 235 1394 1141 c
871 0 1394 1141 871 0 c
838 0 871 0 838 0 c
closepath } bind def
/s78 {
-27 1356 m
341 1356 -27 1356 341 1356 c
1170 339 341 1356 1170 339 c
1170 1121 1170 339 1170 1121 c
1170 1204.33 1160.67 1256.33 1142 1277 c
1117.33 1305 1078.33 1319 1025 1319 c
978 1319 1025 1319 978 1319 c
978 1356 978 1319 978 1356 c
1450 1356 978 1356 1450 1356 c
1450 1319 1450 1356 1450 1319 c
1402 1319 1450 1319 1402 1319 c
1344.67 1319 1304 1301.67 1280 1267 c
1265.33 1245.67 1258 1197 1258 1121 c
1258 -22 1258 1121 1258 -22 c
1222 -22 1258 -22 1222 -22 c
328 1070 1222 -22 328 1070 c
328 235 328 1070 328 235 c
328 151.67 337 99.67 355 79 c
380.33 51 419.33 37 472 37 c
520 37 472 37 520 37 c
520 0 520 37 520 0 c
48 0 520 0 48 0 c
48 37 48 0 48 37 c
95 37 48 37 95 37 c
153 37 194 54.33 218 89 c
232.67 110.33 240 159 240 235 c
240 1178 240 235 240 1178 c
200.67 1224 170.83 1254.33 150.5 1269 c
130.17 1283.67 100.33 1297.33 61 1310 c
41.67 1316 12.33 1319 -27 1319 c
-27 1356 -27 1319 -27 1356 c
closepath } bind def
/s81 {
902 -15 m
970 -132.33 1043.5 -218.67 1122.5 -274 c
1201.5 -329.33 1291.33 -361 1392 -369 c
1392 -401 1392 -369 1392 -401 c
1300 -397.67 1201.67 -379.17 1097 -345.5 c
992.33 -311.83 893.17 -265.17 799.5 -205.5 c
705.83 -145.83 625 -82.33 557 -15 c
461 23.67 385 64.67 329 108 c
247.67 172.67 184.5 252.17 139.5 346.5 c
94.5 440.83 72 552.33 72 681 c
72 883.67 137.67 1052 269 1186 c
400.33 1320 559.33 1387 746 1387 c
923.33 1387 1076.83 1319.83 1206.5 1185.5 c
1336.17 1051.17 1401 881.67 1401 677 c
1401 511 1354.83 365.33 1262.5 240 c
1170.17 114.67 1050 29.67 902 -15 c
closepath 734 1310 m
612.67 1310 515 1266.67 441 1180 c
347.67 1071.33 301 905 301 681 c
301 461.67 348.33 292.67 443 174 c
516.33 82.67 613.33 37 734 37 c
859.33 37 960.33 82.67 1037 174 c
1127 282 1172 441.33 1172 652 c
1172 814 1147.33 950.33 1098 1061 c
1060 1146.33 1009.5 1209.17 946.5 1249.5 c
883.5 1289.83 812.67 1310 734 1310 c
closepath } bind def
/s98 {
315 758 m
403.67 881.33 499.33 943 602 943 c
696 943 778 902.83 848 822.5 c
918 742.17 953 632.33 953 493 c
953 330.33 899 199.33 791 100 c
698.33 14.67 595 -28 481 -28 c
427.67 -28 373.5 -18.33 318.5 1 c
263.5 20.33 207.33 49.33 150 88 c
150 1037 150 88 150 1037 c
150 1141 147.5 1205 142.5 1229 c
137.5 1253 129.67 1269.33 119 1278 c
108.33 1286.67 95 1291 79 1291 c
60.33 1291 37 1285.67 9 1275 c
-5 1310 9 1275 -5 1310 c
270 1422 -5 1310 270 1422 c
315 1422 270 1422 315 1422 c
315 758 315 1422 315 758 c
closepath 315 694 m
315 146 315 694 315 146 c
349 112.67 384.17 87.5 420.5 70.5 c
456.83 53.5 494 45 532 45 c
592.67 45 649.17 78.33 701.5 145 c
753.83 211.67 780 308.67 780 436 c
780 553.33 753.83 643.5 701.5 706.5 c
649.17 769.5 589.67 801 523 801 c
487.67 801 452.33 792 417 774 c
390.33 760.67 356.33 734 315 694 c
closepath } bind def
/s101 {
218 571 m
217.33 435 250.33 328.33 317 251 c
383.67 173.67 462 135 552 135 c
612 135 664.17 151.5 708.5 184.5 c
752.83 217.5 790 274 820 354 c
851 334 820 354 851 334 c
837 242.67 796.33 159.5 729 84.5 c
661.67 9.5 577.33 -28 476 -28 c
366 -28 271.83 14.83 193.5 100.5 c
115.17 186.17 76 301.33 76 446 c
76 602.67 116.17 724.83 196.5 812.5 c
276.83 900.17 377.67 944 499 944 c
601.67 944 686 910.17 752 842.5 c
818 774.83 851 684.33 851 571 c
218 571 851 571 218 571 c
closepath 218 629 m
642 629 218 629 642 629 c
638.67 687.67 631.67 729 621 753 c
604.33 790.33 579.5 819.67 546.5 841 c
513.5 862.33 479 873 443 873 c
387.67 873 338.17 851.5 294.5 808.5 c
250.83 765.5 225.33 705.67 218 629 c
closepath } bind def
/s102 {
422 844 m
422 242 422 844 422 242 c
422 156.67 431.33 102.67 450 80 c
474.67 50.67 507.67 36 549 36 c
632 36 549 36 632 36 c
632 0 632 36 632 0 c
85 0 632 0 85 0 c
85 36 85 0 85 36 c
126 36 85 36 126 36 c
152.67 36 177 42.67 199 56 c
221 69.33 236.17 87.33 244.5 110 c
252.83 132.67 257 176.67 257 242 c
257 844 257 242 257 844 c
79 844 257 844 79 844 c
79 916 79 844 79 916 c
257 916 79 916 257 916 c
257 976 257 916 257 976 c
257 1067.33 271.67 1144.67 301 1208 c
330.33 1271.33 375.17 1322.5 435.5 1361.5 c
495.83 1400.5 563.67 1420 639 1420 c
709 1420 773.33 1397.33 832 1352 c
870.67 1322 890 1288.33 890 1251 c
890 1231 881.33 1212.17 864 1194.5 c
846.67 1176.83 828 1168 808 1168 c
792.67 1168 776.5 1173.5 759.5 1184.5 c
742.5 1195.5 721.67 1219.17 697 1255.5 c
672.33 1291.83 649.67 1316.33 629 1329 c
608.33 1341.67 585.33 1348 560 1348 c
529.33 1348 503.33 1339.83 482 1323.5 c
460.67 1307.17 445.33 1281.83 436 1247.5 c
426.67 1213.17 422 1124.67 422 982 c
422 916 422 982 422 916 c
658 916 422 916 658 916 c
658 844 658 916 658 844 c
422 844 658 844 422 844 c
closepath } bind def
/s103 {
309 334 m
253 361.33 210 399.5 180 448.5 c
150 497.5 135 551.67 135 611 c
135 701.67 169.17 779.67 237.5 845 c
305.83 910.33 393.33 943 500 943 c
587.33 943 663 921.67 727 879 c
921 879 727 879 921 879 c
949.67 879 966.33 878.17 971 876.5 c
975.67 874.83 979 872 981 868 c
985 862 987 851.33 987 836 c
987 818.67 985.33 806.67 982 800 c
980 796.67 976.5 794 971.5 792 c
966.5 790 949.67 789 921 789 c
802 789 921 789 802 789 c
839.33 741 858 679.67 858 605 c
858 519.67 825.33 446.67 760 386 c
694.67 325.33 607 295 497 295 c
451.67 295 405.33 301.67 358 315 c
328.67 289.67 308.83 267.5 298.5 248.5 c
288.17 229.5 283 213.33 283 200 c
283 188.67 288.5 177.67 299.5 167 c
310.5 156.33 332 148.67 364 144 c
382.67 141.33 429.33 139 504 137 c
641.33 133.67 730.33 129 771 123 c
833 114.33 882.5 91.33 919.5 54 c
956.5 16.67 975 -29.33 975 -84 c
975 -159.33 939.67 -230 869 -296 c
765 -393.33 629.33 -442 462 -442 c
333.33 -442 224.67 -413 136 -355 c
86 -321.67 61 -287 61 -251 c
61 -235 64.67 -219 72 -203 c
83.33 -178.33 106.67 -144 142 -100 c
146.67 -94 180.67 -58 244 8 c
209.33 28.67 184.83 47.17 170.5 63.5 c
156.17 79.83 149 98.33 149 119 c
149 142.33 158.5 169.67 177.5 201 c
196.5 232.33 240.33 276.67 309 334 c
closepath 483 895 m
433.67 895 392.33 875.33 359 836 c
325.67 796.67 309 736.33 309 655 c
309 549.67 331.67 468 377 410 c
411.67 366 455.67 344 509 344 c
559.67 344 601.33 363 634 401 c
666.67 439 683 498.67 683 580 c
683 686 660 769 614 829 c
580 873 536.33 895 483 895 c
closepath 299 0 m
267.67 -34 244 -65.67 228 -95 c
212 -124.33 204 -151.33 204 -176 c
204 -208 223.33 -236 262 -260 c
328.67 -301.33 425 -322 551 -322 c
671 -322 759.5 -300.83 816.5 -258.5 c
873.5 -216.17 902 -171 902 -123 c
902 -88.33 885 -63.67 851 -49 c
816.33 -34.33 747.67 -25.67 645 -23 c
495 -19 379.67 -11.33 299 0 c
closepath } bind def
/s104 {
333 1422 m
333 752 333 1422 333 752 c
407 833.33 465.67 885.5 509 908.5 c
552.33 931.5 595.67 943 639 943 c
691 943 735.67 928.67 773 900 c
810.33 871.33 838 826.33 856 765 c
868.67 722.33 875 644.33 875 531 c
875 207 875 531 875 207 c
875 149 879.67 109.33 889 88 c
895.67 72 907 59.33 923 50 c
939 40.67 968.33 36 1011 36 c
1011 0 1011 36 1011 0 c
561 0 1011 0 561 0 c
561 36 561 0 561 36 c
582 36 561 36 582 36 c
624.67 36 654.33 42.5 671 55.5 c
687.67 68.5 699.33 87.67 706 113 c
708 123.67 709 155 709 207 c
709 531 709 207 709 531 c
709 631 703.83 696.67 693.5 728 c
683.17 759.33 666.67 782.83 644 798.5 c
621.33 814.17 594 822 562 822 c
529.33 822 495.33 813.33 460 796 c
424.67 778.67 382.33 743.67 333 691 c
333 207 333 691 333 207 c
333 144.33 336.5 105.33 343.5 90 c
350.5 74.67 363.5 61.83 382.5 51.5 c
401.5 41.17 434.33 36 481 36 c
481 0 481 36 481 0 c
27 0 481 0 27 0 c
27 36 27 0 27 36 c
67.67 36 99.67 42.33 123 55 c
136.33 61.67 147 74.33 155 93 c
163 111.67 167 149.67 167 207 c
167 1036 167 207 167 1036 c
167 1140.67 164.5 1205 159.5 1229 c
154.5 1253 146.83 1269.33 136.5 1278 c
126.17 1286.67 112.33 1291 95 1291 c
81 1291 58.33 1285.67 27 1275 c
13 1310 27 1275 13 1310 c
287 1422 13 1310 287 1422 c
333 1422 287 1422 333 1422 c
closepath } bind def
/s105 {
297 1422 m
325 1422 348.83 1412.17 368.5 1392.5 c
388.17 1372.83 398 1349 398 1321 c
398 1293 388.17 1269 368.5 1249 c
348.83 1229 325 1219 297 1219 c
269 1219 245 1229 225 1249 c
205 1269 195 1293 195 1321 c
195 1349 204.83 1372.83 224.5 1392.5 c
244.17 1412.17 268.33 1422 297 1422 c
closepath 380 943 m
380 207 380 943 380 207 c
380 149.67 384.17 111.5 392.5 92.5 c
400.83 73.5 413.17 59.33 429.5 50 c
445.83 40.67 475.67 36 519 36 c
519 0 519 36 519 0 c
74 0 519 0 74 0 c
74 36 74 0 74 36 c
118.67 36 148.67 40.33 164 49 c
179.33 57.67 191.5 72 200.5 92 c
209.5 112 214 150.33 214 207 c
214 560 214 207 214 560 c
214 659.33 211 723.67 205 753 c
200.33 774.33 193 789.17 183 797.5 c
173 805.83 159.33 810 142 810 c
123.33 810 100.67 805 74 795 c
60 831 74 795 60 831 c
336 943 60 831 336 943 c
380 943 336 943 380 943 c
closepath } bind def
/s110 {
331 749 m
438.33 878.33 540.67 943 638 943 c
688 943 731 930.5 767 905.5 c
803 880.5 831.67 839.33 853 782 c
867.67 742 875 680.67 875 598 c
875 207 875 598 875 207 c
875 149 879.67 109.67 889 89 c
896.33 72.33 908.17 59.33 924.5 50 c
940.83 40.67 971 36 1015 36 c
1015 0 1015 36 1015 0 c
562 0 1015 0 562 0 c
562 36 562 0 562 36 c
581 36 562 36 581 36 c
623.67 36 653.5 42.5 670.5 55.5 c
687.5 68.5 699.33 87.67 706 113 c
708.67 123 710 154.33 710 207 c
710 582 710 207 710 582 c
710 665.33 699.17 725.83 677.5 763.5 c
655.83 801.17 619.33 820 568 820 c
488.67 820 409.67 776.67 331 690 c
331 207 331 690 331 207 c
331 145 334.67 106.67 342 92 c
351.33 72.67 364.17 58.5 380.5 49.5 c
396.83 40.5 430 36 480 36 c
480 0 480 36 480 0 c
27 0 480 0 27 0 c
27 36 27 0 27 36 c
47 36 27 36 47 36 c
93.67 36 125.17 47.83 141.5 71.5 c
157.83 95.17 166 140.33 166 207 c
166 547 166 207 166 547 c
166 657 163.5 724 158.5 748 c
153.5 772 145.83 788.33 135.5 797 c
125.17 805.67 111.33 810 94 810 c
75.33 810 53 805 27 795 c
12 831 27 795 12 831 c
288 943 12 831 288 943 c
331 943 288 943 331 943 c
331 749 331 943 331 749 c
closepath } bind def
/s111 {
512 943 m
650.67 943 762 890.33 846 785 c
917.33 695 953 591.67 953 475 c
953 393 933.33 310 894 226 c
854.67 142 800.5 78.67 731.5 36 c
662.5 -6.67 585.67 -28 501 -28 c
363 -28 253.33 27 172 137 c
103.33 229.67 69 333.67 69 449 c
69 533 89.83 616.5 131.5 699.5 c
173.17 782.5 228 843.83 296 883.5 c
364 923.17 436 943 512 943 c
closepath 481 878 m
445.67 878 410.17 867.5 374.5 846.5 c
338.83 825.5 310 788.67 288 736 c
266 683.33 255 615.67 255 533 c
255 399.67 281.5 284.67 334.5 188 c
387.5 91.33 457.33 43 544 43 c
608.67 43 662 69.67 704 123 c
746 176.33 767 268 767 398 c
767 560.67 732 688.67 662 782 c
614.67 846 554.33 878 481 878 c
closepath } bind def
/s114 {
332 943 m
332 737 332 943 332 737 c
408.67 874.33 487.33 943 568 943 c
604.67 943 635 931.83 659 909.5 c
683 887.17 695 861.33 695 832 c
695 806 686.33 784 669 766 c
651.67 748 631 739 607 739 c
583.67 739 557.5 750.5 528.5 773.5 c
499.5 796.5 478 808 464 808 c
452 808 439 801.33 425 788 c
395 760.67 364 715.67 332 653 c
332 214 332 653 332 214 c
332 163.33 338.33 125 351 99 c
359.67 81 375 66 397 54 c
419 42 450.67 36 492 36 c
492 0 492 36 492 0 c
23 0 492 0 23 0 c
23 36 23 0 23 36 c
69.67 36 104.33 43.33 127 58 c
143.67 68.67 155.33 85.67 162 109 c
165.33 120.33 167 152.67 167 206 c
167 561 167 206 167 561 c
167 667.67 164.83 731.17 160.5 751.5 c
156.17 771.83 148.17 786.67 136.5 796 c
124.83 805.33 110.33 810 93 810 c
72.33 810 49 805 23 795 c
13 831 23 795 13 831 c
290 943 13 831 290 943 c
332 943 290 943 332 943 c
closepath } bind def
/s115 {
656 943 m
656 631 656 943 656 631 c
623 631 656 631 623 631 c
597.67 729 565.17 795.67 525.5 831 c
485.83 866.33 435.33 884 374 884 c
327.33 884 289.67 871.67 261 847 c
232.33 822.33 218 795 218 765 c
218 727.67 228.67 695.67 250 669 c
270.67 641.67 312.67 612.67 376 582 c
522 511 376 582 522 511 c
657.33 445 725 358 725 250 c
725 166.67 693.5 99.5 630.5 48.5 c
567.5 -2.5 497 -28 419 -28 c
363 -28 299 -18 227 2 c
205 8.67 187 12 173 12 c
157.67 12 145.67 3.33 137 -14 c
104 -14 137 -14 104 -14 c
104 313 104 -14 104 313 c
137 313 104 313 137 313 c
155.67 219.67 191.33 149.33 244 102 c
296.67 54.67 355.67 31 421 31 c
467 31 504.5 44.5 533.5 71.5 c
562.5 98.5 577 131 577 169 c
577 215 560.83 253.67 528.5 285 c
496.17 316.33 431.67 356 335 404 c
238.33 452 175 495.33 145 534 c
115 572 100 620 100 678 c
100 753.33 125.83 816.33 177.5 867 c
229.17 917.67 296 943 378 943 c
414 943 457.67 935.33 509 920 c
543 910 565.67 905 577 905 c
587.67 905 596 907.33 602 912 c
608 916.67 615 927 623 943 c
656 943 623 943 656 943 c
closepath } bind def
/s116 {
330 1217 m
330 916 330 1217 330 916 c
544 916 330 916 544 916 c
544 846 544 916 544 846 c
330 846 544 846 330 846 c
330 252 330 846 330 252 c
330 192.67 338.5 152.67 355.5 132 c
372.5 111.33 394.33 101 421 101 c
443 101 464.33 107.83 485 121.5 c
505.67 135.17 521.67 155.33 533 182 c
572 182 533 182 572 182 c
548.67 116.67 515.67 67.5 473 34.5 c
430.33 1.5 386.33 -15 341 -15 c
310.33 -15 280.33 -6.5 251 10.5 c
221.67 27.5 200 51.83 186 83.5 c
172 115.17 165 164 165 230 c
165 846 165 230 165 846 c
20 846 165 846 20 846 c
20 879 20 846 20 879 c
56.67 893.67 94.17 918.5 132.5 953.5 c
170.83 988.5 205 1030 235 1078 c
250.33 1103.33 271.67 1149.67 299 1217 c
330 1217 299 1217 330 1217 c
closepath } bind def
/s121 {
12 916 m
439 916 12 916 439 916 c
439 879 439 916 439 879 c
418 879 439 879 418 879 c
388 879 365.5 872.5 350.5 859.5 c
335.5 846.5 328 830.33 328 811 c
328 785 339 749 361 703 c
584 241 361 703 584 241 c
789 747 584 241 789 747 c
800.33 774.33 806 801.33 806 828 c
806 840 803.67 849 799 855 c
793.67 862.33 785.33 868.17 774 872.5 c
762.67 876.83 742.67 879 714 879 c
714 916 714 879 714 916 c
1012 916 714 916 1012 916 c
1012 879 1012 916 1012 879 c
987.33 876.33 968.33 871 955 863 c
941.67 855 927 840 911 818 c
905 808.67 893.67 783 877 741 c
504 -173 877 741 504 -173 c
468 -261.67 420.83 -328.67 362.5 -374 c
304.17 -419.33 248 -442 194 -442 c
154.67 -442 122.33 -430.67 97 -408 c
71.67 -385.33 59 -359.33 59 -330 c
59 -302 68.17 -279.5 86.5 -262.5 c
104.83 -245.5 130 -237 162 -237 c
184 -237 214 -244.33 252 -259 c
278.67 -269 295.33 -274 302 -274 c
322 -274 343.83 -263.67 367.5 -243 c
391.17 -222.33 415 -182.33 439 -123 c
504 36 439 -123 504 36 c
175 727 504 36 175 727 c
165 747.67 149 773.33 127 804 c
110.33 827.33 96.67 843 86 851 c
70.67 861.67 46 871 12 879 c
12 916 12 879 12 916 c
closepath } bind def
end
/BuildGlyph {
 exch dup /Metrics get 2 index get 0 setcharwidth
/CharProcs get exch 2 copy known not{pop/.notdef}if get exec fill}bind def
/BuildChar {
1 index /Encoding get exch get
1 index /BuildGlyph get exec
} bind def
currentdict end /MC2_Times-New-Roman exch definefont pop
%%EndFont
/clipproc{clippath{[{/m cvx}{/l cvx}{/c cvx}{/cp cvx}pathforall}stopped
{cleartomark[pathbbox exch 3 i sub exch 2 i sub/rectpath cvx}if]np}bd
/iclmtx mtx cmtx def/iclpath clipproc xd/clinit{pathproc initclip np iclpath cl np exec}bd
/clmove{pathproc 3 1 roll clippath pathproc 2 i neg 2 i neg tr initclip np exec cl tr np exec}bd
/clrect[gs np iclpath{pathbbox}stopped{0 0 700.55 469.45 }if gr]def
/cloper{mtx cmtx iclmtx smtx exch exec smtx}bd
/cland{{exch cvx exec}cloper}bd
/clcopy{{exch clinit cvx exec}cloper}bd
/cldiff{{exch pathbbox 4 -1 roll clrect 0 get 2 copy gt{exch}if pop 4 1 roll
 3 -1 roll clrect 1 get 2 copy gt{exch}if pop 3 1 roll
 2 -1 roll clrect 2 get 2 copy lt{exch}if pop 2 1 roll
 1 -1 roll clrect 3 get 2 copy lt{exch}if pop 1 1 roll
 exch 3 i sub exch 2 i sub rectpath cvx exec}cloper}bd
/icl{{clinit}cloper}bd
0.368673 0.369459 sc
-91.79 241 tr

/initmtx mtx cmtx def
initmtx smtx
[1.0000 0.0000 0.0000 1.0000 0.0000 0.0000 ] concat
 [0.65098 -0 0 -0.649606 0 1270.63] concat
gs
576 377 m
2769 377 l
2 sw
1 sj
1 scap
st
2769 377 m
2769 2053 l
st
576 2053 m
2769 2053 l
6 sw
2 scap
st
576 2053 m
576 2068 l
0 scap
st
942 2053 m
942 2068 l
st
1307 2053 m
1307 2068 l
st
1673 2053 m
1673 2068 l
st
2038 2053 m
2038 2068 l
st
2404 2053 m
2404 2068 l
st
2769 2053 m
2769 2068 l
st
759 2053 m
759 2084 l
st
1124 2053 m
1124 2084 l
st
1490 2053 m
1490 2084 l
st
1855 2053 m
1855 2084 l
st
2221 2053 m
2221 2084 l
st
2586 2053 m
2586 2084 l
st
576 2053 m
576 377 l
2 scap
st
576 1958 m
561 1958 l
0 scap
st
576 1767 m
561 1767 l
st
576 1577 m
561 1577 l
st
576 1386 m
561 1386 l
st
576 1196 m
561 1196 l
st
576 1006 m
561 1006 l
st
576 815 m
561 815 l
st
576 625 m
561 625 l
st
576 434 m
561 434 l
st
576 2053 m
545 2053 l
st
576 1863 m
545 1863 l
st
576 1672 m
545 1672 l
st
576 1482 m
545 1482 l
st
576 1291 m
545 1291 l
st
576 1101 m
545 1101 l
st
576 910 m
545 910 l
st
576 720 m
545 720 l
st
576 529 m
545 529 l
st
gs
gr
gs
gr
gs
1 -1 sc
/MC1_Times-New-Roman 97 self 694 -2180 m
(0%)[49 81 ] xs
1 -1 sc
gr
gs
gr
gs
gr
gs
1 -1 sc
/MC1_Times-New-Roman 97 self 1035 -2180 m
(20%)[49 49 81 ] xs
1 -1 sc
gr
gs
gr
gs
gr
gs
1 -1 sc
/MC1_Times-New-Roman 97 self 1401 -2180 m
(40%)[49 49 81 ] xs
1 -1 sc
gr
gs
gr
gs
gr
gs
1 -1 sc
/MC1_Times-New-Roman 97 self 1766 -2180 m
(60%)[49 49 81 ] xs
1 -1 sc
gr
gs
gr
gs
gr
gs
1 -1 sc
/MC1_Times-New-Roman 97 self 2132 -2180 m
(80%)[49 49 81 ] xs
1 -1 sc
gr
gs
gr
gs
gr
gs
1 -1 sc
/MC1_Times-New-Roman 97 self 2472 -2180 m
(100%)[49 49 49 81 ] xs
1 -1 sc
gr
gs
gr
gs
gr
gs
gs
1 -1 sc
286 -2173 tr
30 ro
/MC2_Times-New-Roman 97 self 0 0 m
(-50000)[32 49 49 49 49 49 ] xs
1 -1 sc
gr
gr
gs
gr
gs
gr
gs
gs
1 -1 sc
286 -1983 tr
30 ro
/MC2_Times-New-Roman 97 self 0 0 m
(-40000)[32 49 49 49 49 49 ] xs
1 -1 sc
gr
gr
gs
gr
gs
gr
gs
gs
1 -1 sc
286 -1792 tr
30 ro
/MC2_Times-New-Roman 97 self 0 0 m
(-30000)[32 49 49 49 49 49 ] xs
1 -1 sc
gr
gr
gs
gr
gs
gr
gs
gs
1 -1 sc
286 -1602 tr
30 ro
/MC2_Times-New-Roman 97 self 0 0 m
(-20000)[32 49 49 49 49 49 ] xs
1 -1 sc
gr
gr
gs
gr
gs
gr
gs
gs
1 -1 sc
286 -1411 tr
30 ro
/MC2_Times-New-Roman 97 self 0 0 m
(-10000)[32 49 49 49 49 49 ] xs
1 -1 sc
gr
gr
gs
gr
gs
gr
gs
gs
1 -1 sc
484 -1107 tr
30 ro
/MC2_Times-New-Roman 97 self 0 0 m
(0)[49 ] xs
1 -1 sc
gr
gr
gs
gr
gs
gr
gs
gs
1 -1 sc
314 -1014 tr
30 ro
/MC2_Times-New-Roman 97 self 0 0 m
(10000)[49 49 49 49 49 ] xs
1 -1 sc
gr
gr
gs
gr
gs
gr
gs
gs
1 -1 sc
314 -824 tr
30 ro
/MC2_Times-New-Roman 97 self 0 0 m
(20000)[49 49 49 49 49 ] xs
1 -1 sc
gr
gr
gs
gr
gs
gr
gs
gs
1 -1 sc
314 -633 tr
30 ro
/MC2_Times-New-Roman 97 self 0 0 m
(30000)[49 49 49 49 49 ] xs
1 -1 sc
gr
gr
gs
gr
gs
gr
gs
gr
gs
gr
gs
gr
gs
gr
gs
gr
gs
gr
gs
gr
gs
gr
gs
gr
gs
gr
gs
gr
gs
gr
gs
gr
gs
gr
gs
gr
gs
gr
gs
gr
gs
gr
gs
gr
gs
gr
gs
gr
gs
gr
gs
gr
gs
gr
gs
gr
gs
gr
gs
gr
gs
gr
gs
gr
gs
gr
gs
gr
gs
gr
gs
gr
gs
gr
gs
gr
gs
gr
gs
gr
gs
pathproc 576 386 2194 1668 np rectpath
/eocl cland
np exec
613 1721 m
905 1721 l
905 2053 l
613 2053 l
cp
gs
0.502 1 1 rgb
eofi
gr
2 sw
0.502 1 1 rgb
1 scap
st
614 1722 m
614 1722 l
st
614 1771 m
663 1722 l
st
614 1820 m
712 1722 l
st
614 1869 m
761 1722 l
st
614 1918 m
810 1722 l
st
614 1967 m
859 1722 l
st
614 2016 m
904 1726 l
st
627 2052 m
904 1775 l
st
676 2052 m
904 1824 l
st
725 2052 m
904 1873 l
st
774 2052 m
904 1922 l
st
823 2052 m
904 1971 l
st
872 2052 m
904 2020 l
st
613 1721 m
905 1721 l
st
905 1721 m
905 2053 l
st
613 2053 m
613 1721 l
st
978 1540 m
1270 1540 l
1270 2053 l
978 2053 l
cp
gs
eofi
gr
st
979 1541 m
979 1541 l
st
979 1590 m
1028 1541 l
st
979 1639 m
1077 1541 l
st
979 1688 m
1126 1541 l
st
979 1737 m
1175 1541 l
st
979 1786 m
1224 1541 l
st
979 1835 m
1269 1545 l
st
979 1884 m
1269 1594 l
st
979 1933 m
1269 1643 l
st
979 1982 m
1269 1692 l
st
979 2031 m
1269 1741 l
st
1007 2052 m
1269 1790 l
st
1056 2052 m
1269 1839 l
st
1105 2052 m
1269 1888 l
st
1154 2052 m
1269 1937 l
st
1203 2052 m
1269 1986 l
st
1252 2052 m
1269 2035 l
st
978 1540 m
1270 1540 l
st
1270 1540 m
1270 2053 l
st
978 2053 m
978 1540 l
st
1344 1350 m
1636 1350 l
1636 2053 l
1344 2053 l
cp
gs
eofi
gr
st
1345 1351 m
1345 1351 l
st
1345 1400 m
1394 1351 l
st
1345 1449 m
1443 1351 l
st
1345 1498 m
1492 1351 l
st
1345 1547 m
1541 1351 l
st
1345 1596 m
1590 1351 l
st
1345 1645 m
1635 1355 l
st
1345 1694 m
1635 1404 l
st
1345 1743 m
1635 1453 l
st
1345 1792 m
1635 1502 l
st
1345 1841 m
1635 1551 l
st
1345 1890 m
1635 1600 l
st
1345 1939 m
1635 1649 l
st
1345 1988 m
1635 1698 l
st
1345 2037 m
1635 1747 l
st
1379 2052 m
1635 1796 l
st
1428 2052 m
1635 1845 l
st
1477 2052 m
1635 1894 l
st
1526 2052 m
1635 1943 l
st
1575 2052 m
1635 1992 l
st
1624 2052 m
1635 2041 l
st
1344 1350 m
1636 1350 l
st
1636 1350 m
1636 2053 l
st
1344 2053 m
1344 1350 l
st
1709 1168 m
2001 1168 l
2001 2053 l
1709 2053 l
cp
gs
eofi
gr
st
1710 1169 m
1710 1169 l
st
1710 1218 m
1759 1169 l
st
1710 1267 m
1808 1169 l
st
1710 1316 m
1857 1169 l
st
1710 1365 m
1906 1169 l
st
1710 1414 m
1955 1169 l
st
1710 1463 m
2000 1173 l
st
1710 1512 m
2000 1222 l
st
1710 1561 m
2000 1271 l
st
1710 1610 m
2000 1320 l
st
1710 1659 m
2000 1369 l
st
1710 1708 m
2000 1418 l
st
1710 1757 m
2000 1467 l
st
1710 1806 m
2000 1516 l
st
1710 1855 m
2000 1565 l
st
1710 1904 m
2000 1614 l
st
1710 1953 m
2000 1663 l
st
1710 2002 m
2000 1712 l
st
1710 2051 m
2000 1761 l
st
1758 2052 m
2000 1810 l
st
1807 2052 m
2000 1859 l
st
1856 2052 m
2000 1908 l
st
1905 2052 m
2000 1957 l
st
1954 2052 m
2000 2006 l
st
1709 1168 m
2001 1168 l
st
2001 1168 m
2001 2053 l
st
1709 2053 m
1709 1168 l
st
2075 978 m
2367 978 l
2367 2053 l
2075 2053 l
cp
gs
eofi
gr
st
2076 979 m
2076 979 l
st
2076 1028 m
2125 979 l
st
2076 1077 m
2174 979 l
st
2076 1126 m
2223 979 l
st
2076 1175 m
2272 979 l
st
2076 1224 m
2321 979 l
st
2076 1273 m
2366 983 l
st
2076 1322 m
2366 1032 l
st
2076 1371 m
2366 1081 l
st
2076 1420 m
2366 1130 l
st
2076 1469 m
2366 1179 l
st
2076 1518 m
2366 1228 l
st
2076 1567 m
2366 1277 l
st
2076 1616 m
2366 1326 l
st
2076 1665 m
2366 1375 l
st
2076 1714 m
2366 1424 l
st
2076 1763 m
2366 1473 l
st
2076 1812 m
2366 1522 l
st
2076 1861 m
2366 1571 l
st
2076 1910 m
2366 1620 l
st
2076 1959 m
2366 1669 l
st
2076 2008 m
2366 1718 l
st
2081 2052 m
2366 1767 l
st
2130 2052 m
2366 1816 l
st
2179 2052 m
2366 1865 l
st
2228 2052 m
2366 1914 l
st
2277 2052 m
2366 1963 l
st
2326 2052 m
2366 2012 l
st
2075 978 m
2367 978 l
st
2367 978 m
2367 2053 l
st
2075 2053 m
2075 978 l
st
2440 791 m
2732 791 l
2732 2053 l
2440 2053 l
cp
gs
eofi
gr
st
2441 792 m
2441 792 l
st
2441 841 m
2490 792 l
st
2441 890 m
2539 792 l
st
2441 939 m
2588 792 l
st
2441 988 m
2637 792 l
st
2441 1037 m
2686 792 l
st
2441 1086 m
2731 796 l
st
2441 1135 m
2731 845 l
st
2441 1184 m
2731 894 l
st
2441 1233 m
2731 943 l
st
2441 1282 m
2731 992 l
st
2441 1331 m
2731 1041 l
st
2441 1380 m
2731 1090 l
st
2441 1429 m
2731 1139 l
st
2441 1478 m
2731 1188 l
st
2441 1527 m
2731 1237 l
st
2441 1576 m
2731 1286 l
st
2441 1625 m
2731 1335 l
st
2441 1674 m
2731 1384 l
st
2441 1723 m
2731 1433 l
st
2441 1772 m
2731 1482 l
st
2441 1821 m
2731 1531 l
st
2441 1870 m
2731 1580 l
st
2441 1919 m
2731 1629 l
st
2441 1968 m
2731 1678 l
st
2441 2017 m
2731 1727 l
st
2455 2052 m
2731 1776 l
st
2504 2052 m
2731 1825 l
st
2553 2052 m
2731 1874 l
st
2602 2052 m
2731 1923 l
st
2651 2052 m
2731 1972 l
st
2700 2052 m
2731 2021 l
st
2440 791 m
2732 791 l
st
2732 791 m
2732 2053 l
st
2440 2053 m
2440 791 l
st
gr
gs
pathproc 576 377 2194 1677 np rectpath
/eocl cland
np exec
785 1838 m
1098 1391 l
16 sw
0 0 1 rgb
1 scap
st
1158 1322 m
1456 1043 l
st
1528 987 m
1817 797 l
st
1897 752 m
2179 617 l
st
2265 582 m
2542 489 l
st
759 1840 m
793 1864 l
780 1905 l
737 1905 l
724 1864 l
cp
gs
eofi
gr
4 sw
st
1124 1317 m
1158 1341 l
1145 1382 l
1102 1382 l
1089 1341 l
cp
gs
eofi
gr
st
1490 976 m
1524 1000 l
1511 1041 l
1468 1041 l
1455 1000 l
cp
gs
eofi
gr
st
1855 736 m
1889 760 l
1876 801 l
1833 801 l
1820 760 l
cp
gs
eofi
gr
st
2221 561 m
2255 585 l
2242 626 l
2199 626 l
2186 585 l
cp
gs
eofi
gr
st
2586 438 m
2620 462 l
2607 503 l
2564 503 l
2551 462 l
cp
gs
eofi
gr
st
gr
2769 2053 m
2769 386 l
2 scap
st
2769 2053 m
2754 2053 l
0 scap
st
2769 1720 m
2754 1720 l
st
2769 1386 m
2754 1386 l
st
2769 1053 m
2754 1053 l
st
2769 719 m
2754 719 l
st
2769 386 m
2754 386 l
st
2769 1886 m
2738 1886 l
st
2769 1553 m
2738 1553 l
st
2769 1219 m
2738 1219 l
st
2769 886 m
2738 886 l
st
2769 553 m
2738 553 l
st
gs
gr
gs
gr
gs
1 -1 sc
/MC1_Times-New-Roman 97 self 2803 -1914 m
(4.6)[49 24 49 ] xs
1 -1 sc
gr
gs
gr
gs
gr
gs
1 -1 sc
/MC1_Times-New-Roman 97 self 2803 -1581 m
(4.8)[49 24 49 ] xs
1 -1 sc
gr
gs
gr
gs
gr
gs
1 -1 sc
/MC1_Times-New-Roman 97 self 2803 -1247 m
(5.0)[49 24 49 ] xs
1 -1 sc
gr
gs
gr
gs
gr
gs
1 -1 sc
/MC1_Times-New-Roman 97 self 2803 -914 m
(5.2)[49 24 49 ] xs
1 -1 sc
gr
gs
gr
gs
gr
gs
1 -1 sc
/MC1_Times-New-Roman 97 self 2803 -581 m
(5.4)[49 24 49 ] xs
1 -1 sc
gr
gs
gr
gs
gr
gs
gr
gs
gr
gs
gr
gs
gr
gs
gr
gs
gr
gs
gr
gs
gr
gs
gr
gs
gr
gs
gr
gs
gr
gs
gr
gs
gr
gs
gr
gs
gr
gs
gr
1732 1747 m
2656 1747 l
2656 1884 l
1732 1884 l
cp
gs
1 1 1 rgb
eofi
gr
2 sw
0 sj
2 scap
st
gs
gs
gr
gs
gs
1749 1764 m
1963 1764 l
1963 1868 l
1749 1868 l
cp
gs
0.502 1 1 rgb
eofi
gr
0.502 1 1 rgb
1 sj
1 scap
st
1750 1765 m
1750 1765 l
st
1750 1814 m
1799 1765 l
st
1750 1863 m
1848 1765 l
st
1795 1867 m
1897 1765 l
st
1844 1867 m
1946 1765 l
st
1893 1867 m
1962 1798 l
st
1942 1867 m
1962 1847 l
st
1749 1764 m
1963 1764 l
1963 1868 l
1749 1868 l
1749 1764 l
st
gr
gr
1 -1 sc
/MC1_Times-New-Roman 97 self 1966 -1848 m
( QoG \(by NIMA\))[24 70 49 70 24 32 49 46 24 70 31 86 70 32 ] xs
1 -1 sc
gr
gs
gs
1 -1 sc
3029 -1548 tr
90 ro
/MC2_Times-New-Roman 97 self 0 0 m
(QoG \(by NIMA\))[70 49 70 24 32 49 49 24 70 32 86 70 32 ] xs
1 -1 sc
gr
gr
gs
gs
1 -1 sc
237 -1634 tr
90 ro
/MC2_Times-New-Roman 97 self 0 0 m
(QoE of the Designers)[70 49 59 24 49 32 24 27 49 43 24 70 43 38 27 49 49 43 32 38 ] xs
1 -1 sc
gr
gr
gs
1 -1 sc
/MC1_Times-New-Roman 97 self 1180 -2297 m
(Prompt Engineering Rate)[54 32 49 75 49 27 24 59 49 47 27 49 43 43 32 27 49 47 24 65 43 27 43 ] xs
1 -1 sc
gr
654 480 m
1762 480 l
1762 617 l
654 617 l
cp
gs
1 1 1 rgb
eofi
gr
st
gs
gs
gr
gs
gs
668 549 m
735 549 l
16 sw
0 0 1 rgb
1 sj
1 scap
st
821 549 m
888 549 l
st
gr
778 514 m
811 538 l
798 577 l
757 577 l
744 538 l
cp
gs
0 0 1 rgb
eofi
gr
4 sw
0 0 1 rgb
1 sj
1 scap
st
gr
1 -1 sc
/MC1_Times-New-Roman 97 self 888 -581 m
( QoE of the Designers)[24 70 49 59 24 49 32 24 27 49 43 24 70 43 38 27 47 49 43 32 38 ] xs
1 -1 sc
gr
gr
gs
gr
Save0 restore end
showpage
%%EOF
