This is BibTeX, Version 0.99d
Capacity: max_strings=200000, hash_size=200000, hash_prime=170003
The top-level auxiliary file: output-AIGX.aux
Reallocating 'name_of_file' (item size: 1) to 9 items.
The style file: IEEEtran.bst
I found no \bibdata command---while reading file output-AIGX.aux
Reallocating 'singl_function' (item size: 4) to 100 items.
Reallocating 'singl_function' (item size: 4) to 100 items.
Reallocating 'singl_function' (item size: 4) to 100 items.
Reallocating 'wiz_functions' (item size: 4) to 6000 items.
Reallocating 'singl_function' (item size: 4) to 100 items.
Warning--I didn't find a database entry for "du2023deep"
Warning--I didn't find a database entry for "zou2023wireless"
Warning--I didn't find a database entry for "ferrag2023revolutionizing"
Warning--I didn't find a database entry for "liuaigc"
Warning--I didn't find a database entry for "prompt"
Warning--I didn't find a database entry for "hao2022optimizing"
Warning--I didn't find a database entry for "PFMscollection"
Warning--I didn't find a database entry for "Khattak_2023_CVPR"
Warning--I didn't find a database entry for "VPT"
Warning--I didn't find a database entry for "liu2023semantic"
Warning--I didn't find a database entry for "destefanis2023preliminary"
Warning--I didn't find a database entry for "fewshot"
Warning--I didn't find a database entry for "jiang-etal-2020-know"
Warning--I didn't find a database entry for "chen2023netgpt"
Warning--I didn't find a database entry for "talebi2018nima"
-- IEEEtran.bst version 1.12 (2007/01/11) by Michael Shell.
-- http://www.michaelshell.org/tex/ieeetran/bibtex/
-- See the "IEEEtran_bst_HOWTO.pdf" manual for usage information.

Done.
You've used 0 entries,
            4024 wiz_defined-function locations,
            825 strings with 7456 characters,
and the built_in function-call counts, 103 in all, are:
= -- 0
> -- 0
< -- 0
+ -- 0
- -- 0
* -- 19
:= -- 26
add.period$ -- 0
call.type$ -- 0
change.case$ -- 0
chr.to.int$ -- 0
cite$ -- 0
duplicate$ -- 0
empty$ -- 1
format.name$ -- 0
if$ -- 3
int.to.chr$ -- 0
int.to.str$ -- 0
missing$ -- 0
newline$ -- 23
num.names$ -- 0
pop$ -- 0
preamble$ -- 1
purify$ -- 0
quote$ -- 2
skip$ -- 1
stack$ -- 0
substring$ -- 0
swap$ -- 0
text.length$ -- 0
text.prefix$ -- 0
top$ -- 5
type$ -- 0
warning$ -- 0
while$ -- 0
width$ -- 0
write$ -- 22
(There was 1 error message)
